images/acoustic_guitar/n02676566_10019.jpg landmarks/acoustic_guitar/n02676566_10019.box
images/acoustic_guitar/n02676566_1002.jpg landmarks/acoustic_guitar/n02676566_1002.box
images/acoustic_guitar/n02676566_10102.jpg landmarks/acoustic_guitar/n02676566_10102.box
images/acoustic_guitar/n02676566_10114.jpg landmarks/acoustic_guitar/n02676566_10114.box
images/acoustic_guitar/n02676566_1017.jpg landmarks/acoustic_guitar/n02676566_1017.box
images/acoustic_guitar/n02676566_10216.jpg landmarks/acoustic_guitar/n02676566_10216.box
images/acoustic_guitar/n02676566_10242.jpg landmarks/acoustic_guitar/n02676566_10242.box
images/acoustic_guitar/n02676566_10244.jpg landmarks/acoustic_guitar/n02676566_10244.box
images/acoustic_guitar/n02676566_10249.jpg landmarks/acoustic_guitar/n02676566_10249.box
images/acoustic_guitar/n02676566_10272.jpg landmarks/acoustic_guitar/n02676566_10272.box
images/acoustic_guitar/n02676566_10299.jpg landmarks/acoustic_guitar/n02676566_10299.box
images/acoustic_guitar/n02676566_10320.jpg landmarks/acoustic_guitar/n02676566_10320.box
images/acoustic_guitar/n02676566_1039.jpg landmarks/acoustic_guitar/n02676566_1039.box
images/acoustic_guitar/n02676566_10415.jpg landmarks/acoustic_guitar/n02676566_10415.box
images/acoustic_guitar/n02676566_10444.jpg landmarks/acoustic_guitar/n02676566_10444.box
images/acoustic_guitar/n02676566_1044.jpg landmarks/acoustic_guitar/n02676566_1044.box
images/acoustic_guitar/n02676566_1046.jpg landmarks/acoustic_guitar/n02676566_1046.box
images/acoustic_guitar/n02676566_10493.jpg landmarks/acoustic_guitar/n02676566_10493.box
images/acoustic_guitar/n02676566_10549.jpg landmarks/acoustic_guitar/n02676566_10549.box
images/acoustic_guitar/n02676566_1057.jpg landmarks/acoustic_guitar/n02676566_1057.box
images/acoustic_guitar/n02676566_10592.jpg landmarks/acoustic_guitar/n02676566_10592.box
images/acoustic_guitar/n02676566_10621.jpg landmarks/acoustic_guitar/n02676566_10621.box
images/acoustic_guitar/n02676566_10666.jpg landmarks/acoustic_guitar/n02676566_10666.box
images/acoustic_guitar/n02676566_1074.jpg landmarks/acoustic_guitar/n02676566_1074.box
images/acoustic_guitar/n02676566_10750.jpg landmarks/acoustic_guitar/n02676566_10750.box
images/acoustic_guitar/n02676566_10753.jpg landmarks/acoustic_guitar/n02676566_10753.box
images/acoustic_guitar/n02676566_10754.jpg landmarks/acoustic_guitar/n02676566_10754.box
images/acoustic_guitar/n02676566_1076.jpg landmarks/acoustic_guitar/n02676566_1076.box
images/acoustic_guitar/n02676566_10830.jpg landmarks/acoustic_guitar/n02676566_10830.box
images/acoustic_guitar/n02676566_10848.jpg landmarks/acoustic_guitar/n02676566_10848.box
images/acoustic_guitar/n02676566_1084.jpg landmarks/acoustic_guitar/n02676566_1084.box
images/acoustic_guitar/n02676566_10856.jpg landmarks/acoustic_guitar/n02676566_10856.box
images/acoustic_guitar/n02676566_10866.jpg landmarks/acoustic_guitar/n02676566_10866.box
images/acoustic_guitar/n02676566_1089.jpg landmarks/acoustic_guitar/n02676566_1089.box
images/acoustic_guitar/n02676566_10911.jpg landmarks/acoustic_guitar/n02676566_10911.box
images/acoustic_guitar/n02676566_10924.jpg landmarks/acoustic_guitar/n02676566_10924.box
images/acoustic_guitar/n02676566_1095.jpg landmarks/acoustic_guitar/n02676566_1095.box
images/acoustic_guitar/n02676566_10964.jpg landmarks/acoustic_guitar/n02676566_10964.box
images/acoustic_guitar/n02676566_10982.jpg landmarks/acoustic_guitar/n02676566_10982.box
images/acoustic_guitar/n02676566_11033.jpg landmarks/acoustic_guitar/n02676566_11033.box
images/acoustic_guitar/n02676566_11085.jpg landmarks/acoustic_guitar/n02676566_11085.box
images/acoustic_guitar/n02676566_11123.jpg landmarks/acoustic_guitar/n02676566_11123.box
images/acoustic_guitar/n02676566_11147.jpg landmarks/acoustic_guitar/n02676566_11147.box
images/acoustic_guitar/n02676566_1115.jpg landmarks/acoustic_guitar/n02676566_1115.box
images/acoustic_guitar/n02676566_11253.jpg landmarks/acoustic_guitar/n02676566_11253.box
images/acoustic_guitar/n02676566_11263.jpg landmarks/acoustic_guitar/n02676566_11263.box
images/acoustic_guitar/n02676566_11278.jpg landmarks/acoustic_guitar/n02676566_11278.box
images/acoustic_guitar/n02676566_11328.jpg landmarks/acoustic_guitar/n02676566_11328.box
images/acoustic_guitar/n02676566_11340.jpg landmarks/acoustic_guitar/n02676566_11340.box
images/acoustic_guitar/n02676566_11367.jpg landmarks/acoustic_guitar/n02676566_11367.box
images/acoustic_guitar/n02676566_11383.jpg landmarks/acoustic_guitar/n02676566_11383.box
images/acoustic_guitar/n02676566_11484.jpg landmarks/acoustic_guitar/n02676566_11484.box
images/acoustic_guitar/n02676566_11485.jpg landmarks/acoustic_guitar/n02676566_11485.box
images/acoustic_guitar/n02676566_11536.jpg landmarks/acoustic_guitar/n02676566_11536.box
images/acoustic_guitar/n02676566_11573.jpg landmarks/acoustic_guitar/n02676566_11573.box
images/acoustic_guitar/n02676566_1157.jpg landmarks/acoustic_guitar/n02676566_1157.box
images/acoustic_guitar/n02676566_11583.jpg landmarks/acoustic_guitar/n02676566_11583.box
images/acoustic_guitar/n02676566_11615.jpg landmarks/acoustic_guitar/n02676566_11615.box
images/acoustic_guitar/n02676566_11628.jpg landmarks/acoustic_guitar/n02676566_11628.box
images/acoustic_guitar/n02676566_11645.jpg landmarks/acoustic_guitar/n02676566_11645.box
images/acoustic_guitar/n02676566_11724.jpg landmarks/acoustic_guitar/n02676566_11724.box
images/acoustic_guitar/n02676566_11748.jpg landmarks/acoustic_guitar/n02676566_11748.box
images/acoustic_guitar/n02676566_11780.jpg landmarks/acoustic_guitar/n02676566_11780.box
images/acoustic_guitar/n02676566_1180.jpg landmarks/acoustic_guitar/n02676566_1180.box
images/acoustic_guitar/n02676566_11851.jpg landmarks/acoustic_guitar/n02676566_11851.box
images/acoustic_guitar/n02676566_12058.jpg landmarks/acoustic_guitar/n02676566_12058.box
images/acoustic_guitar/n02676566_12068.jpg landmarks/acoustic_guitar/n02676566_12068.box
images/acoustic_guitar/n02676566_12077.jpg landmarks/acoustic_guitar/n02676566_12077.box
images/acoustic_guitar/n02676566_1207.jpg landmarks/acoustic_guitar/n02676566_1207.box
images/acoustic_guitar/n02676566_12115.jpg landmarks/acoustic_guitar/n02676566_12115.box
images/acoustic_guitar/n02676566_12138.jpg landmarks/acoustic_guitar/n02676566_12138.box
images/acoustic_guitar/n02676566_12164.jpg landmarks/acoustic_guitar/n02676566_12164.box
images/acoustic_guitar/n02676566_1219.jpg landmarks/acoustic_guitar/n02676566_1219.box
images/acoustic_guitar/n02676566_12216.jpg landmarks/acoustic_guitar/n02676566_12216.box
images/acoustic_guitar/n02676566_1223.jpg landmarks/acoustic_guitar/n02676566_1223.box
images/acoustic_guitar/n02676566_12244.jpg landmarks/acoustic_guitar/n02676566_12244.box
images/acoustic_guitar/n02676566_1228.jpg landmarks/acoustic_guitar/n02676566_1228.box
images/acoustic_guitar/n02676566_12323.jpg landmarks/acoustic_guitar/n02676566_12323.box
images/acoustic_guitar/n02676566_12344.jpg landmarks/acoustic_guitar/n02676566_12344.box
images/acoustic_guitar/n02676566_12362.jpg landmarks/acoustic_guitar/n02676566_12362.box
images/acoustic_guitar/n02676566_12373.jpg landmarks/acoustic_guitar/n02676566_12373.box
images/acoustic_guitar/n02676566_1237.jpg landmarks/acoustic_guitar/n02676566_1237.box
images/acoustic_guitar/n02676566_12384.jpg landmarks/acoustic_guitar/n02676566_12384.box
images/acoustic_guitar/n02676566_12468.jpg landmarks/acoustic_guitar/n02676566_12468.box
images/acoustic_guitar/n02676566_12516.jpg landmarks/acoustic_guitar/n02676566_12516.box
images/acoustic_guitar/n02676566_1252.jpg landmarks/acoustic_guitar/n02676566_1252.box
images/acoustic_guitar/n02676566_12556.jpg landmarks/acoustic_guitar/n02676566_12556.box
images/acoustic_guitar/n02676566_12572.jpg landmarks/acoustic_guitar/n02676566_12572.box
images/acoustic_guitar/n02676566_1258.jpg landmarks/acoustic_guitar/n02676566_1258.box
images/acoustic_guitar/n02676566_12590.jpg landmarks/acoustic_guitar/n02676566_12590.box
images/acoustic_guitar/n02676566_12612.jpg landmarks/acoustic_guitar/n02676566_12612.box
images/acoustic_guitar/n02676566_12693.jpg landmarks/acoustic_guitar/n02676566_12693.box
images/acoustic_guitar/n02676566_12817.jpg landmarks/acoustic_guitar/n02676566_12817.box
images/acoustic_guitar/n02676566_1283.jpg landmarks/acoustic_guitar/n02676566_1283.box
images/acoustic_guitar/n02676566_12844.jpg landmarks/acoustic_guitar/n02676566_12844.box
images/acoustic_guitar/n02676566_12850.jpg landmarks/acoustic_guitar/n02676566_12850.box
images/acoustic_guitar/n02676566_12858.jpg landmarks/acoustic_guitar/n02676566_12858.box
images/acoustic_guitar/n02676566_12910.jpg landmarks/acoustic_guitar/n02676566_12910.box
images/acoustic_guitar/n02676566_12952.jpg landmarks/acoustic_guitar/n02676566_12952.box
images/acoustic_guitar/n02676566_12983.jpg landmarks/acoustic_guitar/n02676566_12983.box
images/acoustic_guitar/n02676566_12998.jpg landmarks/acoustic_guitar/n02676566_12998.box
images/acoustic_guitar/n02676566_12999.jpg landmarks/acoustic_guitar/n02676566_12999.box
images/acoustic_guitar/n02676566_13025.jpg landmarks/acoustic_guitar/n02676566_13025.box
images/acoustic_guitar/n02676566_13033.jpg landmarks/acoustic_guitar/n02676566_13033.box
images/acoustic_guitar/n02676566_1304.jpg landmarks/acoustic_guitar/n02676566_1304.box
images/acoustic_guitar/n02676566_1305.jpg landmarks/acoustic_guitar/n02676566_1305.box
images/acoustic_guitar/n02676566_13062.jpg landmarks/acoustic_guitar/n02676566_13062.box
images/acoustic_guitar/n02676566_13083.jpg landmarks/acoustic_guitar/n02676566_13083.box
images/acoustic_guitar/n02676566_13110.jpg landmarks/acoustic_guitar/n02676566_13110.box
images/acoustic_guitar/n02676566_13129.jpg landmarks/acoustic_guitar/n02676566_13129.box
images/acoustic_guitar/n02676566_13182.jpg landmarks/acoustic_guitar/n02676566_13182.box
images/acoustic_guitar/n02676566_13198.jpg landmarks/acoustic_guitar/n02676566_13198.box
images/acoustic_guitar/n02676566_1324.jpg landmarks/acoustic_guitar/n02676566_1324.box
images/acoustic_guitar/n02676566_1328.jpg landmarks/acoustic_guitar/n02676566_1328.box
images/acoustic_guitar/n02676566_1333.jpg landmarks/acoustic_guitar/n02676566_1333.box
images/acoustic_guitar/n02676566_13380.jpg landmarks/acoustic_guitar/n02676566_13380.box
images/acoustic_guitar/n02676566_1340.jpg landmarks/acoustic_guitar/n02676566_1340.box
images/acoustic_guitar/n02676566_1341.jpg landmarks/acoustic_guitar/n02676566_1341.box
images/acoustic_guitar/n02676566_1345.jpg landmarks/acoustic_guitar/n02676566_1345.box
images/acoustic_guitar/n02676566_13484.jpg landmarks/acoustic_guitar/n02676566_13484.box
images/acoustic_guitar/n02676566_13518.jpg landmarks/acoustic_guitar/n02676566_13518.box
images/acoustic_guitar/n02676566_13519.jpg landmarks/acoustic_guitar/n02676566_13519.box
images/acoustic_guitar/n02676566_13537.jpg landmarks/acoustic_guitar/n02676566_13537.box
images/acoustic_guitar/n02676566_13565.jpg landmarks/acoustic_guitar/n02676566_13565.box
images/acoustic_guitar/n02676566_13619.jpg landmarks/acoustic_guitar/n02676566_13619.box
images/acoustic_guitar/n02676566_13663.jpg landmarks/acoustic_guitar/n02676566_13663.box
images/acoustic_guitar/n02676566_1401.jpg landmarks/acoustic_guitar/n02676566_1401.box
images/acoustic_guitar/n02676566_1431.jpg landmarks/acoustic_guitar/n02676566_1431.box
images/acoustic_guitar/n02676566_1441.jpg landmarks/acoustic_guitar/n02676566_1441.box
images/acoustic_guitar/n02676566_14495.jpg landmarks/acoustic_guitar/n02676566_14495.box
images/acoustic_guitar/n02676566_1474.jpg landmarks/acoustic_guitar/n02676566_1474.box
images/acoustic_guitar/n02676566_14884.jpg landmarks/acoustic_guitar/n02676566_14884.box
images/acoustic_guitar/n02676566_1492.jpg landmarks/acoustic_guitar/n02676566_1492.box
images/acoustic_guitar/n02676566_1563.jpg landmarks/acoustic_guitar/n02676566_1563.box
images/acoustic_guitar/n02676566_1587.jpg landmarks/acoustic_guitar/n02676566_1587.box
images/acoustic_guitar/n02676566_1643.jpg landmarks/acoustic_guitar/n02676566_1643.box
images/acoustic_guitar/n02676566_1645.jpg landmarks/acoustic_guitar/n02676566_1645.box
images/acoustic_guitar/n02676566_1646.jpg landmarks/acoustic_guitar/n02676566_1646.box
images/acoustic_guitar/n02676566_1675.jpg landmarks/acoustic_guitar/n02676566_1675.box
images/acoustic_guitar/n02676566_1679.jpg landmarks/acoustic_guitar/n02676566_1679.box
images/acoustic_guitar/n02676566_1690.jpg landmarks/acoustic_guitar/n02676566_1690.box
images/acoustic_guitar/n02676566_1702.jpg landmarks/acoustic_guitar/n02676566_1702.box
images/acoustic_guitar/n02676566_1751.jpg landmarks/acoustic_guitar/n02676566_1751.box
images/acoustic_guitar/n02676566_178.jpg landmarks/acoustic_guitar/n02676566_178.box
images/acoustic_guitar/n02676566_1812.jpg landmarks/acoustic_guitar/n02676566_1812.box
images/acoustic_guitar/n02676566_1835.jpg landmarks/acoustic_guitar/n02676566_1835.box
images/acoustic_guitar/n02676566_1866.jpg landmarks/acoustic_guitar/n02676566_1866.box
images/acoustic_guitar/n02676566_1872.jpg landmarks/acoustic_guitar/n02676566_1872.box
images/acoustic_guitar/n02676566_1877.jpg landmarks/acoustic_guitar/n02676566_1877.box
images/acoustic_guitar/n02676566_190.jpg landmarks/acoustic_guitar/n02676566_190.box
images/acoustic_guitar/n02676566_1914.jpg landmarks/acoustic_guitar/n02676566_1914.box
images/acoustic_guitar/n02676566_1966.jpg landmarks/acoustic_guitar/n02676566_1966.box
images/acoustic_guitar/n02676566_1992.jpg landmarks/acoustic_guitar/n02676566_1992.box
images/acoustic_guitar/n02676566_2005.jpg landmarks/acoustic_guitar/n02676566_2005.box
images/acoustic_guitar/n02676566_200.jpg landmarks/acoustic_guitar/n02676566_200.box
images/acoustic_guitar/n02676566_2025.jpg landmarks/acoustic_guitar/n02676566_2025.box
images/acoustic_guitar/n02676566_2100.jpg landmarks/acoustic_guitar/n02676566_2100.box
images/acoustic_guitar/n02676566_2133.jpg landmarks/acoustic_guitar/n02676566_2133.box
images/acoustic_guitar/n02676566_2151.jpg landmarks/acoustic_guitar/n02676566_2151.box
images/acoustic_guitar/n02676566_2171.jpg landmarks/acoustic_guitar/n02676566_2171.box
images/acoustic_guitar/n02676566_2176.jpg landmarks/acoustic_guitar/n02676566_2176.box
images/acoustic_guitar/n02676566_2215.jpg landmarks/acoustic_guitar/n02676566_2215.box
images/acoustic_guitar/n02676566_2237.jpg landmarks/acoustic_guitar/n02676566_2237.box
images/acoustic_guitar/n02676566_2240.jpg landmarks/acoustic_guitar/n02676566_2240.box
images/acoustic_guitar/n02676566_2264.jpg landmarks/acoustic_guitar/n02676566_2264.box
images/acoustic_guitar/n02676566_2299.jpg landmarks/acoustic_guitar/n02676566_2299.box
images/acoustic_guitar/n02676566_2351.jpg landmarks/acoustic_guitar/n02676566_2351.box
images/acoustic_guitar/n02676566_2364.jpg landmarks/acoustic_guitar/n02676566_2364.box
images/acoustic_guitar/n02676566_2380.jpg landmarks/acoustic_guitar/n02676566_2380.box
images/acoustic_guitar/n02676566_2386.jpg landmarks/acoustic_guitar/n02676566_2386.box
images/acoustic_guitar/n02676566_241.jpg landmarks/acoustic_guitar/n02676566_241.box
images/acoustic_guitar/n02676566_2456.jpg landmarks/acoustic_guitar/n02676566_2456.box
images/acoustic_guitar/n02676566_24.jpg landmarks/acoustic_guitar/n02676566_24.box
images/acoustic_guitar/n02676566_2524.jpg landmarks/acoustic_guitar/n02676566_2524.box
images/acoustic_guitar/n02676566_2535.jpg landmarks/acoustic_guitar/n02676566_2535.box
images/acoustic_guitar/n02676566_2541.jpg landmarks/acoustic_guitar/n02676566_2541.box
images/acoustic_guitar/n02676566_2554.jpg landmarks/acoustic_guitar/n02676566_2554.box
images/acoustic_guitar/n02676566_2666.jpg landmarks/acoustic_guitar/n02676566_2666.box
images/acoustic_guitar/n02676566_272.jpg landmarks/acoustic_guitar/n02676566_272.box
images/acoustic_guitar/n02676566_2779.jpg landmarks/acoustic_guitar/n02676566_2779.box
images/acoustic_guitar/n02676566_2825.jpg landmarks/acoustic_guitar/n02676566_2825.box
images/acoustic_guitar/n02676566_2893.jpg landmarks/acoustic_guitar/n02676566_2893.box
images/acoustic_guitar/n02676566_2901.jpg landmarks/acoustic_guitar/n02676566_2901.box
images/acoustic_guitar/n02676566_2903.jpg landmarks/acoustic_guitar/n02676566_2903.box
images/acoustic_guitar/n02676566_2927.jpg landmarks/acoustic_guitar/n02676566_2927.box
images/acoustic_guitar/n02676566_2944.jpg landmarks/acoustic_guitar/n02676566_2944.box
images/acoustic_guitar/n02676566_2950.jpg landmarks/acoustic_guitar/n02676566_2950.box
images/acoustic_guitar/n02676566_2954.jpg landmarks/acoustic_guitar/n02676566_2954.box
images/acoustic_guitar/n02676566_2961.jpg landmarks/acoustic_guitar/n02676566_2961.box
images/acoustic_guitar/n02676566_296.jpg landmarks/acoustic_guitar/n02676566_296.box
images/acoustic_guitar/n02676566_3006.jpg landmarks/acoustic_guitar/n02676566_3006.box
images/acoustic_guitar/n02676566_303.jpg landmarks/acoustic_guitar/n02676566_303.box
images/acoustic_guitar/n02676566_3048.jpg landmarks/acoustic_guitar/n02676566_3048.box
images/acoustic_guitar/n02676566_3051.jpg landmarks/acoustic_guitar/n02676566_3051.box
images/acoustic_guitar/n02676566_3054.jpg landmarks/acoustic_guitar/n02676566_3054.box
images/acoustic_guitar/n02676566_3074.jpg landmarks/acoustic_guitar/n02676566_3074.box
images/acoustic_guitar/n02676566_307.jpg landmarks/acoustic_guitar/n02676566_307.box
images/acoustic_guitar/n02676566_3121.jpg landmarks/acoustic_guitar/n02676566_3121.box
images/acoustic_guitar/n02676566_3125.jpg landmarks/acoustic_guitar/n02676566_3125.box
images/acoustic_guitar/n02676566_3177.jpg landmarks/acoustic_guitar/n02676566_3177.box
images/acoustic_guitar/n02676566_3178.jpg landmarks/acoustic_guitar/n02676566_3178.box
images/acoustic_guitar/n02676566_3199.jpg landmarks/acoustic_guitar/n02676566_3199.box
images/acoustic_guitar/n02676566_3224.jpg landmarks/acoustic_guitar/n02676566_3224.box
images/acoustic_guitar/n02676566_323.jpg landmarks/acoustic_guitar/n02676566_323.box
images/acoustic_guitar/n02676566_3289.jpg landmarks/acoustic_guitar/n02676566_3289.box
images/acoustic_guitar/n02676566_328.jpg landmarks/acoustic_guitar/n02676566_328.box
images/acoustic_guitar/n02676566_3305.jpg landmarks/acoustic_guitar/n02676566_3305.box
images/acoustic_guitar/n02676566_330.jpg landmarks/acoustic_guitar/n02676566_330.box
images/acoustic_guitar/n02676566_3327.jpg landmarks/acoustic_guitar/n02676566_3327.box
images/acoustic_guitar/n02676566_3350.jpg landmarks/acoustic_guitar/n02676566_3350.box
images/acoustic_guitar/n02676566_3385.jpg landmarks/acoustic_guitar/n02676566_3385.box
images/acoustic_guitar/n02676566_3402.jpg landmarks/acoustic_guitar/n02676566_3402.box
images/acoustic_guitar/n02676566_3471.jpg landmarks/acoustic_guitar/n02676566_3471.box
images/acoustic_guitar/n02676566_3536.jpg landmarks/acoustic_guitar/n02676566_3536.box
images/acoustic_guitar/n02676566_3548.jpg landmarks/acoustic_guitar/n02676566_3548.box
images/acoustic_guitar/n02676566_3576.jpg landmarks/acoustic_guitar/n02676566_3576.box
images/acoustic_guitar/n02676566_3611.jpg landmarks/acoustic_guitar/n02676566_3611.box
images/acoustic_guitar/n02676566_3626.jpg landmarks/acoustic_guitar/n02676566_3626.box
images/acoustic_guitar/n02676566_3654.jpg landmarks/acoustic_guitar/n02676566_3654.box
images/acoustic_guitar/n02676566_3659.jpg landmarks/acoustic_guitar/n02676566_3659.box
images/acoustic_guitar/n02676566_3661.jpg landmarks/acoustic_guitar/n02676566_3661.box
images/acoustic_guitar/n02676566_3719.jpg landmarks/acoustic_guitar/n02676566_3719.box
images/acoustic_guitar/n02676566_3721.jpg landmarks/acoustic_guitar/n02676566_3721.box
images/acoustic_guitar/n02676566_3733.jpg landmarks/acoustic_guitar/n02676566_3733.box
images/acoustic_guitar/n02676566_3771.jpg landmarks/acoustic_guitar/n02676566_3771.box
images/acoustic_guitar/n02676566_3792.jpg landmarks/acoustic_guitar/n02676566_3792.box
images/acoustic_guitar/n02676566_37.jpg landmarks/acoustic_guitar/n02676566_37.box
images/acoustic_guitar/n02676566_3808.jpg landmarks/acoustic_guitar/n02676566_3808.box
images/acoustic_guitar/n02676566_3819.jpg landmarks/acoustic_guitar/n02676566_3819.box
images/acoustic_guitar/n02676566_3886.jpg landmarks/acoustic_guitar/n02676566_3886.box
images/acoustic_guitar/n02676566_3914.jpg landmarks/acoustic_guitar/n02676566_3914.box
images/acoustic_guitar/n02676566_3916.jpg landmarks/acoustic_guitar/n02676566_3916.box
images/acoustic_guitar/n02676566_3920.jpg landmarks/acoustic_guitar/n02676566_3920.box
images/acoustic_guitar/n02676566_3966.jpg landmarks/acoustic_guitar/n02676566_3966.box
images/acoustic_guitar/n02676566_402.jpg landmarks/acoustic_guitar/n02676566_402.box
images/acoustic_guitar/n02676566_4039.jpg landmarks/acoustic_guitar/n02676566_4039.box
images/acoustic_guitar/n02676566_4048.jpg landmarks/acoustic_guitar/n02676566_4048.box
images/acoustic_guitar/n02676566_4073.jpg landmarks/acoustic_guitar/n02676566_4073.box
images/acoustic_guitar/n02676566_4090.jpg landmarks/acoustic_guitar/n02676566_4090.box
images/acoustic_guitar/n02676566_4111.jpg landmarks/acoustic_guitar/n02676566_4111.box
images/acoustic_guitar/n02676566_4132.jpg landmarks/acoustic_guitar/n02676566_4132.box
images/acoustic_guitar/n02676566_4135.jpg landmarks/acoustic_guitar/n02676566_4135.box
images/acoustic_guitar/n02676566_4138.jpg landmarks/acoustic_guitar/n02676566_4138.box
images/acoustic_guitar/n02676566_4145.jpg landmarks/acoustic_guitar/n02676566_4145.box
images/acoustic_guitar/n02676566_4192.jpg landmarks/acoustic_guitar/n02676566_4192.box
images/acoustic_guitar/n02676566_4212.jpg landmarks/acoustic_guitar/n02676566_4212.box
images/acoustic_guitar/n02676566_4220.jpg landmarks/acoustic_guitar/n02676566_4220.box
images/acoustic_guitar/n02676566_4221.jpg landmarks/acoustic_guitar/n02676566_4221.box
images/acoustic_guitar/n02676566_4223.jpg landmarks/acoustic_guitar/n02676566_4223.box
images/acoustic_guitar/n02676566_4251.jpg landmarks/acoustic_guitar/n02676566_4251.box
images/acoustic_guitar/n02676566_4280.jpg landmarks/acoustic_guitar/n02676566_4280.box
images/acoustic_guitar/n02676566_4310.jpg landmarks/acoustic_guitar/n02676566_4310.box
images/acoustic_guitar/n02676566_4316.jpg landmarks/acoustic_guitar/n02676566_4316.box
images/acoustic_guitar/n02676566_431.jpg landmarks/acoustic_guitar/n02676566_431.box
images/acoustic_guitar/n02676566_4356.jpg landmarks/acoustic_guitar/n02676566_4356.box
images/acoustic_guitar/n02676566_436.jpg landmarks/acoustic_guitar/n02676566_436.box
images/acoustic_guitar/n02676566_4376.jpg landmarks/acoustic_guitar/n02676566_4376.box
images/acoustic_guitar/n02676566_438.jpg landmarks/acoustic_guitar/n02676566_438.box
images/acoustic_guitar/n02676566_4398.jpg landmarks/acoustic_guitar/n02676566_4398.box
images/acoustic_guitar/n02676566_43.jpg landmarks/acoustic_guitar/n02676566_43.box
images/acoustic_guitar/n02676566_4403.jpg landmarks/acoustic_guitar/n02676566_4403.box
images/acoustic_guitar/n02676566_4424.jpg landmarks/acoustic_guitar/n02676566_4424.box
images/acoustic_guitar/n02676566_4431.jpg landmarks/acoustic_guitar/n02676566_4431.box
images/acoustic_guitar/n02676566_4454.jpg landmarks/acoustic_guitar/n02676566_4454.box
images/acoustic_guitar/n02676566_448.jpg landmarks/acoustic_guitar/n02676566_448.box
images/acoustic_guitar/n02676566_4510.jpg landmarks/acoustic_guitar/n02676566_4510.box
images/acoustic_guitar/n02676566_4535.jpg landmarks/acoustic_guitar/n02676566_4535.box
images/acoustic_guitar/n02676566_4545.jpg landmarks/acoustic_guitar/n02676566_4545.box
images/acoustic_guitar/n02676566_457.jpg landmarks/acoustic_guitar/n02676566_457.box
images/acoustic_guitar/n02676566_4583.jpg landmarks/acoustic_guitar/n02676566_4583.box
images/acoustic_guitar/n02676566_4589.jpg landmarks/acoustic_guitar/n02676566_4589.box
images/acoustic_guitar/n02676566_4619.jpg landmarks/acoustic_guitar/n02676566_4619.box
images/acoustic_guitar/n02676566_4628.jpg landmarks/acoustic_guitar/n02676566_4628.box
images/acoustic_guitar/n02676566_4655.jpg landmarks/acoustic_guitar/n02676566_4655.box
images/acoustic_guitar/n02676566_4659.jpg landmarks/acoustic_guitar/n02676566_4659.box
images/acoustic_guitar/n02676566_4668.jpg landmarks/acoustic_guitar/n02676566_4668.box
images/acoustic_guitar/n02676566_4689.jpg landmarks/acoustic_guitar/n02676566_4689.box
images/acoustic_guitar/n02676566_4699.jpg landmarks/acoustic_guitar/n02676566_4699.box
images/acoustic_guitar/n02676566_4705.jpg landmarks/acoustic_guitar/n02676566_4705.box
images/acoustic_guitar/n02676566_4717.jpg landmarks/acoustic_guitar/n02676566_4717.box
images/acoustic_guitar/n02676566_4746.jpg landmarks/acoustic_guitar/n02676566_4746.box
images/acoustic_guitar/n02676566_4759.jpg landmarks/acoustic_guitar/n02676566_4759.box
images/acoustic_guitar/n02676566_4779.jpg landmarks/acoustic_guitar/n02676566_4779.box
images/acoustic_guitar/n02676566_4785.jpg landmarks/acoustic_guitar/n02676566_4785.box
images/acoustic_guitar/n02676566_480.jpg landmarks/acoustic_guitar/n02676566_480.box
images/acoustic_guitar/n02676566_4842.jpg landmarks/acoustic_guitar/n02676566_4842.box
images/acoustic_guitar/n02676566_4843.jpg landmarks/acoustic_guitar/n02676566_4843.box
images/acoustic_guitar/n02676566_4847.jpg landmarks/acoustic_guitar/n02676566_4847.box
images/acoustic_guitar/n02676566_485.jpg landmarks/acoustic_guitar/n02676566_485.box
images/acoustic_guitar/n02676566_4866.jpg landmarks/acoustic_guitar/n02676566_4866.box
images/acoustic_guitar/n02676566_4876.jpg landmarks/acoustic_guitar/n02676566_4876.box
images/acoustic_guitar/n02676566_4877.jpg landmarks/acoustic_guitar/n02676566_4877.box
images/acoustic_guitar/n02676566_4893.jpg landmarks/acoustic_guitar/n02676566_4893.box
images/acoustic_guitar/n02676566_4923.jpg landmarks/acoustic_guitar/n02676566_4923.box
images/acoustic_guitar/n02676566_4924.jpg landmarks/acoustic_guitar/n02676566_4924.box
images/acoustic_guitar/n02676566_492.jpg landmarks/acoustic_guitar/n02676566_492.box
images/acoustic_guitar/n02676566_4975.jpg landmarks/acoustic_guitar/n02676566_4975.box
images/acoustic_guitar/n02676566_4989.jpg landmarks/acoustic_guitar/n02676566_4989.box
images/acoustic_guitar/n02676566_49.jpg landmarks/acoustic_guitar/n02676566_49.box
images/acoustic_guitar/n02676566_5000.jpg landmarks/acoustic_guitar/n02676566_5000.box
images/acoustic_guitar/n02676566_5020.jpg landmarks/acoustic_guitar/n02676566_5020.box
images/acoustic_guitar/n02676566_5056.jpg landmarks/acoustic_guitar/n02676566_5056.box
images/acoustic_guitar/n02676566_5068.jpg landmarks/acoustic_guitar/n02676566_5068.box
images/acoustic_guitar/n02676566_5099.jpg landmarks/acoustic_guitar/n02676566_5099.box
images/acoustic_guitar/n02676566_510.jpg landmarks/acoustic_guitar/n02676566_510.box
images/acoustic_guitar/n02676566_5139.jpg landmarks/acoustic_guitar/n02676566_5139.box
images/acoustic_guitar/n02676566_523.jpg landmarks/acoustic_guitar/n02676566_523.box
images/acoustic_guitar/n02676566_5258.jpg landmarks/acoustic_guitar/n02676566_5258.box
images/acoustic_guitar/n02676566_526.jpg landmarks/acoustic_guitar/n02676566_526.box
images/acoustic_guitar/n02676566_5293.jpg landmarks/acoustic_guitar/n02676566_5293.box
images/acoustic_guitar/n02676566_5408.jpg landmarks/acoustic_guitar/n02676566_5408.box
images/acoustic_guitar/n02676566_5410.jpg landmarks/acoustic_guitar/n02676566_5410.box
images/acoustic_guitar/n02676566_541.jpg landmarks/acoustic_guitar/n02676566_541.box
images/acoustic_guitar/n02676566_5454.jpg landmarks/acoustic_guitar/n02676566_5454.box
images/acoustic_guitar/n02676566_5457.jpg landmarks/acoustic_guitar/n02676566_5457.box
images/acoustic_guitar/n02676566_5489.jpg landmarks/acoustic_guitar/n02676566_5489.box
images/acoustic_guitar/n02676566_549.jpg landmarks/acoustic_guitar/n02676566_549.box
images/acoustic_guitar/n02676566_5507.jpg landmarks/acoustic_guitar/n02676566_5507.box
images/acoustic_guitar/n02676566_5551.jpg landmarks/acoustic_guitar/n02676566_5551.box
images/acoustic_guitar/n02676566_5593.jpg landmarks/acoustic_guitar/n02676566_5593.box
images/acoustic_guitar/n02676566_5601.jpg landmarks/acoustic_guitar/n02676566_5601.box
images/acoustic_guitar/n02676566_5649.jpg landmarks/acoustic_guitar/n02676566_5649.box
images/acoustic_guitar/n02676566_5684.jpg landmarks/acoustic_guitar/n02676566_5684.box
images/acoustic_guitar/n02676566_5689.jpg landmarks/acoustic_guitar/n02676566_5689.box
images/acoustic_guitar/n02676566_5713.jpg landmarks/acoustic_guitar/n02676566_5713.box
images/acoustic_guitar/n02676566_5735.jpg landmarks/acoustic_guitar/n02676566_5735.box
images/acoustic_guitar/n02676566_5816.jpg landmarks/acoustic_guitar/n02676566_5816.box
images/acoustic_guitar/n02676566_5830.jpg landmarks/acoustic_guitar/n02676566_5830.box
images/acoustic_guitar/n02676566_5846.jpg landmarks/acoustic_guitar/n02676566_5846.box
images/acoustic_guitar/n02676566_5866.jpg landmarks/acoustic_guitar/n02676566_5866.box
images/acoustic_guitar/n02676566_5871.jpg landmarks/acoustic_guitar/n02676566_5871.box
images/acoustic_guitar/n02676566_5943.jpg landmarks/acoustic_guitar/n02676566_5943.box
images/acoustic_guitar/n02676566_5985.jpg landmarks/acoustic_guitar/n02676566_5985.box
images/acoustic_guitar/n02676566_603.jpg landmarks/acoustic_guitar/n02676566_603.box
images/acoustic_guitar/n02676566_60.jpg landmarks/acoustic_guitar/n02676566_60.box
images/acoustic_guitar/n02676566_6101.jpg landmarks/acoustic_guitar/n02676566_6101.box
images/acoustic_guitar/n02676566_610.jpg landmarks/acoustic_guitar/n02676566_610.box
images/acoustic_guitar/n02676566_6130.jpg landmarks/acoustic_guitar/n02676566_6130.box
images/acoustic_guitar/n02676566_6150.jpg landmarks/acoustic_guitar/n02676566_6150.box
images/acoustic_guitar/n02676566_6152.jpg landmarks/acoustic_guitar/n02676566_6152.box
images/acoustic_guitar/n02676566_6200.jpg landmarks/acoustic_guitar/n02676566_6200.box
images/acoustic_guitar/n02676566_6240.jpg landmarks/acoustic_guitar/n02676566_6240.box
images/acoustic_guitar/n02676566_6244.jpg landmarks/acoustic_guitar/n02676566_6244.box
images/acoustic_guitar/n02676566_6255.jpg landmarks/acoustic_guitar/n02676566_6255.box
images/acoustic_guitar/n02676566_629.jpg landmarks/acoustic_guitar/n02676566_629.box
images/acoustic_guitar/n02676566_6355.jpg landmarks/acoustic_guitar/n02676566_6355.box
images/acoustic_guitar/n02676566_6361.jpg landmarks/acoustic_guitar/n02676566_6361.box
images/acoustic_guitar/n02676566_6363.jpg landmarks/acoustic_guitar/n02676566_6363.box
images/acoustic_guitar/n02676566_6375.jpg landmarks/acoustic_guitar/n02676566_6375.box
images/acoustic_guitar/n02676566_6380.jpg landmarks/acoustic_guitar/n02676566_6380.box
images/acoustic_guitar/n02676566_6402.jpg landmarks/acoustic_guitar/n02676566_6402.box
images/acoustic_guitar/n02676566_6410.jpg landmarks/acoustic_guitar/n02676566_6410.box
images/acoustic_guitar/n02676566_6425.jpg landmarks/acoustic_guitar/n02676566_6425.box
images/acoustic_guitar/n02676566_6438.jpg landmarks/acoustic_guitar/n02676566_6438.box
images/acoustic_guitar/n02676566_644.jpg landmarks/acoustic_guitar/n02676566_644.box
images/acoustic_guitar/n02676566_6466.jpg landmarks/acoustic_guitar/n02676566_6466.box
images/acoustic_guitar/n02676566_6489.jpg landmarks/acoustic_guitar/n02676566_6489.box
images/acoustic_guitar/n02676566_6527.jpg landmarks/acoustic_guitar/n02676566_6527.box
images/acoustic_guitar/n02676566_6560.jpg landmarks/acoustic_guitar/n02676566_6560.box
images/acoustic_guitar/n02676566_6583.jpg landmarks/acoustic_guitar/n02676566_6583.box
images/acoustic_guitar/n02676566_6592.jpg landmarks/acoustic_guitar/n02676566_6592.box
images/acoustic_guitar/n02676566_659.jpg landmarks/acoustic_guitar/n02676566_659.box
images/acoustic_guitar/n02676566_660.jpg landmarks/acoustic_guitar/n02676566_660.box
images/acoustic_guitar/n02676566_6615.jpg landmarks/acoustic_guitar/n02676566_6615.box
images/acoustic_guitar/n02676566_6631.jpg landmarks/acoustic_guitar/n02676566_6631.box
images/acoustic_guitar/n02676566_6659.jpg landmarks/acoustic_guitar/n02676566_6659.box
images/acoustic_guitar/n02676566_6660.jpg landmarks/acoustic_guitar/n02676566_6660.box
images/acoustic_guitar/n02676566_6666.jpg landmarks/acoustic_guitar/n02676566_6666.box
images/acoustic_guitar/n02676566_667.jpg landmarks/acoustic_guitar/n02676566_667.box
images/acoustic_guitar/n02676566_6680.jpg landmarks/acoustic_guitar/n02676566_6680.box
images/acoustic_guitar/n02676566_6682.jpg landmarks/acoustic_guitar/n02676566_6682.box
images/acoustic_guitar/n02676566_6704.jpg landmarks/acoustic_guitar/n02676566_6704.box
images/acoustic_guitar/n02676566_6713.jpg landmarks/acoustic_guitar/n02676566_6713.box
images/acoustic_guitar/n02676566_672.jpg landmarks/acoustic_guitar/n02676566_672.box
images/acoustic_guitar/n02676566_6733.jpg landmarks/acoustic_guitar/n02676566_6733.box
images/acoustic_guitar/n02676566_6745.jpg landmarks/acoustic_guitar/n02676566_6745.box
images/acoustic_guitar/n02676566_6748.jpg landmarks/acoustic_guitar/n02676566_6748.box
images/acoustic_guitar/n02676566_6764.jpg landmarks/acoustic_guitar/n02676566_6764.box
images/acoustic_guitar/n02676566_6770.jpg landmarks/acoustic_guitar/n02676566_6770.box
images/acoustic_guitar/n02676566_6792.jpg landmarks/acoustic_guitar/n02676566_6792.box
images/acoustic_guitar/n02676566_6912.jpg landmarks/acoustic_guitar/n02676566_6912.box
images/acoustic_guitar/n02676566_6914.jpg landmarks/acoustic_guitar/n02676566_6914.box
images/acoustic_guitar/n02676566_6915.jpg landmarks/acoustic_guitar/n02676566_6915.box
images/acoustic_guitar/n02676566_6948.jpg landmarks/acoustic_guitar/n02676566_6948.box
images/acoustic_guitar/n02676566_6991.jpg landmarks/acoustic_guitar/n02676566_6991.box
images/acoustic_guitar/n02676566_701.jpg landmarks/acoustic_guitar/n02676566_701.box
images/acoustic_guitar/n02676566_7022.jpg landmarks/acoustic_guitar/n02676566_7022.box
images/acoustic_guitar/n02676566_7026.jpg landmarks/acoustic_guitar/n02676566_7026.box
images/acoustic_guitar/n02676566_7027.jpg landmarks/acoustic_guitar/n02676566_7027.box
images/acoustic_guitar/n02676566_7062.jpg landmarks/acoustic_guitar/n02676566_7062.box
images/acoustic_guitar/n02676566_7085.jpg landmarks/acoustic_guitar/n02676566_7085.box
images/acoustic_guitar/n02676566_7094.jpg landmarks/acoustic_guitar/n02676566_7094.box
images/acoustic_guitar/n02676566_7100.jpg landmarks/acoustic_guitar/n02676566_7100.box
images/acoustic_guitar/n02676566_7120.jpg landmarks/acoustic_guitar/n02676566_7120.box
images/acoustic_guitar/n02676566_7123.jpg landmarks/acoustic_guitar/n02676566_7123.box
images/acoustic_guitar/n02676566_7172.jpg landmarks/acoustic_guitar/n02676566_7172.box
images/acoustic_guitar/n02676566_7202.jpg landmarks/acoustic_guitar/n02676566_7202.box
images/acoustic_guitar/n02676566_7207.jpg landmarks/acoustic_guitar/n02676566_7207.box
images/acoustic_guitar/n02676566_7220.jpg landmarks/acoustic_guitar/n02676566_7220.box
images/acoustic_guitar/n02676566_7341.jpg landmarks/acoustic_guitar/n02676566_7341.box
images/acoustic_guitar/n02676566_737.jpg landmarks/acoustic_guitar/n02676566_737.box
images/acoustic_guitar/n02676566_7385.jpg landmarks/acoustic_guitar/n02676566_7385.box
images/acoustic_guitar/n02676566_7396.jpg landmarks/acoustic_guitar/n02676566_7396.box
images/acoustic_guitar/n02676566_7509.jpg landmarks/acoustic_guitar/n02676566_7509.box
images/acoustic_guitar/n02676566_759.jpg landmarks/acoustic_guitar/n02676566_759.box
images/acoustic_guitar/n02676566_767.jpg landmarks/acoustic_guitar/n02676566_767.box
images/acoustic_guitar/n02676566_773.jpg landmarks/acoustic_guitar/n02676566_773.box
images/acoustic_guitar/n02676566_777.jpg landmarks/acoustic_guitar/n02676566_777.box
images/acoustic_guitar/n02676566_781.jpg landmarks/acoustic_guitar/n02676566_781.box
images/acoustic_guitar/n02676566_7830.jpg landmarks/acoustic_guitar/n02676566_7830.box
images/acoustic_guitar/n02676566_7844.jpg landmarks/acoustic_guitar/n02676566_7844.box
images/acoustic_guitar/n02676566_7886.jpg landmarks/acoustic_guitar/n02676566_7886.box
images/acoustic_guitar/n02676566_790.jpg landmarks/acoustic_guitar/n02676566_790.box
images/acoustic_guitar/n02676566_7930.jpg landmarks/acoustic_guitar/n02676566_7930.box
images/acoustic_guitar/n02676566_7969.jpg landmarks/acoustic_guitar/n02676566_7969.box
images/acoustic_guitar/n02676566_799.jpg landmarks/acoustic_guitar/n02676566_799.box
images/acoustic_guitar/n02676566_7.jpg landmarks/acoustic_guitar/n02676566_7.box
images/acoustic_guitar/n02676566_802.jpg landmarks/acoustic_guitar/n02676566_802.box
images/acoustic_guitar/n02676566_8081.jpg landmarks/acoustic_guitar/n02676566_8081.box
images/acoustic_guitar/n02676566_8082.jpg landmarks/acoustic_guitar/n02676566_8082.box
images/acoustic_guitar/n02676566_8141.jpg landmarks/acoustic_guitar/n02676566_8141.box
images/acoustic_guitar/n02676566_8170.jpg landmarks/acoustic_guitar/n02676566_8170.box
images/acoustic_guitar/n02676566_8176.jpg landmarks/acoustic_guitar/n02676566_8176.box
images/acoustic_guitar/n02676566_8229.jpg landmarks/acoustic_guitar/n02676566_8229.box
images/acoustic_guitar/n02676566_825.jpg landmarks/acoustic_guitar/n02676566_825.box
images/acoustic_guitar/n02676566_8268.jpg landmarks/acoustic_guitar/n02676566_8268.box
images/acoustic_guitar/n02676566_8278.jpg landmarks/acoustic_guitar/n02676566_8278.box
images/acoustic_guitar/n02676566_8352.jpg landmarks/acoustic_guitar/n02676566_8352.box
images/acoustic_guitar/n02676566_8368.jpg landmarks/acoustic_guitar/n02676566_8368.box
images/acoustic_guitar/n02676566_863.jpg landmarks/acoustic_guitar/n02676566_863.box
images/acoustic_guitar/n02676566_867.jpg landmarks/acoustic_guitar/n02676566_867.box
images/acoustic_guitar/n02676566_8684.jpg landmarks/acoustic_guitar/n02676566_8684.box
images/acoustic_guitar/n02676566_877.jpg landmarks/acoustic_guitar/n02676566_877.box
images/acoustic_guitar/n02676566_8819.jpg landmarks/acoustic_guitar/n02676566_8819.box
images/acoustic_guitar/n02676566_886.jpg landmarks/acoustic_guitar/n02676566_886.box
images/acoustic_guitar/n02676566_8880.jpg landmarks/acoustic_guitar/n02676566_8880.box
images/acoustic_guitar/n02676566_8895.jpg landmarks/acoustic_guitar/n02676566_8895.box
images/acoustic_guitar/n02676566_8900.jpg landmarks/acoustic_guitar/n02676566_8900.box
images/acoustic_guitar/n02676566_8968.jpg landmarks/acoustic_guitar/n02676566_8968.box
images/acoustic_guitar/n02676566_900.jpg landmarks/acoustic_guitar/n02676566_900.box
images/acoustic_guitar/n02676566_9027.jpg landmarks/acoustic_guitar/n02676566_9027.box
images/acoustic_guitar/n02676566_9032.jpg landmarks/acoustic_guitar/n02676566_9032.box
images/acoustic_guitar/n02676566_9062.jpg landmarks/acoustic_guitar/n02676566_9062.box
images/acoustic_guitar/n02676566_906.jpg landmarks/acoustic_guitar/n02676566_906.box
images/acoustic_guitar/n02676566_9085.jpg landmarks/acoustic_guitar/n02676566_9085.box
images/acoustic_guitar/n02676566_9119.jpg landmarks/acoustic_guitar/n02676566_9119.box
images/acoustic_guitar/n02676566_915.jpg landmarks/acoustic_guitar/n02676566_915.box
images/acoustic_guitar/n02676566_91.jpg landmarks/acoustic_guitar/n02676566_91.box
images/acoustic_guitar/n02676566_9242.jpg landmarks/acoustic_guitar/n02676566_9242.box
images/acoustic_guitar/n02676566_9243.jpg landmarks/acoustic_guitar/n02676566_9243.box
images/acoustic_guitar/n02676566_9254.jpg landmarks/acoustic_guitar/n02676566_9254.box
images/acoustic_guitar/n02676566_9262.jpg landmarks/acoustic_guitar/n02676566_9262.box
images/acoustic_guitar/n02676566_9277.jpg landmarks/acoustic_guitar/n02676566_9277.box
images/acoustic_guitar/n02676566_927.jpg landmarks/acoustic_guitar/n02676566_927.box
images/acoustic_guitar/n02676566_935.jpg landmarks/acoustic_guitar/n02676566_935.box
images/acoustic_guitar/n02676566_936.jpg landmarks/acoustic_guitar/n02676566_936.box
images/acoustic_guitar/n02676566_9442.jpg landmarks/acoustic_guitar/n02676566_9442.box
images/acoustic_guitar/n02676566_9447.jpg landmarks/acoustic_guitar/n02676566_9447.box
images/acoustic_guitar/n02676566_947.jpg landmarks/acoustic_guitar/n02676566_947.box
images/acoustic_guitar/n02676566_9559.jpg landmarks/acoustic_guitar/n02676566_9559.box
images/acoustic_guitar/n02676566_9560.jpg landmarks/acoustic_guitar/n02676566_9560.box
images/acoustic_guitar/n02676566_9572.jpg landmarks/acoustic_guitar/n02676566_9572.box
images/acoustic_guitar/n02676566_9580.jpg landmarks/acoustic_guitar/n02676566_9580.box
images/acoustic_guitar/n02676566_9640.jpg landmarks/acoustic_guitar/n02676566_9640.box
images/acoustic_guitar/n02676566_9643.jpg landmarks/acoustic_guitar/n02676566_9643.box
images/acoustic_guitar/n02676566_9657.jpg landmarks/acoustic_guitar/n02676566_9657.box
images/acoustic_guitar/n02676566_9679.jpg landmarks/acoustic_guitar/n02676566_9679.box
images/acoustic_guitar/n02676566_9705.jpg landmarks/acoustic_guitar/n02676566_9705.box
images/acoustic_guitar/n02676566_9726.jpg landmarks/acoustic_guitar/n02676566_9726.box
images/acoustic_guitar/n02676566_9760.jpg landmarks/acoustic_guitar/n02676566_9760.box
images/acoustic_guitar/n02676566_9790.jpg landmarks/acoustic_guitar/n02676566_9790.box
images/acoustic_guitar/n02676566_9812.jpg landmarks/acoustic_guitar/n02676566_9812.box
images/acoustic_guitar/n02676566_9832.jpg landmarks/acoustic_guitar/n02676566_9832.box
images/acoustic_guitar/n02676566_984.jpg landmarks/acoustic_guitar/n02676566_984.box
images/acoustic_guitar/n02676566_9936.jpg landmarks/acoustic_guitar/n02676566_9936.box
images/acoustic_guitar/n02676566_999.jpg landmarks/acoustic_guitar/n02676566_999.box
images/acoustic_guitar/n02676566_9.jpg landmarks/acoustic_guitar/n02676566_9.box
