ILSVR2014/CLS-LOC/ILSVRC2012_img_train/n02676566/n02676566_10022.JPEG ILSVR2014/CLS-LOC/ILSVRC2012_bbox_train_v2/n02676566/n02676566_10022.xml
ILSVR2014/CLS-LOC/ILSVRC2012_img_train/n02676566/n02676566_10102.JPEG ILSVR2014/CLS-LOC/ILSVRC2012_bbox_train_v2/n02676566/n02676566_10102.xml
ILSVR2014/CLS-LOC/ILSVRC2012_img_train/n02676566/n02676566_10467.JPEG ILSVR2014/CLS-LOC/ILSVRC2012_bbox_train_v2/n02676566/n02676566_10467.xml
ILSVR2014/CLS-LOC/ILSVRC2012_img_train/n02676566/n02676566_10750.JPEG ILSVR2014/CLS-LOC/ILSVRC2012_bbox_train_v2/n02676566/n02676566_10750.xml
ILSVR2014/CLS-LOC/ILSVRC2012_img_train/n02676566/n02676566_10902.JPEG ILSVR2014/CLS-LOC/ILSVRC2012_bbox_train_v2/n02676566/n02676566_10902.xml
ILSVR2014/CLS-LOC/ILSVRC2012_img_train/n02676566/n02676566_10977.JPEG ILSVR2014/CLS-LOC/ILSVRC2012_bbox_train_v2/n02676566/n02676566_10977.xml
ILSVR2014/CLS-LOC/ILSVRC2012_img_train/n02676566/n02676566_11075.JPEG ILSVR2014/CLS-LOC/ILSVRC2012_bbox_train_v2/n02676566/n02676566_11075.xml
ILSVR2014/CLS-LOC/ILSVRC2012_img_train/n02676566/n02676566_11094.JPEG ILSVR2014/CLS-LOC/ILSVRC2012_bbox_train_v2/n02676566/n02676566_11094.xml
ILSVR2014/CLS-LOC/ILSVRC2012_img_train/n02676566/n02676566_11121.JPEG ILSVR2014/CLS-LOC/ILSVRC2012_bbox_train_v2/n02676566/n02676566_11121.xml
ILSVR2014/CLS-LOC/ILSVRC2012_img_train/n02676566/n02676566_11129.JPEG ILSVR2014/CLS-LOC/ILSVRC2012_bbox_train_v2/n02676566/n02676566_11129.xml
ILSVR2014/CLS-LOC/ILSVRC2012_img_train/n02676566/n02676566_11140.JPEG ILSVR2014/CLS-LOC/ILSVRC2012_bbox_train_v2/n02676566/n02676566_11140.xml
ILSVR2014/CLS-LOC/ILSVRC2012_img_train/n02676566/n02676566_11215.JPEG ILSVR2014/CLS-LOC/ILSVRC2012_bbox_train_v2/n02676566/n02676566_11215.xml
ILSVR2014/CLS-LOC/ILSVRC2012_img_train/n02676566/n02676566_11293.JPEG ILSVR2014/CLS-LOC/ILSVRC2012_bbox_train_v2/n02676566/n02676566_11293.xml
ILSVR2014/CLS-LOC/ILSVRC2012_img_train/n02676566/n02676566_11301.JPEG ILSVR2014/CLS-LOC/ILSVRC2012_bbox_train_v2/n02676566/n02676566_11301.xml
ILSVR2014/CLS-LOC/ILSVRC2012_img_train/n02676566/n02676566_11334.JPEG ILSVR2014/CLS-LOC/ILSVRC2012_bbox_train_v2/n02676566/n02676566_11334.xml
ILSVR2014/CLS-LOC/ILSVRC2012_img_train/n02676566/n02676566_1136.JPEG ILSVR2014/CLS-LOC/ILSVRC2012_bbox_train_v2/n02676566/n02676566_1136.xml
ILSVR2014/CLS-LOC/ILSVRC2012_img_train/n02676566/n02676566_11377.JPEG ILSVR2014/CLS-LOC/ILSVRC2012_bbox_train_v2/n02676566/n02676566_11377.xml
ILSVR2014/CLS-LOC/ILSVRC2012_img_train/n02676566/n02676566_11513.JPEG ILSVR2014/CLS-LOC/ILSVRC2012_bbox_train_v2/n02676566/n02676566_11513.xml
ILSVR2014/CLS-LOC/ILSVRC2012_img_train/n02676566/n02676566_11573.JPEG ILSVR2014/CLS-LOC/ILSVRC2012_bbox_train_v2/n02676566/n02676566_11573.xml
ILSVR2014/CLS-LOC/ILSVRC2012_img_train/n02676566/n02676566_11578.JPEG ILSVR2014/CLS-LOC/ILSVRC2012_bbox_train_v2/n02676566/n02676566_11578.xml
ILSVR2014/CLS-LOC/ILSVRC2012_img_train/n02676566/n02676566_11580.JPEG ILSVR2014/CLS-LOC/ILSVRC2012_bbox_train_v2/n02676566/n02676566_11580.xml
ILSVR2014/CLS-LOC/ILSVRC2012_img_train/n02676566/n02676566_11643.JPEG ILSVR2014/CLS-LOC/ILSVRC2012_bbox_train_v2/n02676566/n02676566_11643.xml
ILSVR2014/CLS-LOC/ILSVRC2012_img_train/n02676566/n02676566_11646.JPEG ILSVR2014/CLS-LOC/ILSVRC2012_bbox_train_v2/n02676566/n02676566_11646.xml
ILSVR2014/CLS-LOC/ILSVRC2012_img_train/n02676566/n02676566_11818.JPEG ILSVR2014/CLS-LOC/ILSVRC2012_bbox_train_v2/n02676566/n02676566_11818.xml
ILSVR2014/CLS-LOC/ILSVRC2012_img_train/n02676566/n02676566_11897.JPEG ILSVR2014/CLS-LOC/ILSVRC2012_bbox_train_v2/n02676566/n02676566_11897.xml
ILSVR2014/CLS-LOC/ILSVRC2012_img_train/n02676566/n02676566_12007.JPEG ILSVR2014/CLS-LOC/ILSVRC2012_bbox_train_v2/n02676566/n02676566_12007.xml
ILSVR2014/CLS-LOC/ILSVRC2012_img_train/n02676566/n02676566_12075.JPEG ILSVR2014/CLS-LOC/ILSVRC2012_bbox_train_v2/n02676566/n02676566_12075.xml
ILSVR2014/CLS-LOC/ILSVRC2012_img_train/n02676566/n02676566_12282.JPEG ILSVR2014/CLS-LOC/ILSVRC2012_bbox_train_v2/n02676566/n02676566_12282.xml
ILSVR2014/CLS-LOC/ILSVRC2012_img_train/n02676566/n02676566_12344.JPEG ILSVR2014/CLS-LOC/ILSVRC2012_bbox_train_v2/n02676566/n02676566_12344.xml
ILSVR2014/CLS-LOC/ILSVRC2012_img_train/n02676566/n02676566_12503.JPEG ILSVR2014/CLS-LOC/ILSVRC2012_bbox_train_v2/n02676566/n02676566_12503.xml
ILSVR2014/CLS-LOC/ILSVRC2012_img_train/n02676566/n02676566_12570.JPEG ILSVR2014/CLS-LOC/ILSVRC2012_bbox_train_v2/n02676566/n02676566_12570.xml
ILSVR2014/CLS-LOC/ILSVRC2012_img_train/n02676566/n02676566_12573.JPEG ILSVR2014/CLS-LOC/ILSVRC2012_bbox_train_v2/n02676566/n02676566_12573.xml
ILSVR2014/CLS-LOC/ILSVRC2012_img_train/n02676566/n02676566_12575.JPEG ILSVR2014/CLS-LOC/ILSVRC2012_bbox_train_v2/n02676566/n02676566_12575.xml
ILSVR2014/CLS-LOC/ILSVRC2012_img_train/n02676566/n02676566_12763.JPEG ILSVR2014/CLS-LOC/ILSVRC2012_bbox_train_v2/n02676566/n02676566_12763.xml
ILSVR2014/CLS-LOC/ILSVRC2012_img_train/n02676566/n02676566_12827.JPEG ILSVR2014/CLS-LOC/ILSVRC2012_bbox_train_v2/n02676566/n02676566_12827.xml
ILSVR2014/CLS-LOC/ILSVRC2012_img_train/n02676566/n02676566_13036.JPEG ILSVR2014/CLS-LOC/ILSVRC2012_bbox_train_v2/n02676566/n02676566_13036.xml
ILSVR2014/CLS-LOC/ILSVRC2012_img_train/n02676566/n02676566_13083.JPEG ILSVR2014/CLS-LOC/ILSVRC2012_bbox_train_v2/n02676566/n02676566_13083.xml
ILSVR2014/CLS-LOC/ILSVRC2012_img_train/n02676566/n02676566_130.JPEG ILSVR2014/CLS-LOC/ILSVRC2012_bbox_train_v2/n02676566/n02676566_130.xml
ILSVR2014/CLS-LOC/ILSVRC2012_img_train/n02676566/n02676566_13126.JPEG ILSVR2014/CLS-LOC/ILSVRC2012_bbox_train_v2/n02676566/n02676566_13126.xml
ILSVR2014/CLS-LOC/ILSVRC2012_img_train/n02676566/n02676566_1319.JPEG ILSVR2014/CLS-LOC/ILSVRC2012_bbox_train_v2/n02676566/n02676566_1319.xml
ILSVR2014/CLS-LOC/ILSVRC2012_img_train/n02676566/n02676566_13267.JPEG ILSVR2014/CLS-LOC/ILSVRC2012_bbox_train_v2/n02676566/n02676566_13267.xml
ILSVR2014/CLS-LOC/ILSVRC2012_img_train/n02676566/n02676566_13619.JPEG ILSVR2014/CLS-LOC/ILSVRC2012_bbox_train_v2/n02676566/n02676566_13619.xml
ILSVR2014/CLS-LOC/ILSVRC2012_img_train/n02676566/n02676566_13663.JPEG ILSVR2014/CLS-LOC/ILSVRC2012_bbox_train_v2/n02676566/n02676566_13663.xml
ILSVR2014/CLS-LOC/ILSVRC2012_img_train/n02676566/n02676566_14116.JPEG ILSVR2014/CLS-LOC/ILSVRC2012_bbox_train_v2/n02676566/n02676566_14116.xml
ILSVR2014/CLS-LOC/ILSVRC2012_img_train/n02676566/n02676566_1416.JPEG ILSVR2014/CLS-LOC/ILSVRC2012_bbox_train_v2/n02676566/n02676566_1416.xml
ILSVR2014/CLS-LOC/ILSVRC2012_img_train/n02676566/n02676566_1418.JPEG ILSVR2014/CLS-LOC/ILSVRC2012_bbox_train_v2/n02676566/n02676566_1418.xml
ILSVR2014/CLS-LOC/ILSVRC2012_img_train/n02676566/n02676566_14337.JPEG ILSVR2014/CLS-LOC/ILSVRC2012_bbox_train_v2/n02676566/n02676566_14337.xml
ILSVR2014/CLS-LOC/ILSVRC2012_img_train/n02676566/n02676566_15152.JPEG ILSVR2014/CLS-LOC/ILSVRC2012_bbox_train_v2/n02676566/n02676566_15152.xml
ILSVR2014/CLS-LOC/ILSVRC2012_img_train/n02676566/n02676566_15190.JPEG ILSVR2014/CLS-LOC/ILSVRC2012_bbox_train_v2/n02676566/n02676566_15190.xml
ILSVR2014/CLS-LOC/ILSVRC2012_img_train/n02676566/n02676566_15296.JPEG ILSVR2014/CLS-LOC/ILSVRC2012_bbox_train_v2/n02676566/n02676566_15296.xml
ILSVR2014/CLS-LOC/ILSVRC2012_img_train/n02676566/n02676566_1555.JPEG ILSVR2014/CLS-LOC/ILSVRC2012_bbox_train_v2/n02676566/n02676566_1555.xml
ILSVR2014/CLS-LOC/ILSVRC2012_img_train/n02676566/n02676566_1645.JPEG ILSVR2014/CLS-LOC/ILSVRC2012_bbox_train_v2/n02676566/n02676566_1645.xml
ILSVR2014/CLS-LOC/ILSVRC2012_img_train/n02676566/n02676566_1658.JPEG ILSVR2014/CLS-LOC/ILSVRC2012_bbox_train_v2/n02676566/n02676566_1658.xml
ILSVR2014/CLS-LOC/ILSVRC2012_img_train/n02676566/n02676566_1677.JPEG ILSVR2014/CLS-LOC/ILSVRC2012_bbox_train_v2/n02676566/n02676566_1677.xml
ILSVR2014/CLS-LOC/ILSVRC2012_img_train/n02676566/n02676566_1707.JPEG ILSVR2014/CLS-LOC/ILSVRC2012_bbox_train_v2/n02676566/n02676566_1707.xml
ILSVR2014/CLS-LOC/ILSVRC2012_img_train/n02676566/n02676566_1757.JPEG ILSVR2014/CLS-LOC/ILSVRC2012_bbox_train_v2/n02676566/n02676566_1757.xml
ILSVR2014/CLS-LOC/ILSVRC2012_img_train/n02676566/n02676566_1825.JPEG ILSVR2014/CLS-LOC/ILSVRC2012_bbox_train_v2/n02676566/n02676566_1825.xml
ILSVR2014/CLS-LOC/ILSVRC2012_img_train/n02676566/n02676566_1866.JPEG ILSVR2014/CLS-LOC/ILSVRC2012_bbox_train_v2/n02676566/n02676566_1866.xml
ILSVR2014/CLS-LOC/ILSVRC2012_img_train/n02676566/n02676566_1882.JPEG ILSVR2014/CLS-LOC/ILSVRC2012_bbox_train_v2/n02676566/n02676566_1882.xml
ILSVR2014/CLS-LOC/ILSVRC2012_img_train/n02676566/n02676566_1956.JPEG ILSVR2014/CLS-LOC/ILSVRC2012_bbox_train_v2/n02676566/n02676566_1956.xml
ILSVR2014/CLS-LOC/ILSVRC2012_img_train/n02676566/n02676566_1964.JPEG ILSVR2014/CLS-LOC/ILSVRC2012_bbox_train_v2/n02676566/n02676566_1964.xml
ILSVR2014/CLS-LOC/ILSVRC2012_img_train/n02676566/n02676566_1973.JPEG ILSVR2014/CLS-LOC/ILSVRC2012_bbox_train_v2/n02676566/n02676566_1973.xml
ILSVR2014/CLS-LOC/ILSVRC2012_img_train/n02676566/n02676566_202.JPEG ILSVR2014/CLS-LOC/ILSVRC2012_bbox_train_v2/n02676566/n02676566_202.xml
ILSVR2014/CLS-LOC/ILSVRC2012_img_train/n02676566/n02676566_2252.JPEG ILSVR2014/CLS-LOC/ILSVRC2012_bbox_train_v2/n02676566/n02676566_2252.xml
ILSVR2014/CLS-LOC/ILSVRC2012_img_train/n02676566/n02676566_2256.JPEG ILSVR2014/CLS-LOC/ILSVRC2012_bbox_train_v2/n02676566/n02676566_2256.xml
ILSVR2014/CLS-LOC/ILSVRC2012_img_train/n02676566/n02676566_2258.JPEG ILSVR2014/CLS-LOC/ILSVRC2012_bbox_train_v2/n02676566/n02676566_2258.xml
ILSVR2014/CLS-LOC/ILSVRC2012_img_train/n02676566/n02676566_2371.JPEG ILSVR2014/CLS-LOC/ILSVRC2012_bbox_train_v2/n02676566/n02676566_2371.xml
ILSVR2014/CLS-LOC/ILSVRC2012_img_train/n02676566/n02676566_2380.JPEG ILSVR2014/CLS-LOC/ILSVRC2012_bbox_train_v2/n02676566/n02676566_2380.xml
ILSVR2014/CLS-LOC/ILSVRC2012_img_train/n02676566/n02676566_242.JPEG ILSVR2014/CLS-LOC/ILSVRC2012_bbox_train_v2/n02676566/n02676566_242.xml
ILSVR2014/CLS-LOC/ILSVRC2012_img_train/n02676566/n02676566_2684.JPEG ILSVR2014/CLS-LOC/ILSVRC2012_bbox_train_v2/n02676566/n02676566_2684.xml
ILSVR2014/CLS-LOC/ILSVRC2012_img_train/n02676566/n02676566_2769.JPEG ILSVR2014/CLS-LOC/ILSVRC2012_bbox_train_v2/n02676566/n02676566_2769.xml
ILSVR2014/CLS-LOC/ILSVRC2012_img_train/n02676566/n02676566_2778.JPEG ILSVR2014/CLS-LOC/ILSVRC2012_bbox_train_v2/n02676566/n02676566_2778.xml
ILSVR2014/CLS-LOC/ILSVRC2012_img_train/n02676566/n02676566_2816.JPEG ILSVR2014/CLS-LOC/ILSVRC2012_bbox_train_v2/n02676566/n02676566_2816.xml
ILSVR2014/CLS-LOC/ILSVRC2012_img_train/n02676566/n02676566_281.JPEG ILSVR2014/CLS-LOC/ILSVRC2012_bbox_train_v2/n02676566/n02676566_281.xml
ILSVR2014/CLS-LOC/ILSVRC2012_img_train/n02676566/n02676566_2866.JPEG ILSVR2014/CLS-LOC/ILSVRC2012_bbox_train_v2/n02676566/n02676566_2866.xml
ILSVR2014/CLS-LOC/ILSVRC2012_img_train/n02676566/n02676566_2899.JPEG ILSVR2014/CLS-LOC/ILSVRC2012_bbox_train_v2/n02676566/n02676566_2899.xml
ILSVR2014/CLS-LOC/ILSVRC2012_img_train/n02676566/n02676566_2913.JPEG ILSVR2014/CLS-LOC/ILSVRC2012_bbox_train_v2/n02676566/n02676566_2913.xml
ILSVR2014/CLS-LOC/ILSVRC2012_img_train/n02676566/n02676566_2967.JPEG ILSVR2014/CLS-LOC/ILSVRC2012_bbox_train_v2/n02676566/n02676566_2967.xml
ILSVR2014/CLS-LOC/ILSVRC2012_img_train/n02676566/n02676566_307.JPEG ILSVR2014/CLS-LOC/ILSVRC2012_bbox_train_v2/n02676566/n02676566_307.xml
ILSVR2014/CLS-LOC/ILSVRC2012_img_train/n02676566/n02676566_3109.JPEG ILSVR2014/CLS-LOC/ILSVRC2012_bbox_train_v2/n02676566/n02676566_3109.xml
ILSVR2014/CLS-LOC/ILSVRC2012_img_train/n02676566/n02676566_3115.JPEG ILSVR2014/CLS-LOC/ILSVRC2012_bbox_train_v2/n02676566/n02676566_3115.xml
ILSVR2014/CLS-LOC/ILSVRC2012_img_train/n02676566/n02676566_3116.JPEG ILSVR2014/CLS-LOC/ILSVRC2012_bbox_train_v2/n02676566/n02676566_3116.xml
ILSVR2014/CLS-LOC/ILSVRC2012_img_train/n02676566/n02676566_3120.JPEG ILSVR2014/CLS-LOC/ILSVRC2012_bbox_train_v2/n02676566/n02676566_3120.xml
ILSVR2014/CLS-LOC/ILSVRC2012_img_train/n02676566/n02676566_3159.JPEG ILSVR2014/CLS-LOC/ILSVRC2012_bbox_train_v2/n02676566/n02676566_3159.xml
ILSVR2014/CLS-LOC/ILSVRC2012_img_train/n02676566/n02676566_3161.JPEG ILSVR2014/CLS-LOC/ILSVRC2012_bbox_train_v2/n02676566/n02676566_3161.xml
ILSVR2014/CLS-LOC/ILSVRC2012_img_train/n02676566/n02676566_3206.JPEG ILSVR2014/CLS-LOC/ILSVRC2012_bbox_train_v2/n02676566/n02676566_3206.xml
ILSVR2014/CLS-LOC/ILSVRC2012_img_train/n02676566/n02676566_3277.JPEG ILSVR2014/CLS-LOC/ILSVRC2012_bbox_train_v2/n02676566/n02676566_3277.xml
ILSVR2014/CLS-LOC/ILSVRC2012_img_train/n02676566/n02676566_3382.JPEG ILSVR2014/CLS-LOC/ILSVRC2012_bbox_train_v2/n02676566/n02676566_3382.xml
ILSVR2014/CLS-LOC/ILSVRC2012_img_train/n02676566/n02676566_3386.JPEG ILSVR2014/CLS-LOC/ILSVRC2012_bbox_train_v2/n02676566/n02676566_3386.xml
ILSVR2014/CLS-LOC/ILSVRC2012_img_train/n02676566/n02676566_3461.JPEG ILSVR2014/CLS-LOC/ILSVRC2012_bbox_train_v2/n02676566/n02676566_3461.xml
ILSVR2014/CLS-LOC/ILSVRC2012_img_train/n02676566/n02676566_3468.JPEG ILSVR2014/CLS-LOC/ILSVRC2012_bbox_train_v2/n02676566/n02676566_3468.xml
ILSVR2014/CLS-LOC/ILSVRC2012_img_train/n02676566/n02676566_3540.JPEG ILSVR2014/CLS-LOC/ILSVRC2012_bbox_train_v2/n02676566/n02676566_3540.xml
ILSVR2014/CLS-LOC/ILSVRC2012_img_train/n02676566/n02676566_3629.JPEG ILSVR2014/CLS-LOC/ILSVRC2012_bbox_train_v2/n02676566/n02676566_3629.xml
ILSVR2014/CLS-LOC/ILSVRC2012_img_train/n02676566/n02676566_3639.JPEG ILSVR2014/CLS-LOC/ILSVRC2012_bbox_train_v2/n02676566/n02676566_3639.xml
ILSVR2014/CLS-LOC/ILSVRC2012_img_train/n02676566/n02676566_3750.JPEG ILSVR2014/CLS-LOC/ILSVRC2012_bbox_train_v2/n02676566/n02676566_3750.xml
ILSVR2014/CLS-LOC/ILSVRC2012_img_train/n02676566/n02676566_3957.JPEG ILSVR2014/CLS-LOC/ILSVRC2012_bbox_train_v2/n02676566/n02676566_3957.xml
ILSVR2014/CLS-LOC/ILSVRC2012_img_train/n02676566/n02676566_402.JPEG ILSVR2014/CLS-LOC/ILSVRC2012_bbox_train_v2/n02676566/n02676566_402.xml
ILSVR2014/CLS-LOC/ILSVRC2012_img_train/n02676566/n02676566_4057.JPEG ILSVR2014/CLS-LOC/ILSVRC2012_bbox_train_v2/n02676566/n02676566_4057.xml
ILSVR2014/CLS-LOC/ILSVRC2012_img_train/n02676566/n02676566_4058.JPEG ILSVR2014/CLS-LOC/ILSVRC2012_bbox_train_v2/n02676566/n02676566_4058.xml
ILSVR2014/CLS-LOC/ILSVRC2012_img_train/n02676566/n02676566_4064.JPEG ILSVR2014/CLS-LOC/ILSVRC2012_bbox_train_v2/n02676566/n02676566_4064.xml
ILSVR2014/CLS-LOC/ILSVRC2012_img_train/n02676566/n02676566_4074.JPEG ILSVR2014/CLS-LOC/ILSVRC2012_bbox_train_v2/n02676566/n02676566_4074.xml
ILSVR2014/CLS-LOC/ILSVRC2012_img_train/n02676566/n02676566_4166.JPEG ILSVR2014/CLS-LOC/ILSVRC2012_bbox_train_v2/n02676566/n02676566_4166.xml
ILSVR2014/CLS-LOC/ILSVRC2012_img_train/n02676566/n02676566_4208.JPEG ILSVR2014/CLS-LOC/ILSVRC2012_bbox_train_v2/n02676566/n02676566_4208.xml
ILSVR2014/CLS-LOC/ILSVRC2012_img_train/n02676566/n02676566_4241.JPEG ILSVR2014/CLS-LOC/ILSVRC2012_bbox_train_v2/n02676566/n02676566_4241.xml
ILSVR2014/CLS-LOC/ILSVRC2012_img_train/n02676566/n02676566_4252.JPEG ILSVR2014/CLS-LOC/ILSVRC2012_bbox_train_v2/n02676566/n02676566_4252.xml
ILSVR2014/CLS-LOC/ILSVRC2012_img_train/n02676566/n02676566_4305.JPEG ILSVR2014/CLS-LOC/ILSVRC2012_bbox_train_v2/n02676566/n02676566_4305.xml
ILSVR2014/CLS-LOC/ILSVRC2012_img_train/n02676566/n02676566_4341.JPEG ILSVR2014/CLS-LOC/ILSVRC2012_bbox_train_v2/n02676566/n02676566_4341.xml
ILSVR2014/CLS-LOC/ILSVRC2012_img_train/n02676566/n02676566_4343.JPEG ILSVR2014/CLS-LOC/ILSVRC2012_bbox_train_v2/n02676566/n02676566_4343.xml
ILSVR2014/CLS-LOC/ILSVRC2012_img_train/n02676566/n02676566_4391.JPEG ILSVR2014/CLS-LOC/ILSVRC2012_bbox_train_v2/n02676566/n02676566_4391.xml
ILSVR2014/CLS-LOC/ILSVRC2012_img_train/n02676566/n02676566_4402.JPEG ILSVR2014/CLS-LOC/ILSVRC2012_bbox_train_v2/n02676566/n02676566_4402.xml
ILSVR2014/CLS-LOC/ILSVRC2012_img_train/n02676566/n02676566_4419.JPEG ILSVR2014/CLS-LOC/ILSVRC2012_bbox_train_v2/n02676566/n02676566_4419.xml
ILSVR2014/CLS-LOC/ILSVRC2012_img_train/n02676566/n02676566_4462.JPEG ILSVR2014/CLS-LOC/ILSVRC2012_bbox_train_v2/n02676566/n02676566_4462.xml
ILSVR2014/CLS-LOC/ILSVRC2012_img_train/n02676566/n02676566_4469.JPEG ILSVR2014/CLS-LOC/ILSVRC2012_bbox_train_v2/n02676566/n02676566_4469.xml
ILSVR2014/CLS-LOC/ILSVRC2012_img_train/n02676566/n02676566_4493.JPEG ILSVR2014/CLS-LOC/ILSVRC2012_bbox_train_v2/n02676566/n02676566_4493.xml
ILSVR2014/CLS-LOC/ILSVRC2012_img_train/n02676566/n02676566_4543.JPEG ILSVR2014/CLS-LOC/ILSVRC2012_bbox_train_v2/n02676566/n02676566_4543.xml
ILSVR2014/CLS-LOC/ILSVRC2012_img_train/n02676566/n02676566_4605.JPEG ILSVR2014/CLS-LOC/ILSVRC2012_bbox_train_v2/n02676566/n02676566_4605.xml
ILSVR2014/CLS-LOC/ILSVRC2012_img_train/n02676566/n02676566_4613.JPEG ILSVR2014/CLS-LOC/ILSVRC2012_bbox_train_v2/n02676566/n02676566_4613.xml
ILSVR2014/CLS-LOC/ILSVRC2012_img_train/n02676566/n02676566_4615.JPEG ILSVR2014/CLS-LOC/ILSVRC2012_bbox_train_v2/n02676566/n02676566_4615.xml
ILSVR2014/CLS-LOC/ILSVRC2012_img_train/n02676566/n02676566_461.JPEG ILSVR2014/CLS-LOC/ILSVRC2012_bbox_train_v2/n02676566/n02676566_461.xml
ILSVR2014/CLS-LOC/ILSVRC2012_img_train/n02676566/n02676566_4621.JPEG ILSVR2014/CLS-LOC/ILSVRC2012_bbox_train_v2/n02676566/n02676566_4621.xml
ILSVR2014/CLS-LOC/ILSVRC2012_img_train/n02676566/n02676566_4699.JPEG ILSVR2014/CLS-LOC/ILSVRC2012_bbox_train_v2/n02676566/n02676566_4699.xml
ILSVR2014/CLS-LOC/ILSVRC2012_img_train/n02676566/n02676566_4706.JPEG ILSVR2014/CLS-LOC/ILSVRC2012_bbox_train_v2/n02676566/n02676566_4706.xml
ILSVR2014/CLS-LOC/ILSVRC2012_img_train/n02676566/n02676566_4789.JPEG ILSVR2014/CLS-LOC/ILSVRC2012_bbox_train_v2/n02676566/n02676566_4789.xml
ILSVR2014/CLS-LOC/ILSVRC2012_img_train/n02676566/n02676566_4793.JPEG ILSVR2014/CLS-LOC/ILSVRC2012_bbox_train_v2/n02676566/n02676566_4793.xml
ILSVR2014/CLS-LOC/ILSVRC2012_img_train/n02676566/n02676566_4812.JPEG ILSVR2014/CLS-LOC/ILSVRC2012_bbox_train_v2/n02676566/n02676566_4812.xml
ILSVR2014/CLS-LOC/ILSVRC2012_img_train/n02676566/n02676566_4839.JPEG ILSVR2014/CLS-LOC/ILSVRC2012_bbox_train_v2/n02676566/n02676566_4839.xml
ILSVR2014/CLS-LOC/ILSVRC2012_img_train/n02676566/n02676566_4853.JPEG ILSVR2014/CLS-LOC/ILSVRC2012_bbox_train_v2/n02676566/n02676566_4853.xml
ILSVR2014/CLS-LOC/ILSVRC2012_img_train/n02676566/n02676566_4988.JPEG ILSVR2014/CLS-LOC/ILSVRC2012_bbox_train_v2/n02676566/n02676566_4988.xml
ILSVR2014/CLS-LOC/ILSVRC2012_img_train/n02676566/n02676566_5109.JPEG ILSVR2014/CLS-LOC/ILSVRC2012_bbox_train_v2/n02676566/n02676566_5109.xml
ILSVR2014/CLS-LOC/ILSVRC2012_img_train/n02676566/n02676566_5134.JPEG ILSVR2014/CLS-LOC/ILSVRC2012_bbox_train_v2/n02676566/n02676566_5134.xml
ILSVR2014/CLS-LOC/ILSVRC2012_img_train/n02676566/n02676566_520.JPEG ILSVR2014/CLS-LOC/ILSVRC2012_bbox_train_v2/n02676566/n02676566_520.xml
ILSVR2014/CLS-LOC/ILSVRC2012_img_train/n02676566/n02676566_5293.JPEG ILSVR2014/CLS-LOC/ILSVRC2012_bbox_train_v2/n02676566/n02676566_5293.xml
ILSVR2014/CLS-LOC/ILSVRC2012_img_train/n02676566/n02676566_5369.JPEG ILSVR2014/CLS-LOC/ILSVRC2012_bbox_train_v2/n02676566/n02676566_5369.xml
ILSVR2014/CLS-LOC/ILSVRC2012_img_train/n02676566/n02676566_5373.JPEG ILSVR2014/CLS-LOC/ILSVRC2012_bbox_train_v2/n02676566/n02676566_5373.xml
ILSVR2014/CLS-LOC/ILSVRC2012_img_train/n02676566/n02676566_5412.JPEG ILSVR2014/CLS-LOC/ILSVRC2012_bbox_train_v2/n02676566/n02676566_5412.xml
ILSVR2014/CLS-LOC/ILSVRC2012_img_train/n02676566/n02676566_5416.JPEG ILSVR2014/CLS-LOC/ILSVRC2012_bbox_train_v2/n02676566/n02676566_5416.xml
ILSVR2014/CLS-LOC/ILSVRC2012_img_train/n02676566/n02676566_5437.JPEG ILSVR2014/CLS-LOC/ILSVRC2012_bbox_train_v2/n02676566/n02676566_5437.xml
ILSVR2014/CLS-LOC/ILSVRC2012_img_train/n02676566/n02676566_5448.JPEG ILSVR2014/CLS-LOC/ILSVRC2012_bbox_train_v2/n02676566/n02676566_5448.xml
ILSVR2014/CLS-LOC/ILSVRC2012_img_train/n02676566/n02676566_5450.JPEG ILSVR2014/CLS-LOC/ILSVRC2012_bbox_train_v2/n02676566/n02676566_5450.xml
ILSVR2014/CLS-LOC/ILSVRC2012_img_train/n02676566/n02676566_5453.JPEG ILSVR2014/CLS-LOC/ILSVRC2012_bbox_train_v2/n02676566/n02676566_5453.xml
ILSVR2014/CLS-LOC/ILSVRC2012_img_train/n02676566/n02676566_5454.JPEG ILSVR2014/CLS-LOC/ILSVRC2012_bbox_train_v2/n02676566/n02676566_5454.xml
ILSVR2014/CLS-LOC/ILSVRC2012_img_train/n02676566/n02676566_5457.JPEG ILSVR2014/CLS-LOC/ILSVRC2012_bbox_train_v2/n02676566/n02676566_5457.xml
ILSVR2014/CLS-LOC/ILSVRC2012_img_train/n02676566/n02676566_5464.JPEG ILSVR2014/CLS-LOC/ILSVRC2012_bbox_train_v2/n02676566/n02676566_5464.xml
ILSVR2014/CLS-LOC/ILSVRC2012_img_train/n02676566/n02676566_5480.JPEG ILSVR2014/CLS-LOC/ILSVRC2012_bbox_train_v2/n02676566/n02676566_5480.xml
ILSVR2014/CLS-LOC/ILSVRC2012_img_train/n02676566/n02676566_5489.JPEG ILSVR2014/CLS-LOC/ILSVRC2012_bbox_train_v2/n02676566/n02676566_5489.xml
ILSVR2014/CLS-LOC/ILSVRC2012_img_train/n02676566/n02676566_5508.JPEG ILSVR2014/CLS-LOC/ILSVRC2012_bbox_train_v2/n02676566/n02676566_5508.xml
ILSVR2014/CLS-LOC/ILSVRC2012_img_train/n02676566/n02676566_5514.JPEG ILSVR2014/CLS-LOC/ILSVRC2012_bbox_train_v2/n02676566/n02676566_5514.xml
ILSVR2014/CLS-LOC/ILSVRC2012_img_train/n02676566/n02676566_5534.JPEG ILSVR2014/CLS-LOC/ILSVRC2012_bbox_train_v2/n02676566/n02676566_5534.xml
ILSVR2014/CLS-LOC/ILSVRC2012_img_train/n02676566/n02676566_5535.JPEG ILSVR2014/CLS-LOC/ILSVRC2012_bbox_train_v2/n02676566/n02676566_5535.xml
ILSVR2014/CLS-LOC/ILSVRC2012_img_train/n02676566/n02676566_553.JPEG ILSVR2014/CLS-LOC/ILSVRC2012_bbox_train_v2/n02676566/n02676566_553.xml
ILSVR2014/CLS-LOC/ILSVRC2012_img_train/n02676566/n02676566_556.JPEG ILSVR2014/CLS-LOC/ILSVRC2012_bbox_train_v2/n02676566/n02676566_556.xml
ILSVR2014/CLS-LOC/ILSVRC2012_img_train/n02676566/n02676566_5597.JPEG ILSVR2014/CLS-LOC/ILSVRC2012_bbox_train_v2/n02676566/n02676566_5597.xml
ILSVR2014/CLS-LOC/ILSVRC2012_img_train/n02676566/n02676566_5601.JPEG ILSVR2014/CLS-LOC/ILSVRC2012_bbox_train_v2/n02676566/n02676566_5601.xml
ILSVR2014/CLS-LOC/ILSVRC2012_img_train/n02676566/n02676566_5610.JPEG ILSVR2014/CLS-LOC/ILSVRC2012_bbox_train_v2/n02676566/n02676566_5610.xml
ILSVR2014/CLS-LOC/ILSVRC2012_img_train/n02676566/n02676566_5637.JPEG ILSVR2014/CLS-LOC/ILSVRC2012_bbox_train_v2/n02676566/n02676566_5637.xml
ILSVR2014/CLS-LOC/ILSVRC2012_img_train/n02676566/n02676566_5641.JPEG ILSVR2014/CLS-LOC/ILSVRC2012_bbox_train_v2/n02676566/n02676566_5641.xml
ILSVR2014/CLS-LOC/ILSVRC2012_img_train/n02676566/n02676566_5645.JPEG ILSVR2014/CLS-LOC/ILSVRC2012_bbox_train_v2/n02676566/n02676566_5645.xml
ILSVR2014/CLS-LOC/ILSVRC2012_img_train/n02676566/n02676566_5689.JPEG ILSVR2014/CLS-LOC/ILSVRC2012_bbox_train_v2/n02676566/n02676566_5689.xml
ILSVR2014/CLS-LOC/ILSVRC2012_img_train/n02676566/n02676566_5735.JPEG ILSVR2014/CLS-LOC/ILSVRC2012_bbox_train_v2/n02676566/n02676566_5735.xml
ILSVR2014/CLS-LOC/ILSVRC2012_img_train/n02676566/n02676566_5742.JPEG ILSVR2014/CLS-LOC/ILSVRC2012_bbox_train_v2/n02676566/n02676566_5742.xml
ILSVR2014/CLS-LOC/ILSVRC2012_img_train/n02676566/n02676566_5776.JPEG ILSVR2014/CLS-LOC/ILSVRC2012_bbox_train_v2/n02676566/n02676566_5776.xml
ILSVR2014/CLS-LOC/ILSVRC2012_img_train/n02676566/n02676566_5830.JPEG ILSVR2014/CLS-LOC/ILSVRC2012_bbox_train_v2/n02676566/n02676566_5830.xml
ILSVR2014/CLS-LOC/ILSVRC2012_img_train/n02676566/n02676566_5861.JPEG ILSVR2014/CLS-LOC/ILSVRC2012_bbox_train_v2/n02676566/n02676566_5861.xml
ILSVR2014/CLS-LOC/ILSVRC2012_img_train/n02676566/n02676566_596.JPEG ILSVR2014/CLS-LOC/ILSVRC2012_bbox_train_v2/n02676566/n02676566_596.xml
ILSVR2014/CLS-LOC/ILSVRC2012_img_train/n02676566/n02676566_6024.JPEG ILSVR2014/CLS-LOC/ILSVRC2012_bbox_train_v2/n02676566/n02676566_6024.xml
ILSVR2014/CLS-LOC/ILSVRC2012_img_train/n02676566/n02676566_6030.JPEG ILSVR2014/CLS-LOC/ILSVRC2012_bbox_train_v2/n02676566/n02676566_6030.xml
ILSVR2014/CLS-LOC/ILSVRC2012_img_train/n02676566/n02676566_6111.JPEG ILSVR2014/CLS-LOC/ILSVRC2012_bbox_train_v2/n02676566/n02676566_6111.xml
ILSVR2014/CLS-LOC/ILSVRC2012_img_train/n02676566/n02676566_6150.JPEG ILSVR2014/CLS-LOC/ILSVRC2012_bbox_train_v2/n02676566/n02676566_6150.xml
ILSVR2014/CLS-LOC/ILSVRC2012_img_train/n02676566/n02676566_6178.JPEG ILSVR2014/CLS-LOC/ILSVRC2012_bbox_train_v2/n02676566/n02676566_6178.xml
ILSVR2014/CLS-LOC/ILSVRC2012_img_train/n02676566/n02676566_6196.JPEG ILSVR2014/CLS-LOC/ILSVRC2012_bbox_train_v2/n02676566/n02676566_6196.xml
ILSVR2014/CLS-LOC/ILSVRC2012_img_train/n02676566/n02676566_6200.JPEG ILSVR2014/CLS-LOC/ILSVRC2012_bbox_train_v2/n02676566/n02676566_6200.xml
ILSVR2014/CLS-LOC/ILSVRC2012_img_train/n02676566/n02676566_6234.JPEG ILSVR2014/CLS-LOC/ILSVRC2012_bbox_train_v2/n02676566/n02676566_6234.xml
ILSVR2014/CLS-LOC/ILSVRC2012_img_train/n02676566/n02676566_6251.JPEG ILSVR2014/CLS-LOC/ILSVRC2012_bbox_train_v2/n02676566/n02676566_6251.xml
ILSVR2014/CLS-LOC/ILSVRC2012_img_train/n02676566/n02676566_6260.JPEG ILSVR2014/CLS-LOC/ILSVRC2012_bbox_train_v2/n02676566/n02676566_6260.xml
ILSVR2014/CLS-LOC/ILSVRC2012_img_train/n02676566/n02676566_6291.JPEG ILSVR2014/CLS-LOC/ILSVRC2012_bbox_train_v2/n02676566/n02676566_6291.xml
ILSVR2014/CLS-LOC/ILSVRC2012_img_train/n02676566/n02676566_6303.JPEG ILSVR2014/CLS-LOC/ILSVRC2012_bbox_train_v2/n02676566/n02676566_6303.xml
ILSVR2014/CLS-LOC/ILSVRC2012_img_train/n02676566/n02676566_6306.JPEG ILSVR2014/CLS-LOC/ILSVRC2012_bbox_train_v2/n02676566/n02676566_6306.xml
ILSVR2014/CLS-LOC/ILSVRC2012_img_train/n02676566/n02676566_6319.JPEG ILSVR2014/CLS-LOC/ILSVRC2012_bbox_train_v2/n02676566/n02676566_6319.xml
ILSVR2014/CLS-LOC/ILSVRC2012_img_train/n02676566/n02676566_6341.JPEG ILSVR2014/CLS-LOC/ILSVRC2012_bbox_train_v2/n02676566/n02676566_6341.xml
ILSVR2014/CLS-LOC/ILSVRC2012_img_train/n02676566/n02676566_6363.JPEG ILSVR2014/CLS-LOC/ILSVRC2012_bbox_train_v2/n02676566/n02676566_6363.xml
ILSVR2014/CLS-LOC/ILSVRC2012_img_train/n02676566/n02676566_6370.JPEG ILSVR2014/CLS-LOC/ILSVRC2012_bbox_train_v2/n02676566/n02676566_6370.xml
ILSVR2014/CLS-LOC/ILSVRC2012_img_train/n02676566/n02676566_6377.JPEG ILSVR2014/CLS-LOC/ILSVRC2012_bbox_train_v2/n02676566/n02676566_6377.xml
ILSVR2014/CLS-LOC/ILSVRC2012_img_train/n02676566/n02676566_6384.JPEG ILSVR2014/CLS-LOC/ILSVRC2012_bbox_train_v2/n02676566/n02676566_6384.xml
ILSVR2014/CLS-LOC/ILSVRC2012_img_train/n02676566/n02676566_6401.JPEG ILSVR2014/CLS-LOC/ILSVRC2012_bbox_train_v2/n02676566/n02676566_6401.xml
ILSVR2014/CLS-LOC/ILSVRC2012_img_train/n02676566/n02676566_6402.JPEG ILSVR2014/CLS-LOC/ILSVRC2012_bbox_train_v2/n02676566/n02676566_6402.xml
ILSVR2014/CLS-LOC/ILSVRC2012_img_train/n02676566/n02676566_6412.JPEG ILSVR2014/CLS-LOC/ILSVRC2012_bbox_train_v2/n02676566/n02676566_6412.xml
ILSVR2014/CLS-LOC/ILSVRC2012_img_train/n02676566/n02676566_6414.JPEG ILSVR2014/CLS-LOC/ILSVRC2012_bbox_train_v2/n02676566/n02676566_6414.xml
ILSVR2014/CLS-LOC/ILSVRC2012_img_train/n02676566/n02676566_6430.JPEG ILSVR2014/CLS-LOC/ILSVRC2012_bbox_train_v2/n02676566/n02676566_6430.xml
ILSVR2014/CLS-LOC/ILSVRC2012_img_train/n02676566/n02676566_6435.JPEG ILSVR2014/CLS-LOC/ILSVRC2012_bbox_train_v2/n02676566/n02676566_6435.xml
ILSVR2014/CLS-LOC/ILSVRC2012_img_train/n02676566/n02676566_6466.JPEG ILSVR2014/CLS-LOC/ILSVRC2012_bbox_train_v2/n02676566/n02676566_6466.xml
ILSVR2014/CLS-LOC/ILSVRC2012_img_train/n02676566/n02676566_6467.JPEG ILSVR2014/CLS-LOC/ILSVRC2012_bbox_train_v2/n02676566/n02676566_6467.xml
ILSVR2014/CLS-LOC/ILSVRC2012_img_train/n02676566/n02676566_6489.JPEG ILSVR2014/CLS-LOC/ILSVRC2012_bbox_train_v2/n02676566/n02676566_6489.xml
ILSVR2014/CLS-LOC/ILSVRC2012_img_train/n02676566/n02676566_6518.JPEG ILSVR2014/CLS-LOC/ILSVRC2012_bbox_train_v2/n02676566/n02676566_6518.xml
ILSVR2014/CLS-LOC/ILSVRC2012_img_train/n02676566/n02676566_6549.JPEG ILSVR2014/CLS-LOC/ILSVRC2012_bbox_train_v2/n02676566/n02676566_6549.xml
ILSVR2014/CLS-LOC/ILSVRC2012_img_train/n02676566/n02676566_654.JPEG ILSVR2014/CLS-LOC/ILSVRC2012_bbox_train_v2/n02676566/n02676566_654.xml
ILSVR2014/CLS-LOC/ILSVRC2012_img_train/n02676566/n02676566_6554.JPEG ILSVR2014/CLS-LOC/ILSVRC2012_bbox_train_v2/n02676566/n02676566_6554.xml
ILSVR2014/CLS-LOC/ILSVRC2012_img_train/n02676566/n02676566_6557.JPEG ILSVR2014/CLS-LOC/ILSVRC2012_bbox_train_v2/n02676566/n02676566_6557.xml
ILSVR2014/CLS-LOC/ILSVRC2012_img_train/n02676566/n02676566_6560.JPEG ILSVR2014/CLS-LOC/ILSVRC2012_bbox_train_v2/n02676566/n02676566_6560.xml
ILSVR2014/CLS-LOC/ILSVRC2012_img_train/n02676566/n02676566_6563.JPEG ILSVR2014/CLS-LOC/ILSVRC2012_bbox_train_v2/n02676566/n02676566_6563.xml
ILSVR2014/CLS-LOC/ILSVRC2012_img_train/n02676566/n02676566_6567.JPEG ILSVR2014/CLS-LOC/ILSVRC2012_bbox_train_v2/n02676566/n02676566_6567.xml
ILSVR2014/CLS-LOC/ILSVRC2012_img_train/n02676566/n02676566_6569.JPEG ILSVR2014/CLS-LOC/ILSVRC2012_bbox_train_v2/n02676566/n02676566_6569.xml
ILSVR2014/CLS-LOC/ILSVRC2012_img_train/n02676566/n02676566_6570.JPEG ILSVR2014/CLS-LOC/ILSVRC2012_bbox_train_v2/n02676566/n02676566_6570.xml
ILSVR2014/CLS-LOC/ILSVRC2012_img_train/n02676566/n02676566_6582.JPEG ILSVR2014/CLS-LOC/ILSVRC2012_bbox_train_v2/n02676566/n02676566_6582.xml
ILSVR2014/CLS-LOC/ILSVRC2012_img_train/n02676566/n02676566_6583.JPEG ILSVR2014/CLS-LOC/ILSVRC2012_bbox_train_v2/n02676566/n02676566_6583.xml
ILSVR2014/CLS-LOC/ILSVRC2012_img_train/n02676566/n02676566_6589.JPEG ILSVR2014/CLS-LOC/ILSVRC2012_bbox_train_v2/n02676566/n02676566_6589.xml
ILSVR2014/CLS-LOC/ILSVRC2012_img_train/n02676566/n02676566_6590.JPEG ILSVR2014/CLS-LOC/ILSVRC2012_bbox_train_v2/n02676566/n02676566_6590.xml
ILSVR2014/CLS-LOC/ILSVRC2012_img_train/n02676566/n02676566_6596.JPEG ILSVR2014/CLS-LOC/ILSVRC2012_bbox_train_v2/n02676566/n02676566_6596.xml
ILSVR2014/CLS-LOC/ILSVRC2012_img_train/n02676566/n02676566_6604.JPEG ILSVR2014/CLS-LOC/ILSVRC2012_bbox_train_v2/n02676566/n02676566_6604.xml
ILSVR2014/CLS-LOC/ILSVRC2012_img_train/n02676566/n02676566_6626.JPEG ILSVR2014/CLS-LOC/ILSVRC2012_bbox_train_v2/n02676566/n02676566_6626.xml
ILSVR2014/CLS-LOC/ILSVRC2012_img_train/n02676566/n02676566_6631.JPEG ILSVR2014/CLS-LOC/ILSVRC2012_bbox_train_v2/n02676566/n02676566_6631.xml
ILSVR2014/CLS-LOC/ILSVRC2012_img_train/n02676566/n02676566_6633.JPEG ILSVR2014/CLS-LOC/ILSVRC2012_bbox_train_v2/n02676566/n02676566_6633.xml
ILSVR2014/CLS-LOC/ILSVRC2012_img_train/n02676566/n02676566_6634.JPEG ILSVR2014/CLS-LOC/ILSVRC2012_bbox_train_v2/n02676566/n02676566_6634.xml
ILSVR2014/CLS-LOC/ILSVRC2012_img_train/n02676566/n02676566_6646.JPEG ILSVR2014/CLS-LOC/ILSVRC2012_bbox_train_v2/n02676566/n02676566_6646.xml
ILSVR2014/CLS-LOC/ILSVRC2012_img_train/n02676566/n02676566_6661.JPEG ILSVR2014/CLS-LOC/ILSVRC2012_bbox_train_v2/n02676566/n02676566_6661.xml
ILSVR2014/CLS-LOC/ILSVRC2012_img_train/n02676566/n02676566_6663.JPEG ILSVR2014/CLS-LOC/ILSVRC2012_bbox_train_v2/n02676566/n02676566_6663.xml
ILSVR2014/CLS-LOC/ILSVRC2012_img_train/n02676566/n02676566_6674.JPEG ILSVR2014/CLS-LOC/ILSVRC2012_bbox_train_v2/n02676566/n02676566_6674.xml
ILSVR2014/CLS-LOC/ILSVRC2012_img_train/n02676566/n02676566_6682.JPEG ILSVR2014/CLS-LOC/ILSVRC2012_bbox_train_v2/n02676566/n02676566_6682.xml
ILSVR2014/CLS-LOC/ILSVRC2012_img_train/n02676566/n02676566_6686.JPEG ILSVR2014/CLS-LOC/ILSVRC2012_bbox_train_v2/n02676566/n02676566_6686.xml
ILSVR2014/CLS-LOC/ILSVRC2012_img_train/n02676566/n02676566_6687.JPEG ILSVR2014/CLS-LOC/ILSVRC2012_bbox_train_v2/n02676566/n02676566_6687.xml
ILSVR2014/CLS-LOC/ILSVRC2012_img_train/n02676566/n02676566_6694.JPEG ILSVR2014/CLS-LOC/ILSVRC2012_bbox_train_v2/n02676566/n02676566_6694.xml
ILSVR2014/CLS-LOC/ILSVRC2012_img_train/n02676566/n02676566_6704.JPEG ILSVR2014/CLS-LOC/ILSVRC2012_bbox_train_v2/n02676566/n02676566_6704.xml
ILSVR2014/CLS-LOC/ILSVRC2012_img_train/n02676566/n02676566_6705.JPEG ILSVR2014/CLS-LOC/ILSVRC2012_bbox_train_v2/n02676566/n02676566_6705.xml
ILSVR2014/CLS-LOC/ILSVRC2012_img_train/n02676566/n02676566_6711.JPEG ILSVR2014/CLS-LOC/ILSVRC2012_bbox_train_v2/n02676566/n02676566_6711.xml
ILSVR2014/CLS-LOC/ILSVRC2012_img_train/n02676566/n02676566_6713.JPEG ILSVR2014/CLS-LOC/ILSVRC2012_bbox_train_v2/n02676566/n02676566_6713.xml
ILSVR2014/CLS-LOC/ILSVRC2012_img_train/n02676566/n02676566_6718.JPEG ILSVR2014/CLS-LOC/ILSVRC2012_bbox_train_v2/n02676566/n02676566_6718.xml
ILSVR2014/CLS-LOC/ILSVRC2012_img_train/n02676566/n02676566_6729.JPEG ILSVR2014/CLS-LOC/ILSVRC2012_bbox_train_v2/n02676566/n02676566_6729.xml
ILSVR2014/CLS-LOC/ILSVRC2012_img_train/n02676566/n02676566_6732.JPEG ILSVR2014/CLS-LOC/ILSVRC2012_bbox_train_v2/n02676566/n02676566_6732.xml
ILSVR2014/CLS-LOC/ILSVRC2012_img_train/n02676566/n02676566_6737.JPEG ILSVR2014/CLS-LOC/ILSVRC2012_bbox_train_v2/n02676566/n02676566_6737.xml
ILSVR2014/CLS-LOC/ILSVRC2012_img_train/n02676566/n02676566_6738.JPEG ILSVR2014/CLS-LOC/ILSVRC2012_bbox_train_v2/n02676566/n02676566_6738.xml
ILSVR2014/CLS-LOC/ILSVRC2012_img_train/n02676566/n02676566_6744.JPEG ILSVR2014/CLS-LOC/ILSVRC2012_bbox_train_v2/n02676566/n02676566_6744.xml
ILSVR2014/CLS-LOC/ILSVRC2012_img_train/n02676566/n02676566_6759.JPEG ILSVR2014/CLS-LOC/ILSVRC2012_bbox_train_v2/n02676566/n02676566_6759.xml
ILSVR2014/CLS-LOC/ILSVRC2012_img_train/n02676566/n02676566_6762.JPEG ILSVR2014/CLS-LOC/ILSVRC2012_bbox_train_v2/n02676566/n02676566_6762.xml
ILSVR2014/CLS-LOC/ILSVRC2012_img_train/n02676566/n02676566_6763.JPEG ILSVR2014/CLS-LOC/ILSVRC2012_bbox_train_v2/n02676566/n02676566_6763.xml
ILSVR2014/CLS-LOC/ILSVRC2012_img_train/n02676566/n02676566_6770.JPEG ILSVR2014/CLS-LOC/ILSVRC2012_bbox_train_v2/n02676566/n02676566_6770.xml
ILSVR2014/CLS-LOC/ILSVRC2012_img_train/n02676566/n02676566_6778.JPEG ILSVR2014/CLS-LOC/ILSVRC2012_bbox_train_v2/n02676566/n02676566_6778.xml
ILSVR2014/CLS-LOC/ILSVRC2012_img_train/n02676566/n02676566_6796.JPEG ILSVR2014/CLS-LOC/ILSVRC2012_bbox_train_v2/n02676566/n02676566_6796.xml
ILSVR2014/CLS-LOC/ILSVRC2012_img_train/n02676566/n02676566_6797.JPEG ILSVR2014/CLS-LOC/ILSVRC2012_bbox_train_v2/n02676566/n02676566_6797.xml
ILSVR2014/CLS-LOC/ILSVRC2012_img_train/n02676566/n02676566_6833.JPEG ILSVR2014/CLS-LOC/ILSVRC2012_bbox_train_v2/n02676566/n02676566_6833.xml
ILSVR2014/CLS-LOC/ILSVRC2012_img_train/n02676566/n02676566_6838.JPEG ILSVR2014/CLS-LOC/ILSVRC2012_bbox_train_v2/n02676566/n02676566_6838.xml
ILSVR2014/CLS-LOC/ILSVRC2012_img_train/n02676566/n02676566_6849.JPEG ILSVR2014/CLS-LOC/ILSVRC2012_bbox_train_v2/n02676566/n02676566_6849.xml
ILSVR2014/CLS-LOC/ILSVRC2012_img_train/n02676566/n02676566_6851.JPEG ILSVR2014/CLS-LOC/ILSVRC2012_bbox_train_v2/n02676566/n02676566_6851.xml
ILSVR2014/CLS-LOC/ILSVRC2012_img_train/n02676566/n02676566_6857.JPEG ILSVR2014/CLS-LOC/ILSVRC2012_bbox_train_v2/n02676566/n02676566_6857.xml
ILSVR2014/CLS-LOC/ILSVRC2012_img_train/n02676566/n02676566_6858.JPEG ILSVR2014/CLS-LOC/ILSVRC2012_bbox_train_v2/n02676566/n02676566_6858.xml
ILSVR2014/CLS-LOC/ILSVRC2012_img_train/n02676566/n02676566_6861.JPEG ILSVR2014/CLS-LOC/ILSVRC2012_bbox_train_v2/n02676566/n02676566_6861.xml
ILSVR2014/CLS-LOC/ILSVRC2012_img_train/n02676566/n02676566_6864.JPEG ILSVR2014/CLS-LOC/ILSVRC2012_bbox_train_v2/n02676566/n02676566_6864.xml
ILSVR2014/CLS-LOC/ILSVRC2012_img_train/n02676566/n02676566_6865.JPEG ILSVR2014/CLS-LOC/ILSVRC2012_bbox_train_v2/n02676566/n02676566_6865.xml
ILSVR2014/CLS-LOC/ILSVRC2012_img_train/n02676566/n02676566_6871.JPEG ILSVR2014/CLS-LOC/ILSVRC2012_bbox_train_v2/n02676566/n02676566_6871.xml
ILSVR2014/CLS-LOC/ILSVRC2012_img_train/n02676566/n02676566_6914.JPEG ILSVR2014/CLS-LOC/ILSVRC2012_bbox_train_v2/n02676566/n02676566_6914.xml
ILSVR2014/CLS-LOC/ILSVRC2012_img_train/n02676566/n02676566_6918.JPEG ILSVR2014/CLS-LOC/ILSVRC2012_bbox_train_v2/n02676566/n02676566_6918.xml
ILSVR2014/CLS-LOC/ILSVRC2012_img_train/n02676566/n02676566_6919.JPEG ILSVR2014/CLS-LOC/ILSVRC2012_bbox_train_v2/n02676566/n02676566_6919.xml
ILSVR2014/CLS-LOC/ILSVRC2012_img_train/n02676566/n02676566_6922.JPEG ILSVR2014/CLS-LOC/ILSVRC2012_bbox_train_v2/n02676566/n02676566_6922.xml
ILSVR2014/CLS-LOC/ILSVRC2012_img_train/n02676566/n02676566_6928.JPEG ILSVR2014/CLS-LOC/ILSVRC2012_bbox_train_v2/n02676566/n02676566_6928.xml
ILSVR2014/CLS-LOC/ILSVRC2012_img_train/n02676566/n02676566_6929.JPEG ILSVR2014/CLS-LOC/ILSVRC2012_bbox_train_v2/n02676566/n02676566_6929.xml
ILSVR2014/CLS-LOC/ILSVRC2012_img_train/n02676566/n02676566_6931.JPEG ILSVR2014/CLS-LOC/ILSVRC2012_bbox_train_v2/n02676566/n02676566_6931.xml
ILSVR2014/CLS-LOC/ILSVRC2012_img_train/n02676566/n02676566_6948.JPEG ILSVR2014/CLS-LOC/ILSVRC2012_bbox_train_v2/n02676566/n02676566_6948.xml
ILSVR2014/CLS-LOC/ILSVRC2012_img_train/n02676566/n02676566_6949.JPEG ILSVR2014/CLS-LOC/ILSVRC2012_bbox_train_v2/n02676566/n02676566_6949.xml
ILSVR2014/CLS-LOC/ILSVRC2012_img_train/n02676566/n02676566_6960.JPEG ILSVR2014/CLS-LOC/ILSVRC2012_bbox_train_v2/n02676566/n02676566_6960.xml
ILSVR2014/CLS-LOC/ILSVRC2012_img_train/n02676566/n02676566_6966.JPEG ILSVR2014/CLS-LOC/ILSVRC2012_bbox_train_v2/n02676566/n02676566_6966.xml
ILSVR2014/CLS-LOC/ILSVRC2012_img_train/n02676566/n02676566_6971.JPEG ILSVR2014/CLS-LOC/ILSVRC2012_bbox_train_v2/n02676566/n02676566_6971.xml
ILSVR2014/CLS-LOC/ILSVRC2012_img_train/n02676566/n02676566_6977.JPEG ILSVR2014/CLS-LOC/ILSVRC2012_bbox_train_v2/n02676566/n02676566_6977.xml
ILSVR2014/CLS-LOC/ILSVRC2012_img_train/n02676566/n02676566_6980.JPEG ILSVR2014/CLS-LOC/ILSVRC2012_bbox_train_v2/n02676566/n02676566_6980.xml
ILSVR2014/CLS-LOC/ILSVRC2012_img_train/n02676566/n02676566_6981.JPEG ILSVR2014/CLS-LOC/ILSVRC2012_bbox_train_v2/n02676566/n02676566_6981.xml
ILSVR2014/CLS-LOC/ILSVRC2012_img_train/n02676566/n02676566_6982.JPEG ILSVR2014/CLS-LOC/ILSVRC2012_bbox_train_v2/n02676566/n02676566_6982.xml
ILSVR2014/CLS-LOC/ILSVRC2012_img_train/n02676566/n02676566_6997.JPEG ILSVR2014/CLS-LOC/ILSVRC2012_bbox_train_v2/n02676566/n02676566_6997.xml
ILSVR2014/CLS-LOC/ILSVRC2012_img_train/n02676566/n02676566_7018.JPEG ILSVR2014/CLS-LOC/ILSVRC2012_bbox_train_v2/n02676566/n02676566_7018.xml
ILSVR2014/CLS-LOC/ILSVRC2012_img_train/n02676566/n02676566_7024.JPEG ILSVR2014/CLS-LOC/ILSVRC2012_bbox_train_v2/n02676566/n02676566_7024.xml
ILSVR2014/CLS-LOC/ILSVRC2012_img_train/n02676566/n02676566_7026.JPEG ILSVR2014/CLS-LOC/ILSVRC2012_bbox_train_v2/n02676566/n02676566_7026.xml
ILSVR2014/CLS-LOC/ILSVRC2012_img_train/n02676566/n02676566_7040.JPEG ILSVR2014/CLS-LOC/ILSVRC2012_bbox_train_v2/n02676566/n02676566_7040.xml
ILSVR2014/CLS-LOC/ILSVRC2012_img_train/n02676566/n02676566_7042.JPEG ILSVR2014/CLS-LOC/ILSVRC2012_bbox_train_v2/n02676566/n02676566_7042.xml
ILSVR2014/CLS-LOC/ILSVRC2012_img_train/n02676566/n02676566_7048.JPEG ILSVR2014/CLS-LOC/ILSVRC2012_bbox_train_v2/n02676566/n02676566_7048.xml
ILSVR2014/CLS-LOC/ILSVRC2012_img_train/n02676566/n02676566_7063.JPEG ILSVR2014/CLS-LOC/ILSVRC2012_bbox_train_v2/n02676566/n02676566_7063.xml
ILSVR2014/CLS-LOC/ILSVRC2012_img_train/n02676566/n02676566_7077.JPEG ILSVR2014/CLS-LOC/ILSVRC2012_bbox_train_v2/n02676566/n02676566_7077.xml
ILSVR2014/CLS-LOC/ILSVRC2012_img_train/n02676566/n02676566_7083.JPEG ILSVR2014/CLS-LOC/ILSVRC2012_bbox_train_v2/n02676566/n02676566_7083.xml
ILSVR2014/CLS-LOC/ILSVRC2012_img_train/n02676566/n02676566_7089.JPEG ILSVR2014/CLS-LOC/ILSVRC2012_bbox_train_v2/n02676566/n02676566_7089.xml
ILSVR2014/CLS-LOC/ILSVRC2012_img_train/n02676566/n02676566_7100.JPEG ILSVR2014/CLS-LOC/ILSVRC2012_bbox_train_v2/n02676566/n02676566_7100.xml
ILSVR2014/CLS-LOC/ILSVRC2012_img_train/n02676566/n02676566_7115.JPEG ILSVR2014/CLS-LOC/ILSVRC2012_bbox_train_v2/n02676566/n02676566_7115.xml
ILSVR2014/CLS-LOC/ILSVRC2012_img_train/n02676566/n02676566_7155.JPEG ILSVR2014/CLS-LOC/ILSVRC2012_bbox_train_v2/n02676566/n02676566_7155.xml
ILSVR2014/CLS-LOC/ILSVRC2012_img_train/n02676566/n02676566_7160.JPEG ILSVR2014/CLS-LOC/ILSVRC2012_bbox_train_v2/n02676566/n02676566_7160.xml
ILSVR2014/CLS-LOC/ILSVRC2012_img_train/n02676566/n02676566_7166.JPEG ILSVR2014/CLS-LOC/ILSVRC2012_bbox_train_v2/n02676566/n02676566_7166.xml
ILSVR2014/CLS-LOC/ILSVRC2012_img_train/n02676566/n02676566_7170.JPEG ILSVR2014/CLS-LOC/ILSVRC2012_bbox_train_v2/n02676566/n02676566_7170.xml
ILSVR2014/CLS-LOC/ILSVRC2012_img_train/n02676566/n02676566_7176.JPEG ILSVR2014/CLS-LOC/ILSVRC2012_bbox_train_v2/n02676566/n02676566_7176.xml
ILSVR2014/CLS-LOC/ILSVRC2012_img_train/n02676566/n02676566_7202.JPEG ILSVR2014/CLS-LOC/ILSVRC2012_bbox_train_v2/n02676566/n02676566_7202.xml
ILSVR2014/CLS-LOC/ILSVRC2012_img_train/n02676566/n02676566_7226.JPEG ILSVR2014/CLS-LOC/ILSVRC2012_bbox_train_v2/n02676566/n02676566_7226.xml
ILSVR2014/CLS-LOC/ILSVRC2012_img_train/n02676566/n02676566_7234.JPEG ILSVR2014/CLS-LOC/ILSVRC2012_bbox_train_v2/n02676566/n02676566_7234.xml
ILSVR2014/CLS-LOC/ILSVRC2012_img_train/n02676566/n02676566_7250.JPEG ILSVR2014/CLS-LOC/ILSVRC2012_bbox_train_v2/n02676566/n02676566_7250.xml
ILSVR2014/CLS-LOC/ILSVRC2012_img_train/n02676566/n02676566_7309.JPEG ILSVR2014/CLS-LOC/ILSVRC2012_bbox_train_v2/n02676566/n02676566_7309.xml
ILSVR2014/CLS-LOC/ILSVRC2012_img_train/n02676566/n02676566_7317.JPEG ILSVR2014/CLS-LOC/ILSVRC2012_bbox_train_v2/n02676566/n02676566_7317.xml
ILSVR2014/CLS-LOC/ILSVRC2012_img_train/n02676566/n02676566_7330.JPEG ILSVR2014/CLS-LOC/ILSVRC2012_bbox_train_v2/n02676566/n02676566_7330.xml
ILSVR2014/CLS-LOC/ILSVRC2012_img_train/n02676566/n02676566_7392.JPEG ILSVR2014/CLS-LOC/ILSVRC2012_bbox_train_v2/n02676566/n02676566_7392.xml
ILSVR2014/CLS-LOC/ILSVRC2012_img_train/n02676566/n02676566_7408.JPEG ILSVR2014/CLS-LOC/ILSVRC2012_bbox_train_v2/n02676566/n02676566_7408.xml
ILSVR2014/CLS-LOC/ILSVRC2012_img_train/n02676566/n02676566_7435.JPEG ILSVR2014/CLS-LOC/ILSVRC2012_bbox_train_v2/n02676566/n02676566_7435.xml
ILSVR2014/CLS-LOC/ILSVRC2012_img_train/n02676566/n02676566_7477.JPEG ILSVR2014/CLS-LOC/ILSVRC2012_bbox_train_v2/n02676566/n02676566_7477.xml
ILSVR2014/CLS-LOC/ILSVRC2012_img_train/n02676566/n02676566_7483.JPEG ILSVR2014/CLS-LOC/ILSVRC2012_bbox_train_v2/n02676566/n02676566_7483.xml
ILSVR2014/CLS-LOC/ILSVRC2012_img_train/n02676566/n02676566_7487.JPEG ILSVR2014/CLS-LOC/ILSVRC2012_bbox_train_v2/n02676566/n02676566_7487.xml
ILSVR2014/CLS-LOC/ILSVRC2012_img_train/n02676566/n02676566_7602.JPEG ILSVR2014/CLS-LOC/ILSVRC2012_bbox_train_v2/n02676566/n02676566_7602.xml
ILSVR2014/CLS-LOC/ILSVRC2012_img_train/n02676566/n02676566_7718.JPEG ILSVR2014/CLS-LOC/ILSVRC2012_bbox_train_v2/n02676566/n02676566_7718.xml
ILSVR2014/CLS-LOC/ILSVRC2012_img_train/n02676566/n02676566_7721.JPEG ILSVR2014/CLS-LOC/ILSVRC2012_bbox_train_v2/n02676566/n02676566_7721.xml
ILSVR2014/CLS-LOC/ILSVRC2012_img_train/n02676566/n02676566_7724.JPEG ILSVR2014/CLS-LOC/ILSVRC2012_bbox_train_v2/n02676566/n02676566_7724.xml
ILSVR2014/CLS-LOC/ILSVRC2012_img_train/n02676566/n02676566_7770.JPEG ILSVR2014/CLS-LOC/ILSVRC2012_bbox_train_v2/n02676566/n02676566_7770.xml
ILSVR2014/CLS-LOC/ILSVRC2012_img_train/n02676566/n02676566_77.JPEG ILSVR2014/CLS-LOC/ILSVRC2012_bbox_train_v2/n02676566/n02676566_77.xml
ILSVR2014/CLS-LOC/ILSVRC2012_img_train/n02676566/n02676566_7830.JPEG ILSVR2014/CLS-LOC/ILSVRC2012_bbox_train_v2/n02676566/n02676566_7830.xml
ILSVR2014/CLS-LOC/ILSVRC2012_img_train/n02676566/n02676566_7837.JPEG ILSVR2014/CLS-LOC/ILSVRC2012_bbox_train_v2/n02676566/n02676566_7837.xml
ILSVR2014/CLS-LOC/ILSVRC2012_img_train/n02676566/n02676566_7844.JPEG ILSVR2014/CLS-LOC/ILSVRC2012_bbox_train_v2/n02676566/n02676566_7844.xml
ILSVR2014/CLS-LOC/ILSVRC2012_img_train/n02676566/n02676566_7860.JPEG ILSVR2014/CLS-LOC/ILSVRC2012_bbox_train_v2/n02676566/n02676566_7860.xml
ILSVR2014/CLS-LOC/ILSVRC2012_img_train/n02676566/n02676566_787.JPEG ILSVR2014/CLS-LOC/ILSVRC2012_bbox_train_v2/n02676566/n02676566_787.xml
ILSVR2014/CLS-LOC/ILSVRC2012_img_train/n02676566/n02676566_7927.JPEG ILSVR2014/CLS-LOC/ILSVRC2012_bbox_train_v2/n02676566/n02676566_7927.xml
ILSVR2014/CLS-LOC/ILSVRC2012_img_train/n02676566/n02676566_7930.JPEG ILSVR2014/CLS-LOC/ILSVRC2012_bbox_train_v2/n02676566/n02676566_7930.xml
ILSVR2014/CLS-LOC/ILSVRC2012_img_train/n02676566/n02676566_7985.JPEG ILSVR2014/CLS-LOC/ILSVRC2012_bbox_train_v2/n02676566/n02676566_7985.xml
ILSVR2014/CLS-LOC/ILSVRC2012_img_train/n02676566/n02676566_8001.JPEG ILSVR2014/CLS-LOC/ILSVRC2012_bbox_train_v2/n02676566/n02676566_8001.xml
ILSVR2014/CLS-LOC/ILSVRC2012_img_train/n02676566/n02676566_8039.JPEG ILSVR2014/CLS-LOC/ILSVRC2012_bbox_train_v2/n02676566/n02676566_8039.xml
ILSVR2014/CLS-LOC/ILSVRC2012_img_train/n02676566/n02676566_8047.JPEG ILSVR2014/CLS-LOC/ILSVRC2012_bbox_train_v2/n02676566/n02676566_8047.xml
ILSVR2014/CLS-LOC/ILSVRC2012_img_train/n02676566/n02676566_8059.JPEG ILSVR2014/CLS-LOC/ILSVRC2012_bbox_train_v2/n02676566/n02676566_8059.xml
ILSVR2014/CLS-LOC/ILSVRC2012_img_train/n02676566/n02676566_8064.JPEG ILSVR2014/CLS-LOC/ILSVRC2012_bbox_train_v2/n02676566/n02676566_8064.xml
ILSVR2014/CLS-LOC/ILSVRC2012_img_train/n02676566/n02676566_8069.JPEG ILSVR2014/CLS-LOC/ILSVRC2012_bbox_train_v2/n02676566/n02676566_8069.xml
ILSVR2014/CLS-LOC/ILSVRC2012_img_train/n02676566/n02676566_8073.JPEG ILSVR2014/CLS-LOC/ILSVRC2012_bbox_train_v2/n02676566/n02676566_8073.xml
ILSVR2014/CLS-LOC/ILSVRC2012_img_train/n02676566/n02676566_8075.JPEG ILSVR2014/CLS-LOC/ILSVRC2012_bbox_train_v2/n02676566/n02676566_8075.xml
ILSVR2014/CLS-LOC/ILSVRC2012_img_train/n02676566/n02676566_8079.JPEG ILSVR2014/CLS-LOC/ILSVRC2012_bbox_train_v2/n02676566/n02676566_8079.xml
ILSVR2014/CLS-LOC/ILSVRC2012_img_train/n02676566/n02676566_8081.JPEG ILSVR2014/CLS-LOC/ILSVRC2012_bbox_train_v2/n02676566/n02676566_8081.xml
ILSVR2014/CLS-LOC/ILSVRC2012_img_train/n02676566/n02676566_8083.JPEG ILSVR2014/CLS-LOC/ILSVRC2012_bbox_train_v2/n02676566/n02676566_8083.xml
ILSVR2014/CLS-LOC/ILSVRC2012_img_train/n02676566/n02676566_8096.JPEG ILSVR2014/CLS-LOC/ILSVRC2012_bbox_train_v2/n02676566/n02676566_8096.xml
ILSVR2014/CLS-LOC/ILSVRC2012_img_train/n02676566/n02676566_8097.JPEG ILSVR2014/CLS-LOC/ILSVRC2012_bbox_train_v2/n02676566/n02676566_8097.xml
ILSVR2014/CLS-LOC/ILSVRC2012_img_train/n02676566/n02676566_8111.JPEG ILSVR2014/CLS-LOC/ILSVRC2012_bbox_train_v2/n02676566/n02676566_8111.xml
ILSVR2014/CLS-LOC/ILSVRC2012_img_train/n02676566/n02676566_8133.JPEG ILSVR2014/CLS-LOC/ILSVRC2012_bbox_train_v2/n02676566/n02676566_8133.xml
ILSVR2014/CLS-LOC/ILSVRC2012_img_train/n02676566/n02676566_8148.JPEG ILSVR2014/CLS-LOC/ILSVRC2012_bbox_train_v2/n02676566/n02676566_8148.xml
ILSVR2014/CLS-LOC/ILSVRC2012_img_train/n02676566/n02676566_814.JPEG ILSVR2014/CLS-LOC/ILSVRC2012_bbox_train_v2/n02676566/n02676566_814.xml
ILSVR2014/CLS-LOC/ILSVRC2012_img_train/n02676566/n02676566_8162.JPEG ILSVR2014/CLS-LOC/ILSVRC2012_bbox_train_v2/n02676566/n02676566_8162.xml
ILSVR2014/CLS-LOC/ILSVRC2012_img_train/n02676566/n02676566_8174.JPEG ILSVR2014/CLS-LOC/ILSVRC2012_bbox_train_v2/n02676566/n02676566_8174.xml
ILSVR2014/CLS-LOC/ILSVRC2012_img_train/n02676566/n02676566_8192.JPEG ILSVR2014/CLS-LOC/ILSVRC2012_bbox_train_v2/n02676566/n02676566_8192.xml
ILSVR2014/CLS-LOC/ILSVRC2012_img_train/n02676566/n02676566_8195.JPEG ILSVR2014/CLS-LOC/ILSVRC2012_bbox_train_v2/n02676566/n02676566_8195.xml
ILSVR2014/CLS-LOC/ILSVRC2012_img_train/n02676566/n02676566_8197.JPEG ILSVR2014/CLS-LOC/ILSVRC2012_bbox_train_v2/n02676566/n02676566_8197.xml
ILSVR2014/CLS-LOC/ILSVRC2012_img_train/n02676566/n02676566_8203.JPEG ILSVR2014/CLS-LOC/ILSVRC2012_bbox_train_v2/n02676566/n02676566_8203.xml
ILSVR2014/CLS-LOC/ILSVRC2012_img_train/n02676566/n02676566_8214.JPEG ILSVR2014/CLS-LOC/ILSVRC2012_bbox_train_v2/n02676566/n02676566_8214.xml
ILSVR2014/CLS-LOC/ILSVRC2012_img_train/n02676566/n02676566_8229.JPEG ILSVR2014/CLS-LOC/ILSVRC2012_bbox_train_v2/n02676566/n02676566_8229.xml
ILSVR2014/CLS-LOC/ILSVRC2012_img_train/n02676566/n02676566_8233.JPEG ILSVR2014/CLS-LOC/ILSVRC2012_bbox_train_v2/n02676566/n02676566_8233.xml
ILSVR2014/CLS-LOC/ILSVRC2012_img_train/n02676566/n02676566_8268.JPEG ILSVR2014/CLS-LOC/ILSVRC2012_bbox_train_v2/n02676566/n02676566_8268.xml
ILSVR2014/CLS-LOC/ILSVRC2012_img_train/n02676566/n02676566_8270.JPEG ILSVR2014/CLS-LOC/ILSVRC2012_bbox_train_v2/n02676566/n02676566_8270.xml
ILSVR2014/CLS-LOC/ILSVRC2012_img_train/n02676566/n02676566_8275.JPEG ILSVR2014/CLS-LOC/ILSVRC2012_bbox_train_v2/n02676566/n02676566_8275.xml
ILSVR2014/CLS-LOC/ILSVRC2012_img_train/n02676566/n02676566_8282.JPEG ILSVR2014/CLS-LOC/ILSVRC2012_bbox_train_v2/n02676566/n02676566_8282.xml
ILSVR2014/CLS-LOC/ILSVRC2012_img_train/n02676566/n02676566_8309.JPEG ILSVR2014/CLS-LOC/ILSVRC2012_bbox_train_v2/n02676566/n02676566_8309.xml
ILSVR2014/CLS-LOC/ILSVRC2012_img_train/n02676566/n02676566_8310.JPEG ILSVR2014/CLS-LOC/ILSVRC2012_bbox_train_v2/n02676566/n02676566_8310.xml
ILSVR2014/CLS-LOC/ILSVRC2012_img_train/n02676566/n02676566_8335.JPEG ILSVR2014/CLS-LOC/ILSVRC2012_bbox_train_v2/n02676566/n02676566_8335.xml
ILSVR2014/CLS-LOC/ILSVRC2012_img_train/n02676566/n02676566_8341.JPEG ILSVR2014/CLS-LOC/ILSVRC2012_bbox_train_v2/n02676566/n02676566_8341.xml
ILSVR2014/CLS-LOC/ILSVRC2012_img_train/n02676566/n02676566_8376.JPEG ILSVR2014/CLS-LOC/ILSVRC2012_bbox_train_v2/n02676566/n02676566_8376.xml
ILSVR2014/CLS-LOC/ILSVRC2012_img_train/n02676566/n02676566_8389.JPEG ILSVR2014/CLS-LOC/ILSVRC2012_bbox_train_v2/n02676566/n02676566_8389.xml
ILSVR2014/CLS-LOC/ILSVRC2012_img_train/n02676566/n02676566_839.JPEG ILSVR2014/CLS-LOC/ILSVRC2012_bbox_train_v2/n02676566/n02676566_839.xml
ILSVR2014/CLS-LOC/ILSVRC2012_img_train/n02676566/n02676566_8412.JPEG ILSVR2014/CLS-LOC/ILSVRC2012_bbox_train_v2/n02676566/n02676566_8412.xml
ILSVR2014/CLS-LOC/ILSVRC2012_img_train/n02676566/n02676566_8423.JPEG ILSVR2014/CLS-LOC/ILSVRC2012_bbox_train_v2/n02676566/n02676566_8423.xml
ILSVR2014/CLS-LOC/ILSVRC2012_img_train/n02676566/n02676566_8473.JPEG ILSVR2014/CLS-LOC/ILSVRC2012_bbox_train_v2/n02676566/n02676566_8473.xml
ILSVR2014/CLS-LOC/ILSVRC2012_img_train/n02676566/n02676566_8474.JPEG ILSVR2014/CLS-LOC/ILSVRC2012_bbox_train_v2/n02676566/n02676566_8474.xml
ILSVR2014/CLS-LOC/ILSVRC2012_img_train/n02676566/n02676566_8477.JPEG ILSVR2014/CLS-LOC/ILSVRC2012_bbox_train_v2/n02676566/n02676566_8477.xml
ILSVR2014/CLS-LOC/ILSVRC2012_img_train/n02676566/n02676566_8525.JPEG ILSVR2014/CLS-LOC/ILSVRC2012_bbox_train_v2/n02676566/n02676566_8525.xml
ILSVR2014/CLS-LOC/ILSVRC2012_img_train/n02676566/n02676566_8531.JPEG ILSVR2014/CLS-LOC/ILSVRC2012_bbox_train_v2/n02676566/n02676566_8531.xml
ILSVR2014/CLS-LOC/ILSVRC2012_img_train/n02676566/n02676566_8571.JPEG ILSVR2014/CLS-LOC/ILSVRC2012_bbox_train_v2/n02676566/n02676566_8571.xml
ILSVR2014/CLS-LOC/ILSVRC2012_img_train/n02676566/n02676566_8588.JPEG ILSVR2014/CLS-LOC/ILSVRC2012_bbox_train_v2/n02676566/n02676566_8588.xml
ILSVR2014/CLS-LOC/ILSVRC2012_img_train/n02676566/n02676566_8618.JPEG ILSVR2014/CLS-LOC/ILSVRC2012_bbox_train_v2/n02676566/n02676566_8618.xml
ILSVR2014/CLS-LOC/ILSVRC2012_img_train/n02676566/n02676566_8673.JPEG ILSVR2014/CLS-LOC/ILSVRC2012_bbox_train_v2/n02676566/n02676566_8673.xml
ILSVR2014/CLS-LOC/ILSVRC2012_img_train/n02676566/n02676566_868.JPEG ILSVR2014/CLS-LOC/ILSVRC2012_bbox_train_v2/n02676566/n02676566_868.xml
ILSVR2014/CLS-LOC/ILSVRC2012_img_train/n02676566/n02676566_8694.JPEG ILSVR2014/CLS-LOC/ILSVRC2012_bbox_train_v2/n02676566/n02676566_8694.xml
ILSVR2014/CLS-LOC/ILSVRC2012_img_train/n02676566/n02676566_8706.JPEG ILSVR2014/CLS-LOC/ILSVRC2012_bbox_train_v2/n02676566/n02676566_8706.xml
ILSVR2014/CLS-LOC/ILSVRC2012_img_train/n02676566/n02676566_8719.JPEG ILSVR2014/CLS-LOC/ILSVRC2012_bbox_train_v2/n02676566/n02676566_8719.xml
ILSVR2014/CLS-LOC/ILSVRC2012_img_train/n02676566/n02676566_8757.JPEG ILSVR2014/CLS-LOC/ILSVRC2012_bbox_train_v2/n02676566/n02676566_8757.xml
ILSVR2014/CLS-LOC/ILSVRC2012_img_train/n02676566/n02676566_8758.JPEG ILSVR2014/CLS-LOC/ILSVRC2012_bbox_train_v2/n02676566/n02676566_8758.xml
ILSVR2014/CLS-LOC/ILSVRC2012_img_train/n02676566/n02676566_8768.JPEG ILSVR2014/CLS-LOC/ILSVRC2012_bbox_train_v2/n02676566/n02676566_8768.xml
ILSVR2014/CLS-LOC/ILSVRC2012_img_train/n02676566/n02676566_8773.JPEG ILSVR2014/CLS-LOC/ILSVRC2012_bbox_train_v2/n02676566/n02676566_8773.xml
ILSVR2014/CLS-LOC/ILSVRC2012_img_train/n02676566/n02676566_8775.JPEG ILSVR2014/CLS-LOC/ILSVRC2012_bbox_train_v2/n02676566/n02676566_8775.xml
ILSVR2014/CLS-LOC/ILSVRC2012_img_train/n02676566/n02676566_8779.JPEG ILSVR2014/CLS-LOC/ILSVRC2012_bbox_train_v2/n02676566/n02676566_8779.xml
ILSVR2014/CLS-LOC/ILSVRC2012_img_train/n02676566/n02676566_8808.JPEG ILSVR2014/CLS-LOC/ILSVRC2012_bbox_train_v2/n02676566/n02676566_8808.xml
ILSVR2014/CLS-LOC/ILSVRC2012_img_train/n02676566/n02676566_8809.JPEG ILSVR2014/CLS-LOC/ILSVRC2012_bbox_train_v2/n02676566/n02676566_8809.xml
ILSVR2014/CLS-LOC/ILSVRC2012_img_train/n02676566/n02676566_8820.JPEG ILSVR2014/CLS-LOC/ILSVRC2012_bbox_train_v2/n02676566/n02676566_8820.xml
ILSVR2014/CLS-LOC/ILSVRC2012_img_train/n02676566/n02676566_8828.JPEG ILSVR2014/CLS-LOC/ILSVRC2012_bbox_train_v2/n02676566/n02676566_8828.xml
ILSVR2014/CLS-LOC/ILSVRC2012_img_train/n02676566/n02676566_8829.JPEG ILSVR2014/CLS-LOC/ILSVRC2012_bbox_train_v2/n02676566/n02676566_8829.xml
ILSVR2014/CLS-LOC/ILSVRC2012_img_train/n02676566/n02676566_8842.JPEG ILSVR2014/CLS-LOC/ILSVRC2012_bbox_train_v2/n02676566/n02676566_8842.xml
ILSVR2014/CLS-LOC/ILSVRC2012_img_train/n02676566/n02676566_8849.JPEG ILSVR2014/CLS-LOC/ILSVRC2012_bbox_train_v2/n02676566/n02676566_8849.xml
ILSVR2014/CLS-LOC/ILSVRC2012_img_train/n02676566/n02676566_8851.JPEG ILSVR2014/CLS-LOC/ILSVRC2012_bbox_train_v2/n02676566/n02676566_8851.xml
ILSVR2014/CLS-LOC/ILSVRC2012_img_train/n02676566/n02676566_8859.JPEG ILSVR2014/CLS-LOC/ILSVRC2012_bbox_train_v2/n02676566/n02676566_8859.xml
ILSVR2014/CLS-LOC/ILSVRC2012_img_train/n02676566/n02676566_8861.JPEG ILSVR2014/CLS-LOC/ILSVRC2012_bbox_train_v2/n02676566/n02676566_8861.xml
ILSVR2014/CLS-LOC/ILSVRC2012_img_train/n02676566/n02676566_8862.JPEG ILSVR2014/CLS-LOC/ILSVRC2012_bbox_train_v2/n02676566/n02676566_8862.xml
ILSVR2014/CLS-LOC/ILSVRC2012_img_train/n02676566/n02676566_8863.JPEG ILSVR2014/CLS-LOC/ILSVRC2012_bbox_train_v2/n02676566/n02676566_8863.xml
ILSVR2014/CLS-LOC/ILSVRC2012_img_train/n02676566/n02676566_8868.JPEG ILSVR2014/CLS-LOC/ILSVRC2012_bbox_train_v2/n02676566/n02676566_8868.xml
ILSVR2014/CLS-LOC/ILSVRC2012_img_train/n02676566/n02676566_8871.JPEG ILSVR2014/CLS-LOC/ILSVRC2012_bbox_train_v2/n02676566/n02676566_8871.xml
ILSVR2014/CLS-LOC/ILSVRC2012_img_train/n02676566/n02676566_8872.JPEG ILSVR2014/CLS-LOC/ILSVRC2012_bbox_train_v2/n02676566/n02676566_8872.xml
ILSVR2014/CLS-LOC/ILSVRC2012_img_train/n02676566/n02676566_8882.JPEG ILSVR2014/CLS-LOC/ILSVRC2012_bbox_train_v2/n02676566/n02676566_8882.xml
ILSVR2014/CLS-LOC/ILSVRC2012_img_train/n02676566/n02676566_8888.JPEG ILSVR2014/CLS-LOC/ILSVRC2012_bbox_train_v2/n02676566/n02676566_8888.xml
ILSVR2014/CLS-LOC/ILSVRC2012_img_train/n02676566/n02676566_8899.JPEG ILSVR2014/CLS-LOC/ILSVRC2012_bbox_train_v2/n02676566/n02676566_8899.xml
ILSVR2014/CLS-LOC/ILSVRC2012_img_train/n02676566/n02676566_8901.JPEG ILSVR2014/CLS-LOC/ILSVRC2012_bbox_train_v2/n02676566/n02676566_8901.xml
ILSVR2014/CLS-LOC/ILSVRC2012_img_train/n02676566/n02676566_8907.JPEG ILSVR2014/CLS-LOC/ILSVRC2012_bbox_train_v2/n02676566/n02676566_8907.xml
ILSVR2014/CLS-LOC/ILSVRC2012_img_train/n02676566/n02676566_8910.JPEG ILSVR2014/CLS-LOC/ILSVRC2012_bbox_train_v2/n02676566/n02676566_8910.xml
ILSVR2014/CLS-LOC/ILSVRC2012_img_train/n02676566/n02676566_8914.JPEG ILSVR2014/CLS-LOC/ILSVRC2012_bbox_train_v2/n02676566/n02676566_8914.xml
ILSVR2014/CLS-LOC/ILSVRC2012_img_train/n02676566/n02676566_8916.JPEG ILSVR2014/CLS-LOC/ILSVRC2012_bbox_train_v2/n02676566/n02676566_8916.xml
ILSVR2014/CLS-LOC/ILSVRC2012_img_train/n02676566/n02676566_8924.JPEG ILSVR2014/CLS-LOC/ILSVRC2012_bbox_train_v2/n02676566/n02676566_8924.xml
ILSVR2014/CLS-LOC/ILSVRC2012_img_train/n02676566/n02676566_8925.JPEG ILSVR2014/CLS-LOC/ILSVRC2012_bbox_train_v2/n02676566/n02676566_8925.xml
ILSVR2014/CLS-LOC/ILSVRC2012_img_train/n02676566/n02676566_8971.JPEG ILSVR2014/CLS-LOC/ILSVRC2012_bbox_train_v2/n02676566/n02676566_8971.xml
ILSVR2014/CLS-LOC/ILSVRC2012_img_train/n02676566/n02676566_8997.JPEG ILSVR2014/CLS-LOC/ILSVRC2012_bbox_train_v2/n02676566/n02676566_8997.xml
ILSVR2014/CLS-LOC/ILSVRC2012_img_train/n02676566/n02676566_89.JPEG ILSVR2014/CLS-LOC/ILSVRC2012_bbox_train_v2/n02676566/n02676566_89.xml
ILSVR2014/CLS-LOC/ILSVRC2012_img_train/n02676566/n02676566_9001.JPEG ILSVR2014/CLS-LOC/ILSVRC2012_bbox_train_v2/n02676566/n02676566_9001.xml
ILSVR2014/CLS-LOC/ILSVRC2012_img_train/n02676566/n02676566_9016.JPEG ILSVR2014/CLS-LOC/ILSVRC2012_bbox_train_v2/n02676566/n02676566_9016.xml
ILSVR2014/CLS-LOC/ILSVRC2012_img_train/n02676566/n02676566_9028.JPEG ILSVR2014/CLS-LOC/ILSVRC2012_bbox_train_v2/n02676566/n02676566_9028.xml
ILSVR2014/CLS-LOC/ILSVRC2012_img_train/n02676566/n02676566_9044.JPEG ILSVR2014/CLS-LOC/ILSVRC2012_bbox_train_v2/n02676566/n02676566_9044.xml
ILSVR2014/CLS-LOC/ILSVRC2012_img_train/n02676566/n02676566_9119.JPEG ILSVR2014/CLS-LOC/ILSVRC2012_bbox_train_v2/n02676566/n02676566_9119.xml
ILSVR2014/CLS-LOC/ILSVRC2012_img_train/n02676566/n02676566_9126.JPEG ILSVR2014/CLS-LOC/ILSVRC2012_bbox_train_v2/n02676566/n02676566_9126.xml
ILSVR2014/CLS-LOC/ILSVRC2012_img_train/n02676566/n02676566_9127.JPEG ILSVR2014/CLS-LOC/ILSVRC2012_bbox_train_v2/n02676566/n02676566_9127.xml
ILSVR2014/CLS-LOC/ILSVRC2012_img_train/n02676566/n02676566_9243.JPEG ILSVR2014/CLS-LOC/ILSVRC2012_bbox_train_v2/n02676566/n02676566_9243.xml
ILSVR2014/CLS-LOC/ILSVRC2012_img_train/n02676566/n02676566_9254.JPEG ILSVR2014/CLS-LOC/ILSVRC2012_bbox_train_v2/n02676566/n02676566_9254.xml
ILSVR2014/CLS-LOC/ILSVRC2012_img_train/n02676566/n02676566_9277.JPEG ILSVR2014/CLS-LOC/ILSVRC2012_bbox_train_v2/n02676566/n02676566_9277.xml
ILSVR2014/CLS-LOC/ILSVRC2012_img_train/n02676566/n02676566_9294.JPEG ILSVR2014/CLS-LOC/ILSVRC2012_bbox_train_v2/n02676566/n02676566_9294.xml
ILSVR2014/CLS-LOC/ILSVRC2012_img_train/n02676566/n02676566_9296.JPEG ILSVR2014/CLS-LOC/ILSVRC2012_bbox_train_v2/n02676566/n02676566_9296.xml
ILSVR2014/CLS-LOC/ILSVRC2012_img_train/n02676566/n02676566_9345.JPEG ILSVR2014/CLS-LOC/ILSVRC2012_bbox_train_v2/n02676566/n02676566_9345.xml
ILSVR2014/CLS-LOC/ILSVRC2012_img_train/n02676566/n02676566_9403.JPEG ILSVR2014/CLS-LOC/ILSVRC2012_bbox_train_v2/n02676566/n02676566_9403.xml
ILSVR2014/CLS-LOC/ILSVRC2012_img_train/n02676566/n02676566_9407.JPEG ILSVR2014/CLS-LOC/ILSVRC2012_bbox_train_v2/n02676566/n02676566_9407.xml
ILSVR2014/CLS-LOC/ILSVRC2012_img_train/n02676566/n02676566_9413.JPEG ILSVR2014/CLS-LOC/ILSVRC2012_bbox_train_v2/n02676566/n02676566_9413.xml
ILSVR2014/CLS-LOC/ILSVRC2012_img_train/n02676566/n02676566_9421.JPEG ILSVR2014/CLS-LOC/ILSVRC2012_bbox_train_v2/n02676566/n02676566_9421.xml
ILSVR2014/CLS-LOC/ILSVRC2012_img_train/n02676566/n02676566_9422.JPEG ILSVR2014/CLS-LOC/ILSVRC2012_bbox_train_v2/n02676566/n02676566_9422.xml
ILSVR2014/CLS-LOC/ILSVRC2012_img_train/n02676566/n02676566_9447.JPEG ILSVR2014/CLS-LOC/ILSVRC2012_bbox_train_v2/n02676566/n02676566_9447.xml
ILSVR2014/CLS-LOC/ILSVRC2012_img_train/n02676566/n02676566_9456.JPEG ILSVR2014/CLS-LOC/ILSVRC2012_bbox_train_v2/n02676566/n02676566_9456.xml
ILSVR2014/CLS-LOC/ILSVRC2012_img_train/n02676566/n02676566_9460.JPEG ILSVR2014/CLS-LOC/ILSVRC2012_bbox_train_v2/n02676566/n02676566_9460.xml
ILSVR2014/CLS-LOC/ILSVRC2012_img_train/n02676566/n02676566_9462.JPEG ILSVR2014/CLS-LOC/ILSVRC2012_bbox_train_v2/n02676566/n02676566_9462.xml
ILSVR2014/CLS-LOC/ILSVRC2012_img_train/n02676566/n02676566_9468.JPEG ILSVR2014/CLS-LOC/ILSVRC2012_bbox_train_v2/n02676566/n02676566_9468.xml
ILSVR2014/CLS-LOC/ILSVRC2012_img_train/n02676566/n02676566_9473.JPEG ILSVR2014/CLS-LOC/ILSVRC2012_bbox_train_v2/n02676566/n02676566_9473.xml
ILSVR2014/CLS-LOC/ILSVRC2012_img_train/n02676566/n02676566_9474.JPEG ILSVR2014/CLS-LOC/ILSVRC2012_bbox_train_v2/n02676566/n02676566_9474.xml
ILSVR2014/CLS-LOC/ILSVRC2012_img_train/n02676566/n02676566_9479.JPEG ILSVR2014/CLS-LOC/ILSVRC2012_bbox_train_v2/n02676566/n02676566_9479.xml
ILSVR2014/CLS-LOC/ILSVRC2012_img_train/n02676566/n02676566_9481.JPEG ILSVR2014/CLS-LOC/ILSVRC2012_bbox_train_v2/n02676566/n02676566_9481.xml
ILSVR2014/CLS-LOC/ILSVRC2012_img_train/n02676566/n02676566_9482.JPEG ILSVR2014/CLS-LOC/ILSVRC2012_bbox_train_v2/n02676566/n02676566_9482.xml
ILSVR2014/CLS-LOC/ILSVRC2012_img_train/n02676566/n02676566_9493.JPEG ILSVR2014/CLS-LOC/ILSVRC2012_bbox_train_v2/n02676566/n02676566_9493.xml
ILSVR2014/CLS-LOC/ILSVRC2012_img_train/n02676566/n02676566_9499.JPEG ILSVR2014/CLS-LOC/ILSVRC2012_bbox_train_v2/n02676566/n02676566_9499.xml
ILSVR2014/CLS-LOC/ILSVRC2012_img_train/n02676566/n02676566_9503.JPEG ILSVR2014/CLS-LOC/ILSVRC2012_bbox_train_v2/n02676566/n02676566_9503.xml
ILSVR2014/CLS-LOC/ILSVRC2012_img_train/n02676566/n02676566_9510.JPEG ILSVR2014/CLS-LOC/ILSVRC2012_bbox_train_v2/n02676566/n02676566_9510.xml
ILSVR2014/CLS-LOC/ILSVRC2012_img_train/n02676566/n02676566_9513.JPEG ILSVR2014/CLS-LOC/ILSVRC2012_bbox_train_v2/n02676566/n02676566_9513.xml
ILSVR2014/CLS-LOC/ILSVRC2012_img_train/n02676566/n02676566_9515.JPEG ILSVR2014/CLS-LOC/ILSVRC2012_bbox_train_v2/n02676566/n02676566_9515.xml
ILSVR2014/CLS-LOC/ILSVRC2012_img_train/n02676566/n02676566_9523.JPEG ILSVR2014/CLS-LOC/ILSVRC2012_bbox_train_v2/n02676566/n02676566_9523.xml
ILSVR2014/CLS-LOC/ILSVRC2012_img_train/n02676566/n02676566_9525.JPEG ILSVR2014/CLS-LOC/ILSVRC2012_bbox_train_v2/n02676566/n02676566_9525.xml
ILSVR2014/CLS-LOC/ILSVRC2012_img_train/n02676566/n02676566_9538.JPEG ILSVR2014/CLS-LOC/ILSVRC2012_bbox_train_v2/n02676566/n02676566_9538.xml
ILSVR2014/CLS-LOC/ILSVRC2012_img_train/n02676566/n02676566_9552.JPEG ILSVR2014/CLS-LOC/ILSVRC2012_bbox_train_v2/n02676566/n02676566_9552.xml
ILSVR2014/CLS-LOC/ILSVRC2012_img_train/n02676566/n02676566_9570.JPEG ILSVR2014/CLS-LOC/ILSVRC2012_bbox_train_v2/n02676566/n02676566_9570.xml
ILSVR2014/CLS-LOC/ILSVRC2012_img_train/n02676566/n02676566_9577.JPEG ILSVR2014/CLS-LOC/ILSVRC2012_bbox_train_v2/n02676566/n02676566_9577.xml
ILSVR2014/CLS-LOC/ILSVRC2012_img_train/n02676566/n02676566_9589.JPEG ILSVR2014/CLS-LOC/ILSVRC2012_bbox_train_v2/n02676566/n02676566_9589.xml
ILSVR2014/CLS-LOC/ILSVRC2012_img_train/n02676566/n02676566_9591.JPEG ILSVR2014/CLS-LOC/ILSVRC2012_bbox_train_v2/n02676566/n02676566_9591.xml
ILSVR2014/CLS-LOC/ILSVRC2012_img_train/n02676566/n02676566_9605.JPEG ILSVR2014/CLS-LOC/ILSVRC2012_bbox_train_v2/n02676566/n02676566_9605.xml
ILSVR2014/CLS-LOC/ILSVRC2012_img_train/n02676566/n02676566_9606.JPEG ILSVR2014/CLS-LOC/ILSVRC2012_bbox_train_v2/n02676566/n02676566_9606.xml
ILSVR2014/CLS-LOC/ILSVRC2012_img_train/n02676566/n02676566_9611.JPEG ILSVR2014/CLS-LOC/ILSVRC2012_bbox_train_v2/n02676566/n02676566_9611.xml
ILSVR2014/CLS-LOC/ILSVRC2012_img_train/n02676566/n02676566_9612.JPEG ILSVR2014/CLS-LOC/ILSVRC2012_bbox_train_v2/n02676566/n02676566_9612.xml
ILSVR2014/CLS-LOC/ILSVRC2012_img_train/n02676566/n02676566_9637.JPEG ILSVR2014/CLS-LOC/ILSVRC2012_bbox_train_v2/n02676566/n02676566_9637.xml
ILSVR2014/CLS-LOC/ILSVRC2012_img_train/n02676566/n02676566_9640.JPEG ILSVR2014/CLS-LOC/ILSVRC2012_bbox_train_v2/n02676566/n02676566_9640.xml
ILSVR2014/CLS-LOC/ILSVRC2012_img_train/n02676566/n02676566_9661.JPEG ILSVR2014/CLS-LOC/ILSVRC2012_bbox_train_v2/n02676566/n02676566_9661.xml
ILSVR2014/CLS-LOC/ILSVRC2012_img_train/n02676566/n02676566_9668.JPEG ILSVR2014/CLS-LOC/ILSVRC2012_bbox_train_v2/n02676566/n02676566_9668.xml
ILSVR2014/CLS-LOC/ILSVRC2012_img_train/n02676566/n02676566_9670.JPEG ILSVR2014/CLS-LOC/ILSVRC2012_bbox_train_v2/n02676566/n02676566_9670.xml
ILSVR2014/CLS-LOC/ILSVRC2012_img_train/n02676566/n02676566_970.JPEG ILSVR2014/CLS-LOC/ILSVRC2012_bbox_train_v2/n02676566/n02676566_970.xml
ILSVR2014/CLS-LOC/ILSVRC2012_img_train/n02676566/n02676566_9847.JPEG ILSVR2014/CLS-LOC/ILSVRC2012_bbox_train_v2/n02676566/n02676566_9847.xml
ILSVR2014/CLS-LOC/ILSVRC2012_img_train/n02676566/n02676566_9889.JPEG ILSVR2014/CLS-LOC/ILSVRC2012_bbox_train_v2/n02676566/n02676566_9889.xml
ILSVR2014/CLS-LOC/ILSVRC2012_img_train/n02676566/n02676566_9936.JPEG ILSVR2014/CLS-LOC/ILSVRC2012_bbox_train_v2/n02676566/
