images/sax/n04141076_11006.jpg landmarks/sax/n04141076_11006.box
images/sax/n04141076_1119.jpg landmarks/sax/n04141076_1119.box
images/sax/n04141076_11375.jpg landmarks/sax/n04141076_11375.box
images/sax/n04141076_11563.jpg landmarks/sax/n04141076_11563.box
images/sax/n04141076_11754.jpg landmarks/sax/n04141076_11754.box
images/sax/n04141076_1189.jpg landmarks/sax/n04141076_1189.box
images/sax/n04141076_12042.jpg landmarks/sax/n04141076_12042.box
images/sax/n04141076_12119.jpg landmarks/sax/n04141076_12119.box
images/sax/n04141076_12299.jpg landmarks/sax/n04141076_12299.box
images/sax/n04141076_1235.jpg landmarks/sax/n04141076_1235.box
images/sax/n04141076_12385.jpg landmarks/sax/n04141076_12385.box
images/sax/n04141076_12571.jpg landmarks/sax/n04141076_12571.box
images/sax/n04141076_13056.jpg landmarks/sax/n04141076_13056.box
images/sax/n04141076_13289.jpg landmarks/sax/n04141076_13289.box
images/sax/n04141076_13335.jpg landmarks/sax/n04141076_13335.box
images/sax/n04141076_1361.jpg landmarks/sax/n04141076_1361.box
images/sax/n04141076_1370.jpg landmarks/sax/n04141076_1370.box
images/sax/n04141076_13761.jpg landmarks/sax/n04141076_13761.box
images/sax/n04141076_13789.jpg landmarks/sax/n04141076_13789.box
images/sax/n04141076_140.jpg landmarks/sax/n04141076_140.box
images/sax/n04141076_1421.jpg landmarks/sax/n04141076_1421.box
images/sax/n04141076_14252.jpg landmarks/sax/n04141076_14252.box
images/sax/n04141076_14258.jpg landmarks/sax/n04141076_14258.box
images/sax/n04141076_14408.jpg landmarks/sax/n04141076_14408.box
images/sax/n04141076_14662.jpg landmarks/sax/n04141076_14662.box
images/sax/n04141076_14742.jpg landmarks/sax/n04141076_14742.box
images/sax/n04141076_1485.jpg landmarks/sax/n04141076_1485.box
images/sax/n04141076_1493.jpg landmarks/sax/n04141076_1493.box
images/sax/n04141076_15053.jpg landmarks/sax/n04141076_15053.box
images/sax/n04141076_1529.jpg landmarks/sax/n04141076_1529.box
images/sax/n04141076_15307.jpg landmarks/sax/n04141076_15307.box
images/sax/n04141076_15332.jpg landmarks/sax/n04141076_15332.box
images/sax/n04141076_15416.jpg landmarks/sax/n04141076_15416.box
images/sax/n04141076_15448.jpg landmarks/sax/n04141076_15448.box
images/sax/n04141076_1549.jpg landmarks/sax/n04141076_1549.box
images/sax/n04141076_15582.jpg landmarks/sax/n04141076_15582.box
images/sax/n04141076_1559.jpg landmarks/sax/n04141076_1559.box
images/sax/n04141076_15632.jpg landmarks/sax/n04141076_15632.box
images/sax/n04141076_15787.jpg landmarks/sax/n04141076_15787.box
images/sax/n04141076_15874.jpg landmarks/sax/n04141076_15874.box
images/sax/n04141076_15982.jpg landmarks/sax/n04141076_15982.box
images/sax/n04141076_15999.jpg landmarks/sax/n04141076_15999.box
images/sax/n04141076_16037.jpg landmarks/sax/n04141076_16037.box
images/sax/n04141076_16144.jpg landmarks/sax/n04141076_16144.box
images/sax/n04141076_16309.jpg landmarks/sax/n04141076_16309.box
images/sax/n04141076_16405.jpg landmarks/sax/n04141076_16405.box
images/sax/n04141076_16674.jpg landmarks/sax/n04141076_16674.box
images/sax/n04141076_16749.jpg landmarks/sax/n04141076_16749.box
images/sax/n04141076_16870.jpg landmarks/sax/n04141076_16870.box
images/sax/n04141076_16907.jpg landmarks/sax/n04141076_16907.box
images/sax/n04141076_17003.jpg landmarks/sax/n04141076_17003.box
images/sax/n04141076_17041.jpg landmarks/sax/n04141076_17041.box
images/sax/n04141076_17043.jpg landmarks/sax/n04141076_17043.box
images/sax/n04141076_17573.jpg landmarks/sax/n04141076_17573.box
images/sax/n04141076_17667.jpg landmarks/sax/n04141076_17667.box
images/sax/n04141076_17854.jpg landmarks/sax/n04141076_17854.box
images/sax/n04141076_17888.jpg landmarks/sax/n04141076_17888.box
images/sax/n04141076_17901.jpg landmarks/sax/n04141076_17901.box
images/sax/n04141076_18000.jpg landmarks/sax/n04141076_18000.box
images/sax/n04141076_18058.jpg landmarks/sax/n04141076_18058.box
images/sax/n04141076_18280.jpg landmarks/sax/n04141076_18280.box
images/sax/n04141076_18338.jpg landmarks/sax/n04141076_18338.box
images/sax/n04141076_18346.jpg landmarks/sax/n04141076_18346.box
images/sax/n04141076_18478.jpg landmarks/sax/n04141076_18478.box
images/sax/n04141076_18523.jpg landmarks/sax/n04141076_18523.box
images/sax/n04141076_18695.jpg landmarks/sax/n04141076_18695.box
images/sax/n04141076_19257.jpg landmarks/sax/n04141076_19257.box
images/sax/n04141076_19271.jpg landmarks/sax/n04141076_19271.box
images/sax/n04141076_19394.jpg landmarks/sax/n04141076_19394.box
images/sax/n04141076_19779.jpg landmarks/sax/n04141076_19779.box
images/sax/n04141076_19870.jpg landmarks/sax/n04141076_19870.box
images/sax/n04141076_1988.jpg landmarks/sax/n04141076_1988.box
images/sax/n04141076_1989.jpg landmarks/sax/n04141076_1989.box
images/sax/n04141076_19932.jpg landmarks/sax/n04141076_19932.box
images/sax/n04141076_20376.jpg landmarks/sax/n04141076_20376.box
images/sax/n04141076_20445.jpg landmarks/sax/n04141076_20445.box
images/sax/n04141076_20471.jpg landmarks/sax/n04141076_20471.box
images/sax/n04141076_20542.jpg landmarks/sax/n04141076_20542.box
images/sax/n04141076_20552.jpg landmarks/sax/n04141076_20552.box
images/sax/n04141076_20867.jpg landmarks/sax/n04141076_20867.box
images/sax/n04141076_20967.jpg landmarks/sax/n04141076_20967.box
images/sax/n04141076_20999.jpg landmarks/sax/n04141076_20999.box
images/sax/n04141076_21003.jpg landmarks/sax/n04141076_21003.box
images/sax/n04141076_21069.jpg landmarks/sax/n04141076_21069.box
images/sax/n04141076_21110.jpg landmarks/sax/n04141076_21110.box
images/sax/n04141076_21769.jpg landmarks/sax/n04141076_21769.box
images/sax/n04141076_2188.jpg landmarks/sax/n04141076_2188.box
images/sax/n04141076_220.jpg landmarks/sax/n04141076_220.box
images/sax/n04141076_22278.jpg landmarks/sax/n04141076_22278.box
images/sax/n04141076_22531.jpg landmarks/sax/n04141076_22531.box
images/sax/n04141076_23041.jpg landmarks/sax/n04141076_23041.box
images/sax/n04141076_23060.jpg landmarks/sax/n04141076_23060.box
images/sax/n04141076_2307.jpg landmarks/sax/n04141076_2307.box
images/sax/n04141076_23284.jpg landmarks/sax/n04141076_23284.box
images/sax/n04141076_23389.jpg landmarks/sax/n04141076_23389.box
images/sax/n04141076_23402.jpg landmarks/sax/n04141076_23402.box
images/sax/n04141076_23592.jpg landmarks/sax/n04141076_23592.box
images/sax/n04141076_23907.jpg landmarks/sax/n04141076_23907.box
images/sax/n04141076_24178.jpg landmarks/sax/n04141076_24178.box
images/sax/n04141076_24422.jpg landmarks/sax/n04141076_24422.box
images/sax/n04141076_24977.jpg landmarks/sax/n04141076_24977.box
images/sax/n04141076_249.jpg landmarks/sax/n04141076_249.box
images/sax/n04141076_2551.jpg landmarks/sax/n04141076_2551.box
images/sax/n04141076_2592.jpg landmarks/sax/n04141076_2592.box
images/sax/n04141076_26210.jpg landmarks/sax/n04141076_26210.box
images/sax/n04141076_26275.jpg landmarks/sax/n04141076_26275.box
images/sax/n04141076_26458.jpg landmarks/sax/n04141076_26458.box
images/sax/n04141076_26833.jpg landmarks/sax/n04141076_26833.box
images/sax/n04141076_2686.jpg landmarks/sax/n04141076_2686.box
images/sax/n04141076_2718.jpg landmarks/sax/n04141076_2718.box
images/sax/n04141076_27490.jpg landmarks/sax/n04141076_27490.box
images/sax/n04141076_2781.jpg landmarks/sax/n04141076_2781.box
images/sax/n04141076_2847.jpg landmarks/sax/n04141076_2847.box
images/sax/n04141076_29264.jpg landmarks/sax/n04141076_29264.box
images/sax/n04141076_29384.jpg landmarks/sax/n04141076_29384.box
images/sax/n04141076_2975.jpg landmarks/sax/n04141076_2975.box
images/sax/n04141076_29842.jpg landmarks/sax/n04141076_29842.box
images/sax/n04141076_30166.jpg landmarks/sax/n04141076_30166.box
images/sax/n04141076_30593.jpg landmarks/sax/n04141076_30593.box
images/sax/n04141076_30764.jpg landmarks/sax/n04141076_30764.box
images/sax/n04141076_310.jpg landmarks/sax/n04141076_310.box
images/sax/n04141076_31362.jpg landmarks/sax/n04141076_31362.box
images/sax/n04141076_31892.jpg landmarks/sax/n04141076_31892.box
images/sax/n04141076_31946.jpg landmarks/sax/n04141076_31946.box
images/sax/n04141076_31971.jpg landmarks/sax/n04141076_31971.box
images/sax/n04141076_31982.jpg landmarks/sax/n04141076_31982.box
images/sax/n04141076_32062.jpg landmarks/sax/n04141076_32062.box
images/sax/n04141076_32204.jpg landmarks/sax/n04141076_32204.box
images/sax/n04141076_32560.jpg landmarks/sax/n04141076_32560.box
images/sax/n04141076_32678.jpg landmarks/sax/n04141076_32678.box
images/sax/n04141076_32756.jpg landmarks/sax/n04141076_32756.box
images/sax/n04141076_32911.jpg landmarks/sax/n04141076_32911.box
images/sax/n04141076_33112.jpg landmarks/sax/n04141076_33112.box
images/sax/n04141076_33385.jpg landmarks/sax/n04141076_33385.box
images/sax/n04141076_33484.jpg landmarks/sax/n04141076_33484.box
images/sax/n04141076_33628.jpg landmarks/sax/n04141076_33628.box
images/sax/n04141076_33676.jpg landmarks/sax/n04141076_33676.box
images/sax/n04141076_33714.jpg landmarks/sax/n04141076_33714.box
images/sax/n04141076_3390.jpg landmarks/sax/n04141076_3390.box
images/sax/n04141076_33925.jpg landmarks/sax/n04141076_33925.box
images/sax/n04141076_33942.jpg landmarks/sax/n04141076_33942.box
images/sax/n04141076_34410.jpg landmarks/sax/n04141076_34410.box
images/sax/n04141076_34462.jpg landmarks/sax/n04141076_34462.box
images/sax/n04141076_34621.jpg landmarks/sax/n04141076_34621.box
images/sax/n04141076_34840.jpg landmarks/sax/n04141076_34840.box
images/sax/n04141076_35759.jpg landmarks/sax/n04141076_35759.box
images/sax/n04141076_36092.jpg landmarks/sax/n04141076_36092.box
images/sax/n04141076_36106.jpg landmarks/sax/n04141076_36106.box
images/sax/n04141076_36619.jpg landmarks/sax/n04141076_36619.box
images/sax/n04141076_36693.jpg landmarks/sax/n04141076_36693.box
images/sax/n04141076_36918.jpg landmarks/sax/n04141076_36918.box
images/sax/n04141076_36996.jpg landmarks/sax/n04141076_36996.box
images/sax/n04141076_37136.jpg landmarks/sax/n04141076_37136.box
images/sax/n04141076_37385.jpg landmarks/sax/n04141076_37385.box
images/sax/n04141076_3756.jpg landmarks/sax/n04141076_3756.box
images/sax/n04141076_37629.jpg landmarks/sax/n04141076_37629.box
images/sax/n04141076_37635.jpg landmarks/sax/n04141076_37635.box
images/sax/n04141076_37664.jpg landmarks/sax/n04141076_37664.box
images/sax/n04141076_37748.jpg landmarks/sax/n04141076_37748.box
images/sax/n04141076_377.jpg landmarks/sax/n04141076_377.box
images/sax/n04141076_37838.jpg landmarks/sax/n04141076_37838.box
images/sax/n04141076_38077.jpg landmarks/sax/n04141076_38077.box
images/sax/n04141076_38236.jpg landmarks/sax/n04141076_38236.box
images/sax/n04141076_38248.jpg landmarks/sax/n04141076_38248.box
images/sax/n04141076_38250.jpg landmarks/sax/n04141076_38250.box
images/sax/n04141076_38321.jpg landmarks/sax/n04141076_38321.box
images/sax/n04141076_383.jpg landmarks/sax/n04141076_383.box
images/sax/n04141076_38526.jpg landmarks/sax/n04141076_38526.box
images/sax/n04141076_3873.jpg landmarks/sax/n04141076_3873.box
images/sax/n04141076_38816.jpg landmarks/sax/n04141076_38816.box
images/sax/n04141076_38845.jpg landmarks/sax/n04141076_38845.box
images/sax/n04141076_39024.jpg landmarks/sax/n04141076_39024.box
images/sax/n04141076_39130.jpg landmarks/sax/n04141076_39130.box
images/sax/n04141076_39197.jpg landmarks/sax/n04141076_39197.box
images/sax/n04141076_3926.jpg landmarks/sax/n04141076_3926.box
images/sax/n04141076_39287.jpg landmarks/sax/n04141076_39287.box
images/sax/n04141076_39333.jpg landmarks/sax/n04141076_39333.box
images/sax/n04141076_39344.jpg landmarks/sax/n04141076_39344.box
images/sax/n04141076_39429.jpg landmarks/sax/n04141076_39429.box
images/sax/n04141076_39462.jpg landmarks/sax/n04141076_39462.box
images/sax/n04141076_39515.jpg landmarks/sax/n04141076_39515.box
images/sax/n04141076_39547.jpg landmarks/sax/n04141076_39547.box
images/sax/n04141076_39744.jpg landmarks/sax/n04141076_39744.box
images/sax/n04141076_39774.jpg landmarks/sax/n04141076_39774.box
images/sax/n04141076_3.jpg landmarks/sax/n04141076_3.box
images/sax/n04141076_40077.jpg landmarks/sax/n04141076_40077.box
images/sax/n04141076_40096.jpg landmarks/sax/n04141076_40096.box
images/sax/n04141076_40126.jpg landmarks/sax/n04141076_40126.box
images/sax/n04141076_4093.jpg landmarks/sax/n04141076_4093.box
images/sax/n04141076_4132.jpg landmarks/sax/n04141076_4132.box
images/sax/n04141076_41480.jpg landmarks/sax/n04141076_41480.box
images/sax/n04141076_41520.jpg landmarks/sax/n04141076_41520.box
images/sax/n04141076_41529.jpg landmarks/sax/n04141076_41529.box
images/sax/n04141076_41535.jpg landmarks/sax/n04141076_41535.box
images/sax/n04141076_41544.jpg landmarks/sax/n04141076_41544.box
images/sax/n04141076_41656.jpg landmarks/sax/n04141076_41656.box
images/sax/n04141076_41723.jpg landmarks/sax/n04141076_41723.box
images/sax/n04141076_41792.jpg landmarks/sax/n04141076_41792.box
images/sax/n04141076_41905.jpg landmarks/sax/n04141076_41905.box
images/sax/n04141076_4191.jpg landmarks/sax/n04141076_4191.box
images/sax/n04141076_41920.jpg landmarks/sax/n04141076_41920.box
images/sax/n04141076_41923.jpg landmarks/sax/n04141076_41923.box
images/sax/n04141076_42027.jpg landmarks/sax/n04141076_42027.box
images/sax/n04141076_42093.jpg landmarks/sax/n04141076_42093.box
images/sax/n04141076_42138.jpg landmarks/sax/n04141076_42138.box
images/sax/n04141076_42173.jpg landmarks/sax/n04141076_42173.box
images/sax/n04141076_42195.jpg landmarks/sax/n04141076_42195.box
images/sax/n04141076_42214.jpg landmarks/sax/n04141076_42214.box
images/sax/n04141076_42330.jpg landmarks/sax/n04141076_42330.box
images/sax/n04141076_42378.jpg landmarks/sax/n04141076_42378.box
images/sax/n04141076_42402.jpg landmarks/sax/n04141076_42402.box
images/sax/n04141076_42535.jpg landmarks/sax/n04141076_42535.box
images/sax/n04141076_42664.jpg landmarks/sax/n04141076_42664.box
images/sax/n04141076_42677.jpg landmarks/sax/n04141076_42677.box
images/sax/n04141076_42726.jpg landmarks/sax/n04141076_42726.box
images/sax/n04141076_4290.jpg landmarks/sax/n04141076_4290.box
images/sax/n04141076_42961.jpg landmarks/sax/n04141076_42961.box
images/sax/n04141076_43002.jpg landmarks/sax/n04141076_43002.box
images/sax/n04141076_43038.jpg landmarks/sax/n04141076_43038.box
images/sax/n04141076_43093.jpg landmarks/sax/n04141076_43093.box
images/sax/n04141076_4312.jpg landmarks/sax/n04141076_4312.box
images/sax/n04141076_4321.jpg landmarks/sax/n04141076_4321.box
images/sax/n04141076_43226.jpg landmarks/sax/n04141076_43226.box
images/sax/n04141076_43228.jpg landmarks/sax/n04141076_43228.box
images/sax/n04141076_43357.jpg landmarks/sax/n04141076_43357.box
images/sax/n04141076_43392.jpg landmarks/sax/n04141076_43392.box
images/sax/n04141076_43424.jpg landmarks/sax/n04141076_43424.box
images/sax/n04141076_43496.jpg landmarks/sax/n04141076_43496.box
images/sax/n04141076_43498.jpg landmarks/sax/n04141076_43498.box
images/sax/n04141076_43557.jpg landmarks/sax/n04141076_43557.box
images/sax/n04141076_43587.jpg landmarks/sax/n04141076_43587.box
images/sax/n04141076_43604.jpg landmarks/sax/n04141076_43604.box
images/sax/n04141076_43629.jpg landmarks/sax/n04141076_43629.box
images/sax/n04141076_43643.jpg landmarks/sax/n04141076_43643.box
images/sax/n04141076_4364.jpg landmarks/sax/n04141076_4364.box
images/sax/n04141076_43679.jpg landmarks/sax/n04141076_43679.box
images/sax/n04141076_43723.jpg landmarks/sax/n04141076_43723.box
images/sax/n04141076_43758.jpg landmarks/sax/n04141076_43758.box
images/sax/n04141076_43898.jpg landmarks/sax/n04141076_43898.box
images/sax/n04141076_44020.jpg landmarks/sax/n04141076_44020.box
images/sax/n04141076_4403.jpg landmarks/sax/n04141076_4403.box
images/sax/n04141076_44061.jpg landmarks/sax/n04141076_44061.box
images/sax/n04141076_44180.jpg landmarks/sax/n04141076_44180.box
images/sax/n04141076_44205.jpg landmarks/sax/n04141076_44205.box
images/sax/n04141076_44276.jpg landmarks/sax/n04141076_44276.box
images/sax/n04141076_44325.jpg landmarks/sax/n04141076_44325.box
images/sax/n04141076_44568.jpg landmarks/sax/n04141076_44568.box
images/sax/n04141076_44682.jpg landmarks/sax/n04141076_44682.box
images/sax/n04141076_44821.jpg landmarks/sax/n04141076_44821.box
images/sax/n04141076_44933.jpg landmarks/sax/n04141076_44933.box
images/sax/n04141076_4494.jpg landmarks/sax/n04141076_4494.box
images/sax/n04141076_45052.jpg landmarks/sax/n04141076_45052.box
images/sax/n04141076_45120.jpg landmarks/sax/n04141076_45120.box
images/sax/n04141076_45122.jpg landmarks/sax/n04141076_45122.box
images/sax/n04141076_45163.jpg landmarks/sax/n04141076_45163.box
images/sax/n04141076_45401.jpg landmarks/sax/n04141076_45401.box
images/sax/n04141076_45433.jpg landmarks/sax/n04141076_45433.box
images/sax/n04141076_45523.jpg landmarks/sax/n04141076_45523.box
images/sax/n04141076_45601.jpg landmarks/sax/n04141076_45601.box
images/sax/n04141076_45626.jpg landmarks/sax/n04141076_45626.box
images/sax/n04141076_45707.jpg landmarks/sax/n04141076_45707.box
images/sax/n04141076_46013.jpg landmarks/sax/n04141076_46013.box
images/sax/n04141076_46125.jpg landmarks/sax/n04141076_46125.box
images/sax/n04141076_46230.jpg landmarks/sax/n04141076_46230.box
images/sax/n04141076_46305.jpg landmarks/sax/n04141076_46305.box
images/sax/n04141076_46363.jpg landmarks/sax/n04141076_46363.box
images/sax/n04141076_46563.jpg landmarks/sax/n04141076_46563.box
images/sax/n04141076_46600.jpg landmarks/sax/n04141076_46600.box
images/sax/n04141076_46617.jpg landmarks/sax/n04141076_46617.box
images/sax/n04141076_46678.jpg landmarks/sax/n04141076_46678.box
images/sax/n04141076_46696.jpg landmarks/sax/n04141076_46696.box
images/sax/n04141076_46764.jpg landmarks/sax/n04141076_46764.box
images/sax/n04141076_46833.jpg landmarks/sax/n04141076_46833.box
images/sax/n04141076_46905.jpg landmarks/sax/n04141076_46905.box
images/sax/n04141076_47330.jpg landmarks/sax/n04141076_47330.box
images/sax/n04141076_4738.jpg landmarks/sax/n04141076_4738.box
images/sax/n04141076_47413.jpg landmarks/sax/n04141076_47413.box
images/sax/n04141076_47593.jpg landmarks/sax/n04141076_47593.box
images/sax/n04141076_475.jpg landmarks/sax/n04141076_475.box
images/sax/n04141076_47716.jpg landmarks/sax/n04141076_47716.box
images/sax/n04141076_47719.jpg landmarks/sax/n04141076_47719.box
images/sax/n04141076_47809.jpg landmarks/sax/n04141076_47809.box
images/sax/n04141076_47905.jpg landmarks/sax/n04141076_47905.box
images/sax/n04141076_4793.jpg landmarks/sax/n04141076_4793.box
images/sax/n04141076_47991.jpg landmarks/sax/n04141076_47991.box
images/sax/n04141076_4801.jpg landmarks/sax/n04141076_4801.box
images/sax/n04141076_48027.jpg landmarks/sax/n04141076_48027.box
images/sax/n04141076_48028.jpg landmarks/sax/n04141076_48028.box
images/sax/n04141076_48081.jpg landmarks/sax/n04141076_48081.box
images/sax/n04141076_48084.jpg landmarks/sax/n04141076_48084.box
images/sax/n04141076_4813.jpg landmarks/sax/n04141076_4813.box
images/sax/n04141076_48163.jpg landmarks/sax/n04141076_48163.box
images/sax/n04141076_4816.jpg landmarks/sax/n04141076_4816.box
images/sax/n04141076_48416.jpg landmarks/sax/n04141076_48416.box
images/sax/n04141076_48568.jpg landmarks/sax/n04141076_48568.box
images/sax/n04141076_48668.jpg landmarks/sax/n04141076_48668.box
images/sax/n04141076_48687.jpg landmarks/sax/n04141076_48687.box
images/sax/n04141076_48860.jpg landmarks/sax/n04141076_48860.box
images/sax/n04141076_49114.jpg landmarks/sax/n04141076_49114.box
images/sax/n04141076_49614.jpg landmarks/sax/n04141076_49614.box
images/sax/n04141076_49845.jpg landmarks/sax/n04141076_49845.box
images/sax/n04141076_50332.jpg landmarks/sax/n04141076_50332.box
images/sax/n04141076_50561.jpg landmarks/sax/n04141076_50561.box
images/sax/n04141076_50624.jpg landmarks/sax/n04141076_50624.box
images/sax/n04141076_51061.jpg landmarks/sax/n04141076_51061.box
images/sax/n04141076_51296.jpg landmarks/sax/n04141076_51296.box
images/sax/n04141076_5164.jpg landmarks/sax/n04141076_5164.box
images/sax/n04141076_51662.jpg landmarks/sax/n04141076_51662.box
images/sax/n04141076_5171.jpg landmarks/sax/n04141076_5171.box
images/sax/n04141076_5187.jpg landmarks/sax/n04141076_5187.box
images/sax/n04141076_51902.jpg landmarks/sax/n04141076_51902.box
images/sax/n04141076_51948.jpg landmarks/sax/n04141076_51948.box
images/sax/n04141076_52032.jpg landmarks/sax/n04141076_52032.box
images/sax/n04141076_5221.jpg landmarks/sax/n04141076_5221.box
images/sax/n04141076_5265.jpg landmarks/sax/n04141076_5265.box
images/sax/n04141076_52694.jpg landmarks/sax/n04141076_52694.box
images/sax/n04141076_52986.jpg landmarks/sax/n04141076_52986.box
images/sax/n04141076_5309.jpg landmarks/sax/n04141076_5309.box
images/sax/n04141076_53266.jpg landmarks/sax/n04141076_53266.box
images/sax/n04141076_5383.jpg landmarks/sax/n04141076_5383.box
images/sax/n04141076_55409.jpg landmarks/sax/n04141076_55409.box
images/sax/n04141076_55611.jpg landmarks/sax/n04141076_55611.box
images/sax/n04141076_55932.jpg landmarks/sax/n04141076_55932.box
images/sax/n04141076_56341.jpg landmarks/sax/n04141076_56341.box
images/sax/n04141076_56500.jpg landmarks/sax/n04141076_56500.box
images/sax/n04141076_5671.jpg landmarks/sax/n04141076_5671.box
images/sax/n04141076_5697.jpg landmarks/sax/n04141076_5697.box
images/sax/n04141076_57308.jpg landmarks/sax/n04141076_57308.box
images/sax/n04141076_5731.jpg landmarks/sax/n04141076_5731.box
images/sax/n04141076_57839.jpg landmarks/sax/n04141076_57839.box
images/sax/n04141076_57874.jpg landmarks/sax/n04141076_57874.box
images/sax/n04141076_58459.jpg landmarks/sax/n04141076_58459.box
images/sax/n04141076_58935.jpg landmarks/sax/n04141076_58935.box
images/sax/n04141076_5955.jpg landmarks/sax/n04141076_5955.box
images/sax/n04141076_5977.jpg landmarks/sax/n04141076_5977.box
images/sax/n04141076_60326.jpg landmarks/sax/n04141076_60326.box
images/sax/n04141076_60895.jpg landmarks/sax/n04141076_60895.box
images/sax/n04141076_60949.jpg landmarks/sax/n04141076_60949.box
images/sax/n04141076_61102.jpg landmarks/sax/n04141076_61102.box
images/sax/n04141076_61161.jpg landmarks/sax/n04141076_61161.box
images/sax/n04141076_61511.jpg landmarks/sax/n04141076_61511.box
images/sax/n04141076_6153.jpg landmarks/sax/n04141076_6153.box
images/sax/n04141076_61862.jpg landmarks/sax/n04141076_61862.box
images/sax/n04141076_62131.jpg landmarks/sax/n04141076_62131.box
images/sax/n04141076_62379.jpg landmarks/sax/n04141076_62379.box
images/sax/n04141076_6314.jpg landmarks/sax/n04141076_6314.box
images/sax/n04141076_63894.jpg landmarks/sax/n04141076_63894.box
images/sax/n04141076_64145.jpg landmarks/sax/n04141076_64145.box
images/sax/n04141076_64308.jpg landmarks/sax/n04141076_64308.box
images/sax/n04141076_64726.jpg landmarks/sax/n04141076_64726.box
images/sax/n04141076_64803.jpg landmarks/sax/n04141076_64803.box
images/sax/n04141076_65103.jpg landmarks/sax/n04141076_65103.box
images/sax/n04141076_66263.jpg landmarks/sax/n04141076_66263.box
images/sax/n04141076_6648.jpg landmarks/sax/n04141076_6648.box
images/sax/n04141076_6716.jpg landmarks/sax/n04141076_6716.box
images/sax/n04141076_6727.jpg landmarks/sax/n04141076_6727.box
images/sax/n04141076_67423.jpg landmarks/sax/n04141076_67423.box
images/sax/n04141076_6803.jpg landmarks/sax/n04141076_6803.box
images/sax/n04141076_6818.jpg landmarks/sax/n04141076_6818.box
images/sax/n04141076_68199.jpg landmarks/sax/n04141076_68199.box
images/sax/n04141076_6855.jpg landmarks/sax/n04141076_6855.box
images/sax/n04141076_68802.jpg landmarks/sax/n04141076_68802.box
images/sax/n04141076_69146.jpg landmarks/sax/n04141076_69146.box
images/sax/n04141076_69199.jpg landmarks/sax/n04141076_69199.box
images/sax/n04141076_70443.jpg landmarks/sax/n04141076_70443.box
images/sax/n04141076_7080.jpg landmarks/sax/n04141076_7080.box
images/sax/n04141076_70813.jpg landmarks/sax/n04141076_70813.box
images/sax/n04141076_7101.jpg landmarks/sax/n04141076_7101.box
images/sax/n04141076_71323.jpg landmarks/sax/n04141076_71323.box
images/sax/n04141076_71352.jpg landmarks/sax/n04141076_71352.box
images/sax/n04141076_71409.jpg landmarks/sax/n04141076_71409.box
images/sax/n04141076_71896.jpg landmarks/sax/n04141076_71896.box
images/sax/n04141076_7189.jpg landmarks/sax/n04141076_7189.box
images/sax/n04141076_728.jpg landmarks/sax/n04141076_728.box
images/sax/n04141076_73174.jpg landmarks/sax/n04141076_73174.box
images/sax/n04141076_7341.jpg landmarks/sax/n04141076_7341.box
images/sax/n04141076_74311.jpg landmarks/sax/n04141076_74311.box
images/sax/n04141076_74757.jpg landmarks/sax/n04141076_74757.box
images/sax/n04141076_75142.jpg landmarks/sax/n04141076_75142.box
images/sax/n04141076_75581.jpg landmarks/sax/n04141076_75581.box
images/sax/n04141076_76247.jpg landmarks/sax/n04141076_76247.box
images/sax/n04141076_7639.jpg landmarks/sax/n04141076_7639.box
images/sax/n04141076_76501.jpg landmarks/sax/n04141076_76501.box
images/sax/n04141076_7661.jpg landmarks/sax/n04141076_7661.box
images/sax/n04141076_7695.jpg landmarks/sax/n04141076_7695.box
images/sax/n04141076_7720.jpg landmarks/sax/n04141076_7720.box
images/sax/n04141076_78028.jpg landmarks/sax/n04141076_78028.box
images/sax/n04141076_7832.jpg landmarks/sax/n04141076_7832.box
images/sax/n04141076_78990.jpg landmarks/sax/n04141076_78990.box
images/sax/n04141076_79689.jpg landmarks/sax/n04141076_79689.box
images/sax/n04141076_79932.jpg landmarks/sax/n04141076_79932.box
images/sax/n04141076_8001.jpg landmarks/sax/n04141076_8001.box
images/sax/n04141076_80838.jpg landmarks/sax/n04141076_80838.box
images/sax/n04141076_81800.jpg landmarks/sax/n04141076_81800.box
images/sax/n04141076_82058.jpg landmarks/sax/n04141076_82058.box
images/sax/n04141076_822.jpg landmarks/sax/n04141076_822.box
images/sax/n04141076_8378.jpg landmarks/sax/n04141076_8378.box
images/sax/n04141076_83895.jpg landmarks/sax/n04141076_83895.box
images/sax/n04141076_84320.jpg landmarks/sax/n04141076_84320.box
images/sax/n04141076_84468.jpg landmarks/sax/n04141076_84468.box
images/sax/n04141076_8453.jpg landmarks/sax/n04141076_8453.box
images/sax/n04141076_8669.jpg landmarks/sax/n04141076_8669.box
images/sax/n04141076_8742.jpg landmarks/sax/n04141076_8742.box
images/sax/n04141076_8788.jpg landmarks/sax/n04141076_8788.box
images/sax/n04141076_9112.jpg landmarks/sax/n04141076_9112.box
images/sax/n04141076_9127.jpg landmarks/sax/n04141076_9127.box
images/sax/n04141076_9154.jpg landmarks/sax/n04141076_9154.box
images/sax/n04141076_9222.jpg landmarks/sax/n04141076_9222.box
images/sax/n04141076_9578.jpg landmarks/sax/n04141076_9578.box
images/sax/n04141076_9756.jpg landmarks/sax/n04141076_9756.box
images/sax/n04141076_995.jpg landmarks/sax/n04141076_995.box
images/sax/n04141076_9975.jpg landmarks/sax/n04141076_9975.box
