%images/grey_owl/n01622779_1006.jpg landmarks/grey_owl/n01622779_1006.box
%images/grey_owl/n01622779_1008.jpg landmarks/grey_owl/n01622779_1008.box
%images/grey_owl/n01622779_1011.jpg landmarks/grey_owl/n01622779_1011.box
%images/grey_owl/n01622779_1025.jpg landmarks/grey_owl/n01622779_1025.box
%images/grey_owl/n01622779_1035.jpg landmarks/grey_owl/n01622779_1035.box
%images/grey_owl/n01622779_1043.jpg landmarks/grey_owl/n01622779_1043.box
%images/grey_owl/n01622779_1060.jpg landmarks/grey_owl/n01622779_1060.box
%images/grey_owl/n01622779_1061.jpg landmarks/grey_owl/n01622779_1061.box
%images/grey_owl/n01622779_1076.jpg landmarks/grey_owl/n01622779_1076.box
%images/grey_owl/n01622779_10.jpg landmarks/grey_owl/n01622779_10.box
%images/grey_owl/n01622779_1114.jpg landmarks/grey_owl/n01622779_1114.box
%images/grey_owl/n01622779_1121.jpg landmarks/grey_owl/n01622779_1121.box
%images/grey_owl/n01622779_1167.jpg landmarks/grey_owl/n01622779_1167.box
%images/grey_owl/n01622779_1169.jpg landmarks/grey_owl/n01622779_1169.box
%images/grey_owl/n01622779_1186.jpg landmarks/grey_owl/n01622779_1186.box
%images/grey_owl/n01622779_1202.jpg landmarks/grey_owl/n01622779_1202.box
%images/grey_owl/n01622779_1215.jpg landmarks/grey_owl/n01622779_1215.box
%images/grey_owl/n01622779_1216.jpg landmarks/grey_owl/n01622779_1216.box
%images/grey_owl/n01622779_1217.jpg landmarks/grey_owl/n01622779_1217.box
%images/grey_owl/n01622779_1224.jpg landmarks/grey_owl/n01622779_1224.box
%images/grey_owl/n01622779_1229.jpg landmarks/grey_owl/n01622779_1229.box
%images/grey_owl/n01622779_1232.jpg landmarks/grey_owl/n01622779_1232.box
%images/grey_owl/n01622779_1238.jpg landmarks/grey_owl/n01622779_1238.box
%images/grey_owl/n01622779_1266.jpg landmarks/grey_owl/n01622779_1266.box
%images/grey_owl/n01622779_1277.jpg landmarks/grey_owl/n01622779_1277.box
%images/grey_owl/n01622779_1294.jpg landmarks/grey_owl/n01622779_1294.box
%images/grey_owl/n01622779_1297.jpg landmarks/grey_owl/n01622779_1297.box
%images/grey_owl/n01622779_1305.jpg landmarks/grey_owl/n01622779_1305.box
%images/grey_owl/n01622779_1316.jpg landmarks/grey_owl/n01622779_1316.box
%images/grey_owl/n01622779_1319.jpg landmarks/grey_owl/n01622779_1319.box
%images/grey_owl/n01622779_1353.jpg landmarks/grey_owl/n01622779_1353.box
%images/grey_owl/n01622779_1365.jpg landmarks/grey_owl/n01622779_1365.box
%images/grey_owl/n01622779_1380.jpg landmarks/grey_owl/n01622779_1380.box
%images/grey_owl/n01622779_1395.jpg landmarks/grey_owl/n01622779_1395.box
%images/grey_owl/n01622779_1408.jpg landmarks/grey_owl/n01622779_1408.box
%images/grey_owl/n01622779_1436.jpg landmarks/grey_owl/n01622779_1436.box
%images/grey_owl/n01622779_1438.jpg landmarks/grey_owl/n01622779_1438.box
%images/grey_owl/n01622779_1444.jpg landmarks/grey_owl/n01622779_1444.box
%images/grey_owl/n01622779_1451.jpg landmarks/grey_owl/n01622779_1451.box
%images/grey_owl/n01622779_1458.jpg landmarks/grey_owl/n01622779_1458.box
%images/grey_owl/n01622779_1478.jpg landmarks/grey_owl/n01622779_1478.box
%images/grey_owl/n01622779_1481.jpg landmarks/grey_owl/n01622779_1481.box
%images/grey_owl/n01622779_1484.jpg landmarks/grey_owl/n01622779_1484.box
%images/grey_owl/n01622779_1499.jpg landmarks/grey_owl/n01622779_1499.box
%images/grey_owl/n01622779_1513.jpg landmarks/grey_owl/n01622779_1513.box
%images/grey_owl/n01622779_1514.jpg landmarks/grey_owl/n01622779_1514.box
%images/grey_owl/n01622779_1535.jpg landmarks/grey_owl/n01622779_1535.box
%images/grey_owl/n01622779_1587.jpg landmarks/grey_owl/n01622779_1587.box
%images/grey_owl/n01622779_1590.jpg landmarks/grey_owl/n01622779_1590.box
%images/grey_owl/n01622779_1598.jpg landmarks/grey_owl/n01622779_1598.box
%images/grey_owl/n01622779_1603.jpg landmarks/grey_owl/n01622779_1603.box
%images/grey_owl/n01622779_1609.jpg landmarks/grey_owl/n01622779_1609.box
%images/grey_owl/n01622779_1612.jpg landmarks/grey_owl/n01622779_1612.box
%images/grey_owl/n01622779_1663.jpg landmarks/grey_owl/n01622779_1663.box
%images/grey_owl/n01622779_1664.jpg landmarks/grey_owl/n01622779_1664.box
%images/grey_owl/n01622779_1679.jpg landmarks/grey_owl/n01622779_1679.box
%images/grey_owl/n01622779_1683.jpg landmarks/grey_owl/n01622779_1683.box
%images/grey_owl/n01622779_1694.jpg landmarks/grey_owl/n01622779_1694.box
%images/grey_owl/n01622779_16.jpg landmarks/grey_owl/n01622779_16.box
%images/grey_owl/n01622779_1710.jpg landmarks/grey_owl/n01622779_1710.box
%images/grey_owl/n01622779_1722.jpg landmarks/grey_owl/n01622779_1722.box
%images/grey_owl/n01622779_1725.jpg landmarks/grey_owl/n01622779_1725.box
%images/grey_owl/n01622779_172.jpg landmarks/grey_owl/n01622779_172.box
%images/grey_owl/n01622779_1732.jpg landmarks/grey_owl/n01622779_1732.box
%images/grey_owl/n01622779_1742.jpg landmarks/grey_owl/n01622779_1742.box
%images/grey_owl/n01622779_1746.jpg landmarks/grey_owl/n01622779_1746.box
%images/grey_owl/n01622779_1749.jpg landmarks/grey_owl/n01622779_1749.box
%images/grey_owl/n01622779_174.jpg landmarks/grey_owl/n01622779_174.box
%images/grey_owl/n01622779_1754.jpg landmarks/grey_owl/n01622779_1754.box
%images/grey_owl/n01622779_1765.jpg landmarks/grey_owl/n01622779_1765.box
%images/grey_owl/n01622779_1767.jpg landmarks/grey_owl/n01622779_1767.box
%images/grey_owl/n01622779_176.jpg landmarks/grey_owl/n01622779_176.box
%images/grey_owl/n01622779_1773.jpg landmarks/grey_owl/n01622779_1773.box
%images/grey_owl/n01622779_1774.jpg landmarks/grey_owl/n01622779_1774.box
%images/grey_owl/n01622779_1783.jpg landmarks/grey_owl/n01622779_1783.box
%images/grey_owl/n01622779_1786.jpg landmarks/grey_owl/n01622779_1786.box
%images/grey_owl/n01622779_1788.jpg landmarks/grey_owl/n01622779_1788.box
%images/grey_owl/n01622779_1791.jpg landmarks/grey_owl/n01622779_1791.box
%images/grey_owl/n01622779_1803.jpg landmarks/grey_owl/n01622779_1803.box
%images/grey_owl/n01622779_1804.jpg landmarks/grey_owl/n01622779_1804.box
%images/grey_owl/n01622779_1829.jpg landmarks/grey_owl/n01622779_1829.box
%images/grey_owl/n01622779_182.jpg landmarks/grey_owl/n01622779_182.box
%images/grey_owl/n01622779_1842.jpg landmarks/grey_owl/n01622779_1842.box
%images/grey_owl/n01622779_1844.jpg landmarks/grey_owl/n01622779_1844.box
%images/grey_owl/n01622779_1847.jpg landmarks/grey_owl/n01622779_1847.box
%images/grey_owl/n01622779_1853.jpg landmarks/grey_owl/n01622779_1853.box
%images/grey_owl/n01622779_1860.jpg landmarks/grey_owl/n01622779_1860.box
%images/grey_owl/n01622779_1873.jpg landmarks/grey_owl/n01622779_1873.box
%images/grey_owl/n01622779_1889.jpg landmarks/grey_owl/n01622779_1889.box
%images/grey_owl/n01622779_1917.jpg landmarks/grey_owl/n01622779_1917.box
%images/grey_owl/n01622779_1923.jpg landmarks/grey_owl/n01622779_1923.box
%images/grey_owl/n01622779_1936.jpg landmarks/grey_owl/n01622779_1936.box
%images/grey_owl/n01622779_1957.jpg landmarks/grey_owl/n01622779_1957.box
%images/grey_owl/n01622779_1961.jpg landmarks/grey_owl/n01622779_1961.box
%images/grey_owl/n01622779_1968.jpg landmarks/grey_owl/n01622779_1968.box
%images/grey_owl/n01622779_196.jpg landmarks/grey_owl/n01622779_196.box
%images/grey_owl/n01622779_1975.jpg landmarks/grey_owl/n01622779_1975.box
%images/grey_owl/n01622779_1979.jpg landmarks/grey_owl/n01622779_1979.box
%images/grey_owl/n01622779_1982.jpg landmarks/grey_owl/n01622779_1982.box
%images/grey_owl/n01622779_1987.jpg landmarks/grey_owl/n01622779_1987.box
%images/grey_owl/n01622779_2013.jpg landmarks/grey_owl/n01622779_2013.box
%images/grey_owl/n01622779_2020.jpg landmarks/grey_owl/n01622779_2020.box
%images/grey_owl/n01622779_2027.jpg landmarks/grey_owl/n01622779_2027.box
%images/grey_owl/n01622779_2042.jpg landmarks/grey_owl/n01622779_2042.box
%images/grey_owl/n01622779_2048.jpg landmarks/grey_owl/n01622779_2048.box
%images/grey_owl/n01622779_2053.jpg landmarks/grey_owl/n01622779_2053.box
%images/grey_owl/n01622779_2076.jpg landmarks/grey_owl/n01622779_2076.box
%images/grey_owl/n01622779_2085.jpg landmarks/grey_owl/n01622779_2085.box
%images/grey_owl/n01622779_2100.jpg landmarks/grey_owl/n01622779_2100.box
%images/grey_owl/n01622779_2106.jpg landmarks/grey_owl/n01622779_2106.box
%images/grey_owl/n01622779_2114.jpg landmarks/grey_owl/n01622779_2114.box
%images/grey_owl/n01622779_2124.jpg landmarks/grey_owl/n01622779_2124.box
%images/grey_owl/n01622779_2154.jpg landmarks/grey_owl/n01622779_2154.box
%images/grey_owl/n01622779_2166.jpg landmarks/grey_owl/n01622779_2166.box
%images/grey_owl/n01622779_2168.jpg landmarks/grey_owl/n01622779_2168.box
%images/grey_owl/n01622779_2169.jpg landmarks/grey_owl/n01622779_2169.box
%images/grey_owl/n01622779_2198.jpg landmarks/grey_owl/n01622779_2198.box
%images/grey_owl/n01622779_2205.jpg landmarks/grey_owl/n01622779_2205.box
%images/grey_owl/n01622779_2209.jpg landmarks/grey_owl/n01622779_2209.box
%images/grey_owl/n01622779_2229.jpg landmarks/grey_owl/n01622779_2229.box
%images/grey_owl/n01622779_2240.jpg landmarks/grey_owl/n01622779_2240.box
%images/grey_owl/n01622779_224.jpg landmarks/grey_owl/n01622779_224.box
%images/grey_owl/n01622779_2250.jpg landmarks/grey_owl/n01622779_2250.box
%images/grey_owl/n01622779_226.jpg landmarks/grey_owl/n01622779_226.box
%images/grey_owl/n01622779_2271.jpg landmarks/grey_owl/n01622779_2271.box
%images/grey_owl/n01622779_2285.jpg landmarks/grey_owl/n01622779_2285.box
%images/grey_owl/n01622779_2286.jpg landmarks/grey_owl/n01622779_2286.box
%images/grey_owl/n01622779_22.jpg landmarks/grey_owl/n01622779_22.box
%images/grey_owl/n01622779_2313.jpg landmarks/grey_owl/n01622779_2313.box
%images/grey_owl/n01622779_2329.jpg landmarks/grey_owl/n01622779_2329.box
%images/grey_owl/n01622779_2347.jpg landmarks/grey_owl/n01622779_2347.box
%images/grey_owl/n01622779_2357.jpg landmarks/grey_owl/n01622779_2357.box
%images/grey_owl/n01622779_2387.jpg landmarks/grey_owl/n01622779_2387.box
%images/grey_owl/n01622779_2421.jpg landmarks/grey_owl/n01622779_2421.box
%images/grey_owl/n01622779_2423.jpg landmarks/grey_owl/n01622779_2423.box
%images/grey_owl/n01622779_2425.jpg landmarks/grey_owl/n01622779_2425.box
%images/grey_owl/n01622779_2433.jpg landmarks/grey_owl/n01622779_2433.box
%images/grey_owl/n01622779_2472.jpg landmarks/grey_owl/n01622779_2472.box
%images/grey_owl/n01622779_2478.jpg landmarks/grey_owl/n01622779_2478.box
%images/grey_owl/n01622779_250.jpg landmarks/grey_owl/n01622779_250.box
%images/grey_owl/n01622779_2511.jpg landmarks/grey_owl/n01622779_2511.box
%images/grey_owl/n01622779_2514.jpg landmarks/grey_owl/n01622779_2514.box
%images/grey_owl/n01622779_252.jpg landmarks/grey_owl/n01622779_252.box
%images/grey_owl/n01622779_2533.jpg landmarks/grey_owl/n01622779_2533.box
%images/grey_owl/n01622779_253.jpg landmarks/grey_owl/n01622779_253.box
%images/grey_owl/n01622779_2540.jpg landmarks/grey_owl/n01622779_2540.box
%images/grey_owl/n01622779_2581.jpg landmarks/grey_owl/n01622779_2581.box
%images/grey_owl/n01622779_2593.jpg landmarks/grey_owl/n01622779_2593.box
%images/grey_owl/n01622779_2597.jpg landmarks/grey_owl/n01622779_2597.box
images/grey_owl/n01622779_2602.jpg landmarks/grey_owl/n01622779_2602.box
images/grey_owl/n01622779_2620.jpg landmarks/grey_owl/n01622779_2620.box
images/grey_owl/n01622779_2622.jpg landmarks/grey_owl/n01622779_2622.box
images/grey_owl/n01622779_2645.jpg landmarks/grey_owl/n01622779_2645.box
images/grey_owl/n01622779_2649.jpg landmarks/grey_owl/n01622779_2649.box
images/grey_owl/n01622779_2652.jpg landmarks/grey_owl/n01622779_2652.box
images/grey_owl/n01622779_2661.jpg landmarks/grey_owl/n01622779_2661.box
images/grey_owl/n01622779_2685.jpg landmarks/grey_owl/n01622779_2685.box
images/grey_owl/n01622779_2696.jpg landmarks/grey_owl/n01622779_2696.box
images/grey_owl/n01622779_269.jpg landmarks/grey_owl/n01622779_269.box
images/grey_owl/n01622779_2721.jpg landmarks/grey_owl/n01622779_2721.box
images/grey_owl/n01622779_2727.jpg landmarks/grey_owl/n01622779_2727.box
images/grey_owl/n01622779_2730.jpg landmarks/grey_owl/n01622779_2730.box
images/grey_owl/n01622779_2736.jpg landmarks/grey_owl/n01622779_2736.box
images/grey_owl/n01622779_2752.jpg landmarks/grey_owl/n01622779_2752.box
images/grey_owl/n01622779_2772.jpg landmarks/grey_owl/n01622779_2772.box
images/grey_owl/n01622779_2787.jpg landmarks/grey_owl/n01622779_2787.box
images/grey_owl/n01622779_2798.jpg landmarks/grey_owl/n01622779_2798.box
images/grey_owl/n01622779_2800.jpg landmarks/grey_owl/n01622779_2800.box
images/grey_owl/n01622779_2804.jpg landmarks/grey_owl/n01622779_2804.box
images/grey_owl/n01622779_2839.jpg landmarks/grey_owl/n01622779_2839.box
images/grey_owl/n01622779_2852.jpg landmarks/grey_owl/n01622779_2852.box
images/grey_owl/n01622779_2857.jpg landmarks/grey_owl/n01622779_2857.box
images/grey_owl/n01622779_2872.jpg landmarks/grey_owl/n01622779_2872.box
images/grey_owl/n01622779_2887.jpg landmarks/grey_owl/n01622779_2887.box
images/grey_owl/n01622779_2911.jpg landmarks/grey_owl/n01622779_2911.box
images/grey_owl/n01622779_2913.jpg landmarks/grey_owl/n01622779_2913.box
images/grey_owl/n01622779_2917.jpg landmarks/grey_owl/n01622779_2917.box
images/grey_owl/n01622779_2944.jpg landmarks/grey_owl/n01622779_2944.box
images/grey_owl/n01622779_2960.jpg landmarks/grey_owl/n01622779_2960.box
images/grey_owl/n01622779_297.jpg landmarks/grey_owl/n01622779_297.box
images/grey_owl/n01622779_2987.jpg landmarks/grey_owl/n01622779_2987.box
images/grey_owl/n01622779_2988.jpg landmarks/grey_owl/n01622779_2988.box
%images/grey_owl/n01622779_2.jpg landmarks/grey_owl/n01622779_2.box
images/grey_owl/n01622779_3003.jpg landmarks/grey_owl/n01622779_3003.box
images/grey_owl/n01622779_300.jpg landmarks/grey_owl/n01622779_300.box
images/grey_owl/n01622779_3017.jpg landmarks/grey_owl/n01622779_3017.box
images/grey_owl/n01622779_3030.jpg landmarks/grey_owl/n01622779_3030.box
images/grey_owl/n01622779_3035.jpg landmarks/grey_owl/n01622779_3035.box
images/grey_owl/n01622779_303.jpg landmarks/grey_owl/n01622779_303.box
images/grey_owl/n01622779_3046.jpg landmarks/grey_owl/n01622779_3046.box
images/grey_owl/n01622779_304.jpg landmarks/grey_owl/n01622779_304.box
images/grey_owl/n01622779_3058.jpg landmarks/grey_owl/n01622779_3058.box
images/grey_owl/n01622779_3097.jpg landmarks/grey_owl/n01622779_3097.box
images/grey_owl/n01622779_310.jpg landmarks/grey_owl/n01622779_310.box
images/grey_owl/n01622779_3110.jpg landmarks/grey_owl/n01622779_3110.box
images/grey_owl/n01622779_3113.jpg landmarks/grey_owl/n01622779_3113.box
images/grey_owl/n01622779_3137.jpg landmarks/grey_owl/n01622779_3137.box
images/grey_owl/n01622779_3138.jpg landmarks/grey_owl/n01622779_3138.box
images/grey_owl/n01622779_3142.jpg landmarks/grey_owl/n01622779_3142.box
images/grey_owl/n01622779_3143.jpg landmarks/grey_owl/n01622779_3143.box
images/grey_owl/n01622779_3155.jpg landmarks/grey_owl/n01622779_3155.box
images/grey_owl/n01622779_3166.jpg landmarks/grey_owl/n01622779_3166.box
images/grey_owl/n01622779_3169.jpg landmarks/grey_owl/n01622779_3169.box
images/grey_owl/n01622779_3174.jpg landmarks/grey_owl/n01622779_3174.box
images/grey_owl/n01622779_3190.jpg landmarks/grey_owl/n01622779_3190.box
images/grey_owl/n01622779_3210.jpg landmarks/grey_owl/n01622779_3210.box
images/grey_owl/n01622779_3246.jpg landmarks/grey_owl/n01622779_3246.box
images/grey_owl/n01622779_3257.jpg landmarks/grey_owl/n01622779_3257.box
images/grey_owl/n01622779_3270.jpg landmarks/grey_owl/n01622779_3270.box
images/grey_owl/n01622779_3276.jpg landmarks/grey_owl/n01622779_3276.box
images/grey_owl/n01622779_3281.jpg landmarks/grey_owl/n01622779_3281.box
images/grey_owl/n01622779_3295.jpg landmarks/grey_owl/n01622779_3295.box
images/grey_owl/n01622779_3314.jpg landmarks/grey_owl/n01622779_3314.box
images/grey_owl/n01622779_3341.jpg landmarks/grey_owl/n01622779_3341.box
images/grey_owl/n01622779_3349.jpg landmarks/grey_owl/n01622779_3349.box
images/grey_owl/n01622779_335.jpg landmarks/grey_owl/n01622779_335.box
images/grey_owl/n01622779_3360.jpg landmarks/grey_owl/n01622779_3360.box
images/grey_owl/n01622779_3367.jpg landmarks/grey_owl/n01622779_3367.box
images/grey_owl/n01622779_3391.jpg landmarks/grey_owl/n01622779_3391.box
images/grey_owl/n01622779_3421.jpg landmarks/grey_owl/n01622779_3421.box
images/grey_owl/n01622779_3431.jpg landmarks/grey_owl/n01622779_3431.box
images/grey_owl/n01622779_3432.jpg landmarks/grey_owl/n01622779_3432.box
images/grey_owl/n01622779_3433.jpg landmarks/grey_owl/n01622779_3433.box
images/grey_owl/n01622779_3439.jpg landmarks/grey_owl/n01622779_3439.box
images/grey_owl/n01622779_3447.jpg landmarks/grey_owl/n01622779_3447.box
images/grey_owl/n01622779_344.jpg landmarks/grey_owl/n01622779_344.box
images/grey_owl/n01622779_3456.jpg landmarks/grey_owl/n01622779_3456.box
images/grey_owl/n01622779_3467.jpg landmarks/grey_owl/n01622779_3467.box
images/grey_owl/n01622779_3482.jpg landmarks/grey_owl/n01622779_3482.box
images/grey_owl/n01622779_3533.jpg landmarks/grey_owl/n01622779_3533.box
images/grey_owl/n01622779_3548.jpg landmarks/grey_owl/n01622779_3548.box
images/grey_owl/n01622779_3553.jpg landmarks/grey_owl/n01622779_3553.box
images/grey_owl/n01622779_3560.jpg landmarks/grey_owl/n01622779_3560.box
images/grey_owl/n01622779_3582.jpg landmarks/grey_owl/n01622779_3582.box
images/grey_owl/n01622779_359.jpg landmarks/grey_owl/n01622779_359.box
images/grey_owl/n01622779_3600.jpg landmarks/grey_owl/n01622779_3600.box
images/grey_owl/n01622779_3605.jpg landmarks/grey_owl/n01622779_3605.box
images/grey_owl/n01622779_3611.jpg landmarks/grey_owl/n01622779_3611.box
images/grey_owl/n01622779_3638.jpg landmarks/grey_owl/n01622779_3638.box
images/grey_owl/n01622779_3652.jpg landmarks/grey_owl/n01622779_3652.box
images/grey_owl/n01622779_3664.jpg landmarks/grey_owl/n01622779_3664.box
images/grey_owl/n01622779_3683.jpg landmarks/grey_owl/n01622779_3683.box
images/grey_owl/n01622779_3697.jpg landmarks/grey_owl/n01622779_3697.box
images/grey_owl/n01622779_3722.jpg landmarks/grey_owl/n01622779_3722.box
images/grey_owl/n01622779_3723.jpg landmarks/grey_owl/n01622779_3723.box
images/grey_owl/n01622779_3730.jpg landmarks/grey_owl/n01622779_3730.box
images/grey_owl/n01622779_3733.jpg landmarks/grey_owl/n01622779_3733.box
images/grey_owl/n01622779_3765.jpg landmarks/grey_owl/n01622779_3765.box
images/grey_owl/n01622779_3803.jpg landmarks/grey_owl/n01622779_3803.box
images/grey_owl/n01622779_380.jpg landmarks/grey_owl/n01622779_380.box
images/grey_owl/n01622779_3818.jpg landmarks/grey_owl/n01622779_3818.box
images/grey_owl/n01622779_381.jpg landmarks/grey_owl/n01622779_381.box
images/grey_owl/n01622779_3837.jpg landmarks/grey_owl/n01622779_3837.box
images/grey_owl/n01622779_3879.jpg landmarks/grey_owl/n01622779_3879.box
images/grey_owl/n01622779_3900.jpg landmarks/grey_owl/n01622779_3900.box
images/grey_owl/n01622779_3925.jpg landmarks/grey_owl/n01622779_3925.box
images/grey_owl/n01622779_3932.jpg landmarks/grey_owl/n01622779_3932.box
images/grey_owl/n01622779_3939.jpg landmarks/grey_owl/n01622779_3939.box
images/grey_owl/n01622779_3942.jpg landmarks/grey_owl/n01622779_3942.box
images/grey_owl/n01622779_3945.jpg landmarks/grey_owl/n01622779_3945.box
images/grey_owl/n01622779_3960.jpg landmarks/grey_owl/n01622779_3960.box
images/grey_owl/n01622779_3973.jpg landmarks/grey_owl/n01622779_3973.box
images/grey_owl/n01622779_3979.jpg landmarks/grey_owl/n01622779_3979.box
images/grey_owl/n01622779_3988.jpg landmarks/grey_owl/n01622779_3988.box
images/grey_owl/n01622779_4035.jpg landmarks/grey_owl/n01622779_4035.box
images/grey_owl/n01622779_4043.jpg landmarks/grey_owl/n01622779_4043.box
images/grey_owl/n01622779_4075.jpg landmarks/grey_owl/n01622779_4075.box
images/grey_owl/n01622779_4080.jpg landmarks/grey_owl/n01622779_4080.box
images/grey_owl/n01622779_4081.jpg landmarks/grey_owl/n01622779_4081.box
images/grey_owl/n01622779_4095.jpg landmarks/grey_owl/n01622779_4095.box
images/grey_owl/n01622779_4098.jpg landmarks/grey_owl/n01622779_4098.box
images/grey_owl/n01622779_4140.jpg landmarks/grey_owl/n01622779_4140.box
images/grey_owl/n01622779_4178.jpg landmarks/grey_owl/n01622779_4178.box
images/grey_owl/n01622779_4197.jpg landmarks/grey_owl/n01622779_4197.box
images/grey_owl/n01622779_4221.jpg landmarks/grey_owl/n01622779_4221.box
images/grey_owl/n01622779_4243.jpg landmarks/grey_owl/n01622779_4243.box
images/grey_owl/n01622779_4255.jpg landmarks/grey_owl/n01622779_4255.box
images/grey_owl/n01622779_4274.jpg landmarks/grey_owl/n01622779_4274.box
images/grey_owl/n01622779_4276.jpg landmarks/grey_owl/n01622779_4276.box
images/grey_owl/n01622779_4287.jpg landmarks/grey_owl/n01622779_4287.box
images/grey_owl/n01622779_4291.jpg landmarks/grey_owl/n01622779_4291.box
images/grey_owl/n01622779_4292.jpg landmarks/grey_owl/n01622779_4292.box
images/grey_owl/n01622779_4301.jpg landmarks/grey_owl/n01622779_4301.box
images/grey_owl/n01622779_432.jpg landmarks/grey_owl/n01622779_432.box
images/grey_owl/n01622779_4350.jpg landmarks/grey_owl/n01622779_4350.box
images/grey_owl/n01622779_4363.jpg landmarks/grey_owl/n01622779_4363.box
images/grey_owl/n01622779_4372.jpg landmarks/grey_owl/n01622779_4372.box
images/grey_owl/n01622779_4395.jpg landmarks/grey_owl/n01622779_4395.box
images/grey_owl/n01622779_4434.jpg landmarks/grey_owl/n01622779_4434.box
images/grey_owl/n01622779_4438.jpg landmarks/grey_owl/n01622779_4438.box
images/grey_owl/n01622779_4448.jpg landmarks/grey_owl/n01622779_4448.box
images/grey_owl/n01622779_4456.jpg landmarks/grey_owl/n01622779_4456.box
images/grey_owl/n01622779_4490.jpg landmarks/grey_owl/n01622779_4490.box
images/grey_owl/n01622779_4501.jpg landmarks/grey_owl/n01622779_4501.box
images/grey_owl/n01622779_4525.jpg landmarks/grey_owl/n01622779_4525.box
images/grey_owl/n01622779_4527.jpg landmarks/grey_owl/n01622779_4527.box
images/grey_owl/n01622779_4534.jpg landmarks/grey_owl/n01622779_4534.box
images/grey_owl/n01622779_4542.jpg landmarks/grey_owl/n01622779_4542.box
images/grey_owl/n01622779_4547.jpg landmarks/grey_owl/n01622779_4547.box
images/grey_owl/n01622779_4579.jpg landmarks/grey_owl/n01622779_4579.box
images/grey_owl/n01622779_457.jpg landmarks/grey_owl/n01622779_457.box
images/grey_owl/n01622779_4600.jpg landmarks/grey_owl/n01622779_4600.box
images/grey_owl/n01622779_4611.jpg landmarks/grey_owl/n01622779_4611.box
images/grey_owl/n01622779_4621.jpg landmarks/grey_owl/n01622779_4621.box
images/grey_owl/n01622779_4633.jpg landmarks/grey_owl/n01622779_4633.box
images/grey_owl/n01622779_4649.jpg landmarks/grey_owl/n01622779_4649.box
images/grey_owl/n01622779_4683.jpg landmarks/grey_owl/n01622779_4683.box
images/grey_owl/n01622779_4688.jpg landmarks/grey_owl/n01622779_4688.box
images/grey_owl/n01622779_4716.jpg landmarks/grey_owl/n01622779_4716.box
images/grey_owl/n01622779_4717.jpg landmarks/grey_owl/n01622779_4717.box
images/grey_owl/n01622779_4721.jpg landmarks/grey_owl/n01622779_4721.box
images/grey_owl/n01622779_4724.jpg landmarks/grey_owl/n01622779_4724.box
images/grey_owl/n01622779_4728.jpg landmarks/grey_owl/n01622779_4728.box
images/grey_owl/n01622779_4735.jpg landmarks/grey_owl/n01622779_4735.box
images/grey_owl/n01622779_4739.jpg landmarks/grey_owl/n01622779_4739.box
images/grey_owl/n01622779_4751.jpg landmarks/grey_owl/n01622779_4751.box
images/grey_owl/n01622779_4752.jpg landmarks/grey_owl/n01622779_4752.box
images/grey_owl/n01622779_4754.jpg landmarks/grey_owl/n01622779_4754.box
images/grey_owl/n01622779_4768.jpg landmarks/grey_owl/n01622779_4768.box
images/grey_owl/n01622779_4799.jpg landmarks/grey_owl/n01622779_4799.box
images/grey_owl/n01622779_4813.jpg landmarks/grey_owl/n01622779_4813.box
images/grey_owl/n01622779_4852.jpg landmarks/grey_owl/n01622779_4852.box
images/grey_owl/n01622779_486.jpg landmarks/grey_owl/n01622779_486.box
images/grey_owl/n01622779_4874.jpg landmarks/grey_owl/n01622779_4874.box
images/grey_owl/n01622779_4880.jpg landmarks/grey_owl/n01622779_4880.box
images/grey_owl/n01622779_4892.jpg landmarks/grey_owl/n01622779_4892.box
images/grey_owl/n01622779_4898.jpg landmarks/grey_owl/n01622779_4898.box
images/grey_owl/n01622779_492.jpg landmarks/grey_owl/n01622779_492.box
images/grey_owl/n01622779_495.jpg landmarks/grey_owl/n01622779_495.box
images/grey_owl/n01622779_4961.jpg landmarks/grey_owl/n01622779_4961.box
images/grey_owl/n01622779_5011.jpg landmarks/grey_owl/n01622779_5011.box
images/grey_owl/n01622779_5025.jpg landmarks/grey_owl/n01622779_5025.box
images/grey_owl/n01622779_5029.jpg landmarks/grey_owl/n01622779_5029.box
images/grey_owl/n01622779_5056.jpg landmarks/grey_owl/n01622779_5056.box
images/grey_owl/n01622779_5089.jpg landmarks/grey_owl/n01622779_5089.box
images/grey_owl/n01622779_5125.jpg landmarks/grey_owl/n01622779_5125.box
images/grey_owl/n01622779_5145.jpg landmarks/grey_owl/n01622779_5145.box
images/grey_owl/n01622779_5161.jpg landmarks/grey_owl/n01622779_5161.box
images/grey_owl/n01622779_5206.jpg landmarks/grey_owl/n01622779_5206.box
images/grey_owl/n01622779_5213.jpg landmarks/grey_owl/n01622779_5213.box
images/grey_owl/n01622779_5216.jpg landmarks/grey_owl/n01622779_5216.box
images/grey_owl/n01622779_5231.jpg landmarks/grey_owl/n01622779_5231.box
images/grey_owl/n01622779_5255.jpg landmarks/grey_owl/n01622779_5255.box
images/grey_owl/n01622779_5263.jpg landmarks/grey_owl/n01622779_5263.box
images/grey_owl/n01622779_5278.jpg landmarks/grey_owl/n01622779_5278.box
images/grey_owl/n01622779_5284.jpg landmarks/grey_owl/n01622779_5284.box
images/grey_owl/n01622779_5289.jpg landmarks/grey_owl/n01622779_5289.box
images/grey_owl/n01622779_5298.jpg landmarks/grey_owl/n01622779_5298.box
images/grey_owl/n01622779_5302.jpg landmarks/grey_owl/n01622779_5302.box
images/grey_owl/n01622779_5305.jpg landmarks/grey_owl/n01622779_5305.box
images/grey_owl/n01622779_5322.jpg landmarks/grey_owl/n01622779_5322.box
images/grey_owl/n01622779_5338.jpg landmarks/grey_owl/n01622779_5338.box
images/grey_owl/n01622779_533.jpg landmarks/grey_owl/n01622779_533.box
images/grey_owl/n01622779_5348.jpg landmarks/grey_owl/n01622779_5348.box
images/grey_owl/n01622779_5389.jpg landmarks/grey_owl/n01622779_5389.box
images/grey_owl/n01622779_5393.jpg landmarks/grey_owl/n01622779_5393.box
images/grey_owl/n01622779_539.jpg landmarks/grey_owl/n01622779_539.box
images/grey_owl/n01622779_5406.jpg landmarks/grey_owl/n01622779_5406.box
images/grey_owl/n01622779_5409.jpg landmarks/grey_owl/n01622779_5409.box
images/grey_owl/n01622779_5410.jpg landmarks/grey_owl/n01622779_5410.box
images/grey_owl/n01622779_5420.jpg landmarks/grey_owl/n01622779_5420.box
images/grey_owl/n01622779_5421.jpg landmarks/grey_owl/n01622779_5421.box
images/grey_owl/n01622779_5434.jpg landmarks/grey_owl/n01622779_5434.box
images/grey_owl/n01622779_5441.jpg landmarks/grey_owl/n01622779_5441.box
images/grey_owl/n01622779_5443.jpg landmarks/grey_owl/n01622779_5443.box
images/grey_owl/n01622779_5446.jpg landmarks/grey_owl/n01622779_5446.box
images/grey_owl/n01622779_5460.jpg landmarks/grey_owl/n01622779_5460.box
images/grey_owl/n01622779_5489.jpg landmarks/grey_owl/n01622779_5489.box
images/grey_owl/n01622779_5490.jpg landmarks/grey_owl/n01622779_5490.box
images/grey_owl/n01622779_5504.jpg landmarks/grey_owl/n01622779_5504.box
images/grey_owl/n01622779_550.jpg landmarks/grey_owl/n01622779_550.box
images/grey_owl/n01622779_5517.jpg landmarks/grey_owl/n01622779_5517.box
images/grey_owl/n01622779_5518.jpg landmarks/grey_owl/n01622779_5518.box
images/grey_owl/n01622779_5520.jpg landmarks/grey_owl/n01622779_5520.box
images/grey_owl/n01622779_5525.jpg landmarks/grey_owl/n01622779_5525.box
images/grey_owl/n01622779_554.jpg landmarks/grey_owl/n01622779_554.box
images/grey_owl/n01622779_5551.jpg landmarks/grey_owl/n01622779_5551.box
images/grey_owl/n01622779_5581.jpg landmarks/grey_owl/n01622779_5581.box
images/grey_owl/n01622779_5625.jpg landmarks/grey_owl/n01622779_5625.box
images/grey_owl/n01622779_5627.jpg landmarks/grey_owl/n01622779_5627.box
images/grey_owl/n01622779_565.jpg landmarks/grey_owl/n01622779_565.box
images/grey_owl/n01622779_5677.jpg landmarks/grey_owl/n01622779_5677.box
images/grey_owl/n01622779_5678.jpg landmarks/grey_owl/n01622779_5678.box
images/grey_owl/n01622779_5680.jpg landmarks/grey_owl/n01622779_5680.box
images/grey_owl/n01622779_5682.jpg landmarks/grey_owl/n01622779_5682.box
images/grey_owl/n01622779_5702.jpg landmarks/grey_owl/n01622779_5702.box
images/grey_owl/n01622779_5706.jpg landmarks/grey_owl/n01622779_5706.box
images/grey_owl/n01622779_5774.jpg landmarks/grey_owl/n01622779_5774.box
images/grey_owl/n01622779_5817.jpg landmarks/grey_owl/n01622779_5817.box
images/grey_owl/n01622779_5827.jpg landmarks/grey_owl/n01622779_5827.box
images/grey_owl/n01622779_583.jpg landmarks/grey_owl/n01622779_583.box
images/grey_owl/n01622779_5889.jpg landmarks/grey_owl/n01622779_5889.box
images/grey_owl/n01622779_5949.jpg landmarks/grey_owl/n01622779_5949.box
images/grey_owl/n01622779_5964.jpg landmarks/grey_owl/n01622779_5964.box
images/grey_owl/n01622779_6011.jpg landmarks/grey_owl/n01622779_6011.box
images/grey_owl/n01622779_6015.jpg landmarks/grey_owl/n01622779_6015.box
images/grey_owl/n01622779_6026.jpg landmarks/grey_owl/n01622779_6026.box
images/grey_owl/n01622779_6056.jpg landmarks/grey_owl/n01622779_6056.box
images/grey_owl/n01622779_6072.jpg landmarks/grey_owl/n01622779_6072.box
images/grey_owl/n01622779_6092.jpg landmarks/grey_owl/n01622779_6092.box
images/grey_owl/n01622779_6097.jpg landmarks/grey_owl/n01622779_6097.box
images/grey_owl/n01622779_6111.jpg landmarks/grey_owl/n01622779_6111.box
images/grey_owl/n01622779_6113.jpg landmarks/grey_owl/n01622779_6113.box
images/grey_owl/n01622779_6123.jpg landmarks/grey_owl/n01622779_6123.box
images/grey_owl/n01622779_6186.jpg landmarks/grey_owl/n01622779_6186.box
images/grey_owl/n01622779_6206.jpg landmarks/grey_owl/n01622779_6206.box
images/grey_owl/n01622779_6209.jpg landmarks/grey_owl/n01622779_6209.box
images/grey_owl/n01622779_620.jpg landmarks/grey_owl/n01622779_620.box
images/grey_owl/n01622779_6236.jpg landmarks/grey_owl/n01622779_6236.box
images/grey_owl/n01622779_6238.jpg landmarks/grey_owl/n01622779_6238.box
images/grey_owl/n01622779_6293.jpg landmarks/grey_owl/n01622779_6293.box
images/grey_owl/n01622779_6297.jpg landmarks/grey_owl/n01622779_6297.box
images/grey_owl/n01622779_6304.jpg landmarks/grey_owl/n01622779_6304.box
images/grey_owl/n01622779_632.jpg landmarks/grey_owl/n01622779_632.box
images/grey_owl/n01622779_6334.jpg landmarks/grey_owl/n01622779_6334.box
images/grey_owl/n01622779_6345.jpg landmarks/grey_owl/n01622779_6345.box
images/grey_owl/n01622779_6382.jpg landmarks/grey_owl/n01622779_6382.box
images/grey_owl/n01622779_640.jpg landmarks/grey_owl/n01622779_640.box
images/grey_owl/n01622779_6417.jpg landmarks/grey_owl/n01622779_6417.box
images/grey_owl/n01622779_6450.jpg landmarks/grey_owl/n01622779_6450.box
images/grey_owl/n01622779_6476.jpg landmarks/grey_owl/n01622779_6476.box
images/grey_owl/n01622779_6485.jpg landmarks/grey_owl/n01622779_6485.box
images/grey_owl/n01622779_6513.jpg landmarks/grey_owl/n01622779_6513.box
images/grey_owl/n01622779_6527.jpg landmarks/grey_owl/n01622779_6527.box
images/grey_owl/n01622779_6534.jpg landmarks/grey_owl/n01622779_6534.box
images/grey_owl/n01622779_6543.jpg landmarks/grey_owl/n01622779_6543.box
images/grey_owl/n01622779_6544.jpg landmarks/grey_owl/n01622779_6544.box
images/grey_owl/n01622779_655.jpg landmarks/grey_owl/n01622779_655.box
images/grey_owl/n01622779_6567.jpg landmarks/grey_owl/n01622779_6567.box
images/grey_owl/n01622779_6575.jpg landmarks/grey_owl/n01622779_6575.box
images/grey_owl/n01622779_657.jpg landmarks/grey_owl/n01622779_657.box
images/grey_owl/n01622779_6653.jpg landmarks/grey_owl/n01622779_6653.box
images/grey_owl/n01622779_6655.jpg landmarks/grey_owl/n01622779_6655.box
images/grey_owl/n01622779_6665.jpg landmarks/grey_owl/n01622779_6665.box
images/grey_owl/n01622779_66.jpg landmarks/grey_owl/n01622779_66.box
images/grey_owl/n01622779_6736.jpg landmarks/grey_owl/n01622779_6736.box
images/grey_owl/n01622779_6767.jpg landmarks/grey_owl/n01622779_6767.box
images/grey_owl/n01622779_676.jpg landmarks/grey_owl/n01622779_676.box
images/grey_owl/n01622779_6794.jpg landmarks/grey_owl/n01622779_6794.box
images/grey_owl/n01622779_6811.jpg landmarks/grey_owl/n01622779_6811.box
images/grey_owl/n01622779_6824.jpg landmarks/grey_owl/n01622779_6824.box
images/grey_owl/n01622779_6830.jpg landmarks/grey_owl/n01622779_6830.box
images/grey_owl/n01622779_6831.jpg landmarks/grey_owl/n01622779_6831.box
images/grey_owl/n01622779_6859.jpg landmarks/grey_owl/n01622779_6859.box
images/grey_owl/n01622779_6862.jpg landmarks/grey_owl/n01622779_6862.box
images/grey_owl/n01622779_6876.jpg landmarks/grey_owl/n01622779_6876.box
images/grey_owl/n01622779_6890.jpg landmarks/grey_owl/n01622779_6890.box
images/grey_owl/n01622779_6921.jpg landmarks/grey_owl/n01622779_6921.box
images/grey_owl/n01622779_6923.jpg landmarks/grey_owl/n01622779_6923.box
images/grey_owl/n01622779_6956.jpg landmarks/grey_owl/n01622779_6956.box
images/grey_owl/n01622779_6963.jpg landmarks/grey_owl/n01622779_6963.box
images/grey_owl/n01622779_6965.jpg landmarks/grey_owl/n01622779_6965.box
images/grey_owl/n01622779_6993.jpg landmarks/grey_owl/n01622779_6993.box
images/grey_owl/n01622779_69.jpg landmarks/grey_owl/n01622779_69.box
images/grey_owl/n01622779_7006.jpg landmarks/grey_owl/n01622779_7006.box
images/grey_owl/n01622779_7007.jpg landmarks/grey_owl/n01622779_7007.box
images/grey_owl/n01622779_7034.jpg landmarks/grey_owl/n01622779_7034.box
images/grey_owl/n01622779_7080.jpg landmarks/grey_owl/n01622779_7080.box
images/grey_owl/n01622779_7113.jpg landmarks/grey_owl/n01622779_7113.box
images/grey_owl/n01622779_711.jpg landmarks/grey_owl/n01622779_711.box
images/grey_owl/n01622779_7146.jpg landmarks/grey_owl/n01622779_7146.box
images/grey_owl/n01622779_7279.jpg landmarks/grey_owl/n01622779_7279.box
images/grey_owl/n01622779_727.jpg landmarks/grey_owl/n01622779_727.box
images/grey_owl/n01622779_730.jpg landmarks/grey_owl/n01622779_730.box
images/grey_owl/n01622779_732.jpg landmarks/grey_owl/n01622779_732.box
images/grey_owl/n01622779_7348.jpg landmarks/grey_owl/n01622779_7348.box
images/grey_owl/n01622779_7387.jpg landmarks/grey_owl/n01622779_7387.box
images/grey_owl/n01622779_7389.jpg landmarks/grey_owl/n01622779_7389.box
images/grey_owl/n01622779_7396.jpg landmarks/grey_owl/n01622779_7396.box
images/grey_owl/n01622779_7420.jpg landmarks/grey_owl/n01622779_7420.box
images/grey_owl/n01622779_7428.jpg landmarks/grey_owl/n01622779_7428.box
images/grey_owl/n01622779_7439.jpg landmarks/grey_owl/n01622779_7439.box
images/grey_owl/n01622779_758.jpg landmarks/grey_owl/n01622779_758.box
images/grey_owl/n01622779_75.jpg landmarks/grey_owl/n01622779_75.box
images/grey_owl/n01622779_810.jpg landmarks/grey_owl/n01622779_810.box
images/grey_owl/n01622779_816.jpg landmarks/grey_owl/n01622779_816.box
images/grey_owl/n01622779_829.jpg landmarks/grey_owl/n01622779_829.box
images/grey_owl/n01622779_837.jpg landmarks/grey_owl/n01622779_837.box
images/grey_owl/n01622779_839.jpg landmarks/grey_owl/n01622779_839.box
images/grey_owl/n01622779_869.jpg landmarks/grey_owl/n01622779_869.box
images/grey_owl/n01622779_876.jpg landmarks/grey_owl/n01622779_876.box
images/grey_owl/n01622779_896.jpg landmarks/grey_owl/n01622779_896.box
images/grey_owl/n01622779_901.jpg landmarks/grey_owl/n01622779_901.box
images/grey_owl/n01622779_923.jpg landmarks/grey_owl/n01622779_923.box
images/grey_owl/n01622779_924.jpg landmarks/grey_owl/n01622779_924.box
images/grey_owl/n01622779_927.jpg landmarks/grey_owl/n01622779_927.box
images/grey_owl/n01622779_932.jpg landmarks/grey_owl/n01622779_932.box
images/grey_owl/n01622779_940.jpg landmarks/grey_owl/n01622779_940.box
images/grey_owl/n01622779_950.jpg landmarks/grey_owl/n01622779_950.box
images/grey_owl/n01622779_963.jpg landmarks/grey_owl/n01622779_963.box
images/grey_owl/n01622779_966.jpg landmarks/grey_owl/n01622779_966.box
images/grey_owl/n01622779_967.jpg landmarks/grey_owl/n01622779_967.box
images/grey_owl/n01622779_979.jpg landmarks/grey_owl/n01622779_979.box
