meerkat/n02138441_29.jpg
meerkat/n02138441_76.jpg
meerkat/n02138441_1314.jpg
meerkat/n02138441_6325.jpg
meerkat/n02138441_1309.jpg
meerkat/n02138441_4379.jpg
meerkat/n02138441_1278.jpg
meerkat/n02138441_1274.jpg
meerkat/n02138441_1157.jpg
meerkat/n02138441_1674.jpg
